00:00:00.003728 VirtualBox DHCP Server 6.1.30 r148432 linux.amd64 (Dec 10 2021 19:46:42) release log
00:00:00.003731 Log opened 2022-01-16T22:27:37.609947000Z
00:00:00.003732 Build Type: release
00:00:00.003735 OS Product: Linux
00:00:00.003738 OS Release: 5.16.0-arch1-1
00:00:00.003740 OS Version: #1 SMP PREEMPT Mon, 10 Jan 2022 20:11:47 +0000
00:00:00.003777 DMI Product Name: Inspiron 1525                   
00:00:00.003795 DMI Product Version: 
00:00:00.003806 Firmware type: BIOS
00:00:00.003870 Host RAM: 3915MB (3.8GB) total, 3576MB (3.4GB) available
00:00:00.003874 Executable: /usr/lib/virtualbox/VBoxNetDHCP
00:00:00.003875 Process ID: 660800
00:00:00.003876 Package type: LINUX_64BITS_GENERIC (OSE)
00:00:00.003915 --config:  HostInterfaceNetworking-vboxnet0
00:00:00.003922 --comment: HostInterfaceNetworking-vboxnet0
00:00:00.004113 IP address:   192.168.56.100/24
00:00:00.004124 Address pool: 192.168.56.101 - 192.168.56.254
00:00:00.004162 MAC address is not specified: will use generated MAC 08:00:27:ab:8d:ad
00:00:00.004174 Db::i_enterFixedAddressAssignment: 08:00:27:ab:8d:ad: 192.168.56.100
00:00:00.004187 loading leases from /home/tarun/.config/VirtualBox/HostInterfaceNetworking-vboxnet0-Dhcpd.leases
00:00:00.004275 > LOAD: EXPIRED lease 192.168.56.102 to [ff:27:df:07:eb:00:04:c1:3f:a2:4c:43:37:ca:4d:a9:0f:79:38:98:5d:0b:f2] (08:00:27:df:07:eb), acked, valid from 2022-01-16T22:24:05Z for 600s until 2022-01-16T22:34:05Z
00:00:00.004303 > LOAD: EXPIRED lease 192.168.56.101 to [ff:27:00:00:00:00:04:44:45:4c:4c:43:00:10:4a:80:30:b5:c0:4f:50:33:4a] (0a:00:27:00:00:00), acked, valid from 2022-01-16T22:27:03Z for 600s until 2022-01-16T22:37:03Z
00:00:01.544001 REQUEST xid 0x5daf5869 chaddr 0a:00:27:00:00:00
00:00:01.544070  ciaddr 0.0.0.0
00:00:01.544085  client id: ff 27 00 00 00 00 04 44 45 4c 4c 43 00 10 4a 80 30 b5 c0 4f 50 33 4a
00:00:01.544096  requested address 192.168.56.101
00:00:01.544110  params { 1 121 3 6 12 15 26 28 33 51 54 58 59 119 }
00:00:01.544197   57: 05 c0
00:00:01.544203   145: 01
00:00:01.544212 > allocateAddress 192.168.56.101 to client [ff:27:00:00:00:00:04:44:45:4c:4c:43:00:10:4a:80:30:b5:c0:4f:50:33:4a] (0a:00:27:00:00:00)
00:00:01.544230 > ... found existing binding 192.168.56.101 to [ff:27:00:00:00:00:04:44:45:4c:4c:43:00:10:4a:80:30:b5:c0:4f:50:33:4a] (0a:00:27:00:00:00), acked, valid from 2022-01-16T22:27:03Z for 600s until 2022-01-16T22:37:03Z
00:00:01.544256 Lease time 600 secs (default)
00:00:01.544265 writing leases to /home/tarun/.config/VirtualBox/HostInterfaceNetworking-vboxnet0-Dhcpd.leases
00:00:02.026948 >>> requested option 1 (SubnetMask)
00:00:02.026982 ... always supplied
00:00:02.026989 >>> requested option 121 (unknown)
00:00:02.026996 ... not found
00:00:02.027002 >>> requested option 3 (Routers)
00:00:02.027008 ... not found
00:00:02.027014 >>> requested option 6 (DNSes)
00:00:02.027025 ... not found
00:00:02.027031 >>> requested option 12 (HostName)
00:00:02.027036 ... not found
00:00:02.027042 >>> requested option 15 (DomainName)
00:00:02.027047 ... not found
00:00:02.027053 >>> requested option 26 (InterfaceMTU)
00:00:02.027058 ... not found
00:00:02.027064 >>> requested option 28 (BroadcastAddress)
00:00:02.027069 ... not found
00:00:02.027074 >>> requested option 33 (StaticRoute)
00:00:02.027080 ... not found
00:00:02.027085 >>> requested option 51 (LeaseTime)
00:00:02.027091 ... not found
00:00:02.027097 >>> requested option 54 (ServerId)
00:00:02.027102 ... not found
00:00:02.027107 >>> requested option 58 (RenewalTime)
00:00:02.027113 ... not found
00:00:02.027118 >>> requested option 59 (RebindingTime)
00:00:02.027124 ... not found
00:00:02.027129 >>> requested option 119 (DomainSearch)
00:00:02.027135 ... not found
00:00:02.027146 encoding option 1 (SubnetMask)
00:00:02.027153 encoding option 51 (LeaseTime)
00:00:02.027161 ACK xid 0x5daf5869 chaddr 0a:00:27:00:00:00
00:00:02.027181  ciaddr 0.0.0.0 yiaddr 192.168.56.101
00:00:02.027199 encoded message: 548 bytes
00:00:02.027202 00007f2e8c003960/0000: 02 01 06 00 69 58 af 5d-00 00 00 00 00 00 00 00 ....iX.]........
00:00:02.027207 00007f2e8c003970/0010: c0 a8 38 65 00 00 00 00-00 00 00 00 0a 00 27 00 ..8e..........'.
00:00:02.027210 00007f2e8c003980/0020: 00 00 00 00 00 00 00 00-00 00 00 00 00 00 00 00 ................
00:00:02.027213 00007f2e8c003990/0030: 00 00 00 00 00 00 00 00-00 00 00 00 00 00 00 00 ................
00:00:02.027217 00007f2e8c0039a0/0040: 00 00 00 00 00 00 00 00-00 00 00 00 00 00 00 00 ................
00:00:02.027220 00007f2e8c0039b0/0050: 00 00 00 00 00 00 00 00-00 00 00 00 00 00 00 00 ................
00:00:02.027223 00007f2e8c0039c0/0060: 00 00 00 00 00 00 00 00-00 00 00 00 00 00 00 00 ................
00:00:02.027226 00007f2e8c0039d0/0070: 00 00 00 00 00 00 00 00-00 00 00 00 00 00 00 00 ................
00:00:02.027229 00007f2e8c0039e0/0080: 00 00 00 00 00 00 00 00-00 00 00 00 00 00 00 00 ................
00:00:02.027232 00007f2e8c0039f0/0090: 00 00 00 00 00 00 00 00-00 00 00 00 00 00 00 00 ................
00:00:02.027235 00007f2e8c003a00/00a0: 00 00 00 00 00 00 00 00-00 00 00 00 00 00 00 00 ................
00:00:02.027238 00007f2e8c003a10/00b0: 00 00 00 00 00 00 00 00-00 00 00 00 00 00 00 00 ................
00:00:02.027241 00007f2e8c003a20/00c0: 00 00 00 00 00 00 00 00-00 00 00 00 00 00 00 00 ................
00:00:02.027244 00007f2e8c003a30/00d0: 00 00 00 00 00 00 00 00-00 00 00 00 00 00 00 00 ................
00:00:02.027247 00007f2e8c003a40/00e0: 00 00 00 00 00 00 00 00-00 00 00 00 63 82 53 63 ............c.Sc
00:00:02.027251 00007f2e8c003a50/00f0: 36 04 c0 a8 38 64 35 01-05 01 04 ff ff ff 00 33 6...8d5........3
00:00:02.027254 00007f2e8c003a60/0100: 04 00 00 02 58 ff 00 00-00 00 00 00 00 00 00 00 ....X...........
00:00:02.027257 00007f2e8c003a70/0110: 00 00 00 00 00 00 00 00-00 00 00 00 00 00 00 00 ................
00:00:02.027260 00007f2e8c003a80/0120: 00 00 00 00 00 00 00 00-00 00 00 00 00 00 00 00 ................
00:00:02.027263 00007f2e8c003a90/0130: 00 00 00 00 00 00 00 00-00 00 00 00 00 00 00 00 ................
00:00:02.027267 00007f2e8c003aa0/0140: 00 00 00 00 00 00 00 00-00 00 00 00 00 00 00 00 ................
00:00:02.027270 00007f2e8c003ab0/0150: 00 00 00 00 00 00 00 00-00 00 00 00 00 00 00 00 ................
00:00:02.027273 00007f2e8c003ac0/0160: 00 00 00 00 00 00 00 00-00 00 00 00 00 00 00 00 ................
00:00:02.027276 00007f2e8c003ad0/0170: 00 00 00 00 00 00 00 00-00 00 00 00 00 00 00 00 ................
00:00:02.027279 00007f2e8c003ae0/0180: 00 00 00 00 00 00 00 00-00 00 00 00 00 00 00 00 ................
00:00:02.027282 00007f2e8c003af0/0190: 00 00 00 00 00 00 00 00-00 00 00 00 00 00 00 00 ................
00:00:02.027285 00007f2e8c003b00/01a0: 00 00 00 00 00 00 00 00-00 00 00 00 00 00 00 00 ................
00:00:02.027288 00007f2e8c003b10/01b0: 00 00 00 00 00 00 00 00-00 00 00 00 00 00 00 00 ................
00:00:02.027291 00007f2e8c003b20/01c0: 00 00 00 00 00 00 00 00-00 00 00 00 00 00 00 00 ................
00:00:02.027294 00007f2e8c003b30/01d0: 00 00 00 00 00 00 00 00-00 00 00 00 00 00 00 00 ................
00:00:02.027297 00007f2e8c003b40/01e0: 00 00 00 00 00 00 00 00-00 00 00 00 00 00 00 00 ................
00:00:02.027300 00007f2e8c003b50/01f0: 00 00 00 00 00 00 00 00-00 00 00 00 00 00 00 00 ................
00:00:02.027304 00007f2e8c003b60/0200: 00 00 00 00 00 00 00 00-00 00 00 00 00 00 00 00 ................
00:00:02.027307 00007f2e8c003b70/0210: 00 00 00 00 00 00 00 00-00 00 00 00 00 00 00 00 ................
00:00:02.027310 00007f2e8c003b80/0220: 00 00 00 00                                     ....
