00:00:00.003906 VirtualBox DHCP Server 6.1.30 r148432 linux.amd64 (Dec 10 2021 19:46:42) release log
00:00:00.003909 Log opened 2022-01-16T22:16:57.285911000Z
00:00:00.003910 Build Type: release
00:00:00.003913 OS Product: Linux
00:00:00.003915 OS Release: 5.16.0-arch1-1
00:00:00.003918 OS Version: #1 SMP PREEMPT Mon, 10 Jan 2022 20:11:47 +0000
00:00:00.003956 DMI Product Name: Inspiron 1525                   
00:00:00.003973 DMI Product Version: 
00:00:00.003984 Firmware type: BIOS
00:00:00.004048 Host RAM: 3915MB (3.8GB) total, 3549MB (3.4GB) available
00:00:00.004052 Executable: /usr/lib/virtualbox/VBoxNetDHCP
00:00:00.004053 Process ID: 649436
00:00:00.004054 Package type: LINUX_64BITS_GENERIC (OSE)
00:00:00.005130 --config:  HostInterfaceNetworking-vboxnet0
00:00:00.005143 --comment: HostInterfaceNetworking-vboxnet0
00:00:00.005360 IP address:   192.168.56.100/24
00:00:00.005374 Address pool: 192.168.56.101 - 192.168.56.254
00:00:00.005415 MAC address is not specified: will use generated MAC 08:00:27:24:68:a7
00:00:00.005428 Db::i_enterFixedAddressAssignment: 08:00:27:24:68:a7: 192.168.56.100
00:00:00.005440 loading leases from /home/tarun/.config/VirtualBox/HostInterfaceNetworking-vboxnet0-Dhcpd.leases
00:00:00.005589 Runtime error opening '/home/tarun/.config/VirtualBox/HostInterfaceNetworking-vboxnet0-Dhcpd.leases' for reading: -102 (File not found.)
00:00:00.225423 DISCOVER xid 0x1f03b327 chaddr 0a:00:27:00:00:00
00:00:00.225541  ciaddr 0.0.0.0
00:00:00.225556  (rapid commit) client id: ff 27 00 00 00 00 04 44 45 4c 4c 43 00 10 4a 80 30 b5 c0 4f 50 33 4a
00:00:00.225578  params { 1 121 3 6 12 15 26 28 33 51 54 58 59 119 }
00:00:00.225669   57: 05 c0
00:00:00.225677   145: 01
00:00:00.225689 > allocateAddress to client [ff:27:00:00:00:00:04:44:45:4c:4c:43:00:10:4a:80:30:b5:c0:4f:50:33:4a] (0a:00:27:00:00:00)
00:00:00.225718 > .... creating new binding
00:00:00.225725 > .... allocated 192.168.56.101 free
00:00:00.225738 Lease time 600 secs (default)
00:00:00.225759 writing leases to /home/tarun/.config/VirtualBox/HostInterfaceNetworking-vboxnet0-Dhcpd.leases
00:00:00.481393 >>> requested option 1 (SubnetMask)
00:00:00.481497 ... always supplied
00:00:00.481528 >>> requested option 121 (unknown)
00:00:00.481554 ... not found
00:00:00.481575 >>> requested option 3 (Routers)
00:00:00.481597 ... not found
00:00:00.481618 >>> requested option 6 (DNSes)
00:00:00.481642 ... not found
00:00:00.481661 >>> requested option 12 (HostName)
00:00:00.481683 ... not found
00:00:00.481702 >>> requested option 15 (DomainName)
00:00:00.481721 ... not found
00:00:00.481742 >>> requested option 26 (InterfaceMTU)
00:00:00.481764 ... not found
00:00:00.481785 >>> requested option 28 (BroadcastAddress)
00:00:00.481807 ... not found
00:00:00.481826 >>> requested option 33 (StaticRoute)
00:00:00.481847 ... not found
00:00:00.481867 >>> requested option 51 (LeaseTime)
00:00:00.481888 ... not found
00:00:00.481909 >>> requested option 54 (ServerId)
00:00:00.481931 ... not found
00:00:00.482023 >>> requested option 58 (RenewalTime)
00:00:00.482066 ... not found
00:00:00.482083 >>> requested option 59 (RebindingTime)
00:00:00.482102 ... not found
00:00:00.482118 >>> requested option 119 (DomainSearch)
00:00:00.482137 ... not found
00:00:00.482173 encoding option 1 (SubnetMask)
00:00:00.482195 encoding option 51 (LeaseTime)
00:00:00.482215 encoding option 80 (RapidCommit)
00:00:00.482238 ACK xid 0x1f03b327 chaddr 0a:00:27:00:00:00
00:00:00.482298  ciaddr 0.0.0.0 yiaddr 192.168.56.101
00:00:00.482353 encoded message: 548 bytes
00:00:00.482362 00007f57c4002bb0/0000: 02 01 06 00 27 b3 03 1f-00 00 00 00 00 00 00 00 ....'...........
00:00:00.482375 00007f57c4002bc0/0010: c0 a8 38 65 00 00 00 00-00 00 00 00 0a 00 27 00 ..8e..........'.
00:00:00.482386 00007f57c4002bd0/0020: 00 00 00 00 00 00 00 00-00 00 00 00 00 00 00 00 ................
00:00:00.482397 00007f57c4002be0/0030: 00 00 00 00 00 00 00 00-00 00 00 00 00 00 00 00 ................
00:00:00.482407 00007f57c4002bf0/0040: 00 00 00 00 00 00 00 00-00 00 00 00 00 00 00 00 ................
00:00:00.482417 00007f57c4002c00/0050: 00 00 00 00 00 00 00 00-00 00 00 00 00 00 00 00 ................
00:00:00.482427 00007f57c4002c10/0060: 00 00 00 00 00 00 00 00-00 00 00 00 00 00 00 00 ................
00:00:00.482437 00007f57c4002c20/0070: 00 00 00 00 00 00 00 00-00 00 00 00 00 00 00 00 ................
00:00:00.482446 00007f57c4002c30/0080: 00 00 00 00 00 00 00 00-00 00 00 00 00 00 00 00 ................
00:00:00.482456 00007f57c4002c40/0090: 00 00 00 00 00 00 00 00-00 00 00 00 00 00 00 00 ................
00:00:00.482466 00007f57c4002c50/00a0: 00 00 00 00 00 00 00 00-00 00 00 00 00 00 00 00 ................
00:00:00.482476 00007f57c4002c60/00b0: 00 00 00 00 00 00 00 00-00 00 00 00 00 00 00 00 ................
00:00:00.482485 00007f57c4002c70/00c0: 00 00 00 00 00 00 00 00-00 00 00 00 00 00 00 00 ................
00:00:00.482495 00007f57c4002c80/00d0: 00 00 00 00 00 00 00 00-00 00 00 00 00 00 00 00 ................
00:00:00.482505 00007f57c4002c90/00e0: 00 00 00 00 00 00 00 00-00 00 00 00 63 82 53 63 ............c.Sc
00:00:00.482515 00007f57c4002ca0/00f0: 36 04 c0 a8 38 64 35 01-05 01 04 ff ff ff 00 33 6...8d5........3
00:00:00.482526 00007f57c4002cb0/0100: 04 00 00 02 58 50 00 ff-00 00 00 00 00 00 00 00 ....XP..........
00:00:00.482537 00007f57c4002cc0/0110: 00 00 00 00 00 00 00 00-00 00 00 00 00 00 00 00 ................
00:00:00.482547 00007f57c4002cd0/0120: 00 00 00 00 00 00 00 00-00 00 00 00 00 00 00 00 ................
00:00:00.482556 00007f57c4002ce0/0130: 00 00 00 00 00 00 00 00-00 00 00 00 00 00 00 00 ................
00:00:00.482566 00007f57c4002cf0/0140: 00 00 00 00 00 00 00 00-00 00 00 00 00 00 00 00 ................
00:00:00.482576 00007f57c4002d00/0150: 00 00 00 00 00 00 00 00-00 00 00 00 00 00 00 00 ................
00:00:00.482586 00007f57c4002d10/0160: 00 00 00 00 00 00 00 00-00 00 00 00 00 00 00 00 ................
00:00:00.482596 00007f57c4002d20/0170: 00 00 00 00 00 00 00 00-00 00 00 00 00 00 00 00 ................
00:00:00.482606 00007f57c4002d30/0180: 00 00 00 00 00 00 00 00-00 00 00 00 00 00 00 00 ................
00:00:00.482615 00007f57c4002d40/0190: 00 00 00 00 00 00 00 00-00 00 00 00 00 00 00 00 ................
00:00:00.482625 00007f57c4002d50/01a0: 00 00 00 00 00 00 00 00-00 00 00 00 00 00 00 00 ................
00:00:00.482635 00007f57c4002d60/01b0: 00 00 00 00 00 00 00 00-00 00 00 00 00 00 00 00 ................
00:00:00.482644 00007f57c4002d70/01c0: 00 00 00 00 00 00 00 00-00 00 00 00 00 00 00 00 ................
00:00:00.482654 00007f57c4002d80/01d0: 00 00 00 00 00 00 00 00-00 00 00 00 00 00 00 00 ................
00:00:00.482664 00007f57c4002d90/01e0: 00 00 00 00 00 00 00 00-00 00 00 00 00 00 00 00 ................
00:00:00.482674 00007f57c4002da0/01f0: 00 00 00 00 00 00 00 00-00 00 00 00 00 00 00 00 ................
00:00:00.482683 00007f57c4002db0/0200: 00 00 00 00 00 00 00 00-00 00 00 00 00 00 00 00 ................
00:00:00.482693 00007f57c4002dc0/0210: 00 00 00 00 00 00 00 00-00 00 00 00 00 00 00 00 ................
00:00:00.482703 00007f57c4002dd0/0220: 00 00 00 00                                     ....
00:01:05.175068 REQUEST xid 0x60b280c3 chaddr 08:00:27:df:07:eb
00:01:05.175145  ciaddr 0.0.0.0
00:01:05.175160  client id: ff 27 df 07 eb 00 04 c1 3f a2 4c 43 37 ca 4d a9 0f 79 38 98 5d 0b f2
00:01:05.175171  requested address 192.168.0.41
00:01:05.175185  params { 1 121 3 6 12 15 26 28 33 51 54 58 59 119 }
00:01:05.175272   57: 05 c0
00:01:05.175280   145: 01
00:01:05.175289 rejecting invalid requested address
00:01:05.175300 NAC xid 0x60b280c3 chaddr 08:00:27:df:07:eb
00:01:05.175319  ciaddr 0.0.0.0
00:01:05.175331 encoded message: 548 bytes
00:01:05.175334 00007f57c4002bb0/0000: 02 01 06 00 c3 80 b2 60-00 00 00 00 00 00 00 00 .......`........
00:01:05.175339 00007f57c4002bc0/0010: 00 00 00 00 00 00 00 00-00 00 00 00 08 00 27 df ..............'.
00:01:05.175343 00007f57c4002bd0/0020: 07 eb 00 00 00 00 00 00-00 00 00 00 00 00 00 00 ................
00:01:05.175346 00007f57c4002be0/0030: 00 00 00 00 00 00 00 00-00 00 00 00 00 00 00 00 ................
00:01:05.175350 00007f57c4002bf0/0040: 00 00 00 00 00 00 00 00-00 00 00 00 00 00 00 00 ................
00:01:05.175358 00007f57c4002c00/0050: 00 00 00 00 00 00 00 00-00 00 00 00 00 00 00 00 ................
00:01:05.175362 00007f57c4002c10/0060: 00 00 00 00 00 00 00 00-00 00 00 00 00 00 00 00 ................
00:01:05.175365 00007f57c4002c20/0070: 00 00 00 00 00 00 00 00-00 00 00 00 00 00 00 00 ................
00:01:05.175369 00007f57c4002c30/0080: 00 00 00 00 00 00 00 00-00 00 00 00 00 00 00 00 ................
00:01:05.175372 00007f57c4002c40/0090: 00 00 00 00 00 00 00 00-00 00 00 00 00 00 00 00 ................
00:01:05.175376 00007f57c4002c50/00a0: 00 00 00 00 00 00 00 00-00 00 00 00 00 00 00 00 ................
00:01:05.175379 00007f57c4002c60/00b0: 00 00 00 00 00 00 00 00-00 00 00 00 00 00 00 00 ................
00:01:05.175383 00007f57c4002c70/00c0: 00 00 00 00 00 00 00 00-00 00 00 00 00 00 00 00 ................
00:01:05.175386 00007f57c4002c80/00d0: 00 00 00 00 00 00 00 00-00 00 00 00 00 00 00 00 ................
00:01:05.175390 00007f57c4002c90/00e0: 00 00 00 00 00 00 00 00-00 00 00 00 63 82 53 63 ............c.Sc
00:01:05.175393 00007f57c4002ca0/00f0: 36 04 c0 a8 38 64 35 01-06 ff 00 00 00 00 00 00 6...8d5.........
00:01:05.175397 00007f57c4002cb0/0100: 00 00 00 00 00 00 00 00-00 00 00 00 00 00 00 00 ................
00:01:05.175401 00007f57c4002cc0/0110: 00 00 00 00 00 00 00 00-00 00 00 00 00 00 00 00 ................
00:01:05.175404 00007f57c4002cd0/0120: 00 00 00 00 00 00 00 00-00 00 00 00 00 00 00 00 ................
00:01:05.175408 00007f57c4002ce0/0130: 00 00 00 00 00 00 00 00-00 00 00 00 00 00 00 00 ................
00:01:05.175411 00007f57c4002cf0/0140: 00 00 00 00 00 00 00 00-00 00 00 00 00 00 00 00 ................
00:01:05.175415 00007f57c4002d00/0150: 00 00 00 00 00 00 00 00-00 00 00 00 00 00 00 00 ................
00:01:05.175418 00007f57c4002d10/0160: 00 00 00 00 00 00 00 00-00 00 00 00 00 00 00 00 ................
00:01:05.175421 00007f57c4002d20/0170: 00 00 00 00 00 00 00 00-00 00 00 00 00 00 00 00 ................
00:01:05.175425 00007f57c4002d30/0180: 00 00 00 00 00 00 00 00-00 00 00 00 00 00 00 00 ................
00:01:05.175428 00007f57c4002d40/0190: 00 00 00 00 00 00 00 00-00 00 00 00 00 00 00 00 ................
00:01:05.175432 00007f57c4002d50/01a0: 00 00 00 00 00 00 00 00-00 00 00 00 00 00 00 00 ................
00:01:05.175435 00007f57c4002d60/01b0: 00 00 00 00 00 00 00 00-00 00 00 00 00 00 00 00 ................
00:01:05.175438 00007f57c4002d70/01c0: 00 00 00 00 00 00 00 00-00 00 00 00 00 00 00 00 ................
00:01:05.175442 00007f57c4002d80/01d0: 00 00 00 00 00 00 00 00-00 00 00 00 00 00 00 00 ................
00:01:05.175445 00007f57c4002d90/01e0: 00 00 00 00 00 00 00 00-00 00 00 00 00 00 00 00 ................
00:01:05.175449 00007f57c4002da0/01f0: 00 00 00 00 00 00 00 00-00 00 00 00 00 00 00 00 ................
00:01:05.175452 00007f57c4002db0/0200: 00 00 00 00 00 00 00 00-00 00 00 00 00 00 00 00 ................
00:01:05.175456 00007f57c4002dc0/0210: 00 00 00 00 00 00 00 00-00 00 00 00 00 00 00 00 ................
00:01:05.175459 00007f57c4002dd0/0220: 00 00 00 00                                     ....
00:01:05.360166 DISCOVER xid 0x3d00d011 chaddr 08:00:27:df:07:eb
00:01:05.360226  ciaddr 0.0.0.0
00:01:05.360240  (rapid commit) client id: ff 27 df 07 eb 00 04 c1 3f a2 4c 43 37 ca 4d a9 0f 79 38 98 5d 0b f2
00:01:05.360265  params { 1 121 3 6 12 15 26 28 33 51 54 58 59 119 }
00:01:05.360356   57: 05 c0
00:01:05.360364   145: 01
00:01:05.360372 > allocateAddress to client [ff:27:df:07:eb:00:04:c1:3f:a2:4c:43:37:ca:4d:a9:0f:79:38:98:5d:0b:f2] (08:00:27:df:07:eb)
00:01:05.360398 > .... creating new binding
00:01:05.360405 > .... allocated 192.168.56.102 free
00:01:05.360416 Lease time 600 secs (default)
00:01:05.360427 writing leases to /home/tarun/.config/VirtualBox/HostInterfaceNetworking-vboxnet0-Dhcpd.leases
00:01:05.462307 >>> requested option 1 (SubnetMask)
00:01:05.462346 ... always supplied
00:01:05.462353 >>> requested option 121 (unknown)
00:01:05.462365 ... not found
00:01:05.462371 >>> requested option 3 (Routers)
00:01:05.462398 ... not found
00:01:05.462404 >>> requested option 6 (DNSes)
00:01:05.462411 ... not found
00:01:05.462416 >>> requested option 12 (HostName)
00:01:05.462428 ... not found
00:01:05.462434 >>> requested option 15 (DomainName)
00:01:05.462440 ... not found
00:01:05.462446 >>> requested option 26 (InterfaceMTU)
00:01:05.462452 ... not found
00:01:05.462458 >>> requested option 28 (BroadcastAddress)
00:01:05.462464 ... not found
00:01:05.462470 >>> requested option 33 (StaticRoute)
00:01:05.462476 ... not found
00:01:05.462486 >>> requested option 51 (LeaseTime)
00:01:05.462493 ... not found
00:01:05.462499 >>> requested option 54 (ServerId)
00:01:05.462505 ... not found
00:01:05.462511 >>> requested option 58 (RenewalTime)
00:01:05.462517 ... not found
00:01:05.462523 >>> requested option 59 (RebindingTime)
00:01:05.462529 ... not found
00:01:05.462535 >>> requested option 119 (DomainSearch)
00:01:05.462546 ... not found
00:01:05.462557 encoding option 1 (SubnetMask)
00:01:05.462564 encoding option 51 (LeaseTime)
00:01:05.462571 encoding option 80 (RapidCommit)
00:01:05.462580 ACK xid 0x3d00d011 chaddr 08:00:27:df:07:eb
00:01:05.462606  ciaddr 0.0.0.0 yiaddr 192.168.56.102
00:01:05.462626 encoded message: 548 bytes
00:01:05.462629 00007f57c4002bb0/0000: 02 01 06 00 11 d0 00 3d-00 00 00 00 00 00 00 00 .......=........
00:01:05.462634 00007f57c4002bc0/0010: c0 a8 38 66 00 00 00 00-00 00 00 00 08 00 27 df ..8f..........'.
00:01:05.462638 00007f57c4002bd0/0020: 07 eb 00 00 00 00 00 00-00 00 00 00 00 00 00 00 ................
00:01:05.462642 00007f57c4002be0/0030: 00 00 00 00 00 00 00 00-00 00 00 00 00 00 00 00 ................
00:01:05.462645 00007f57c4002bf0/0040: 00 00 00 00 00 00 00 00-00 00 00 00 00 00 00 00 ................
00:01:05.462649 00007f57c4002c00/0050: 00 00 00 00 00 00 00 00-00 00 00 00 00 00 00 00 ................
00:01:05.462652 00007f57c4002c10/0060: 00 00 00 00 00 00 00 00-00 00 00 00 00 00 00 00 ................
00:01:05.462656 00007f57c4002c20/0070: 00 00 00 00 00 00 00 00-00 00 00 00 00 00 00 00 ................
00:01:05.462663 00007f57c4002c30/0080: 00 00 00 00 00 00 00 00-00 00 00 00 00 00 00 00 ................
00:01:05.462667 00007f57c4002c40/0090: 00 00 00 00 00 00 00 00-00 00 00 00 00 00 00 00 ................
00:01:05.462670 00007f57c4002c50/00a0: 00 00 00 00 00 00 00 00-00 00 00 00 00 00 00 00 ................
00:01:05.462674 00007f57c4002c60/00b0: 00 00 00 00 00 00 00 00-00 00 00 00 00 00 00 00 ................
00:01:05.462677 00007f57c4002c70/00c0: 00 00 00 00 00 00 00 00-00 00 00 00 00 00 00 00 ................
00:01:05.462681 00007f57c4002c80/00d0: 00 00 00 00 00 00 00 00-00 00 00 00 00 00 00 00 ................
00:01:05.462684 00007f57c4002c90/00e0: 00 00 00 00 00 00 00 00-00 00 00 00 63 82 53 63 ............c.Sc
00:01:05.462688 00007f57c4002ca0/00f0: 36 04 c0 a8 38 64 35 01-05 01 04 ff ff ff 00 33 6...8d5........3
00:01:05.462692 00007f57c4002cb0/0100: 04 00 00 02 58 50 00 ff-00 00 00 00 00 00 00 00 ....XP..........
00:01:05.462696 00007f57c4002cc0/0110: 00 00 00 00 00 00 00 00-00 00 00 00 00 00 00 00 ................
00:01:05.462699 00007f57c4002cd0/0120: 00 00 00 00 00 00 00 00-00 00 00 00 00 00 00 00 ................
00:01:05.462702 00007f57c4002ce0/0130: 00 00 00 00 00 00 00 00-00 00 00 00 00 00 00 00 ................
00:01:05.462706 00007f57c4002cf0/0140: 00 00 00 00 00 00 00 00-00 00 00 00 00 00 00 00 ................
00:01:05.462709 00007f57c4002d00/0150: 00 00 00 00 00 00 00 00-00 00 00 00 00 00 00 00 ................
00:01:05.462713 00007f57c4002d10/0160: 00 00 00 00 00 00 00 00-00 00 00 00 00 00 00 00 ................
00:01:05.462716 00007f57c4002d20/0170: 00 00 00 00 00 00 00 00-00 00 00 00 00 00 00 00 ................
00:01:05.462724 00007f57c4002d30/0180: 00 00 00 00 00 00 00 00-00 00 00 00 00 00 00 00 ................
00:01:05.462727 00007f57c4002d40/0190: 00 00 00 00 00 00 00 00-00 00 00 00 00 00 00 00 ................
00:01:05.462731 00007f57c4002d50/01a0: 00 00 00 00 00 00 00 00-00 00 00 00 00 00 00 00 ................
00:01:05.462734 00007f57c4002d60/01b0: 00 00 00 00 00 00 00 00-00 00 00 00 00 00 00 00 ................
00:01:05.462737 00007f57c4002d70/01c0: 00 00 00 00 00 00 00 00-00 00 00 00 00 00 00 00 ................
00:01:05.462741 00007f57c4002d80/01d0: 00 00 00 00 00 00 00 00-00 00 00 00 00 00 00 00 ................
00:01:05.462744 00007f57c4002d90/01e0: 00 00 00 00 00 00 00 00-00 00 00 00 00 00 00 00 ................
00:01:05.462747 00007f57c4002da0/01f0: 00 00 00 00 00 00 00 00-00 00 00 00 00 00 00 00 ................
00:01:05.462751 00007f57c4002db0/0200: 00 00 00 00 00 00 00 00-00 00 00 00 00 00 00 00 ................
00:01:05.462754 00007f57c4002dc0/0210: 00 00 00 00 00 00 00 00-00 00 00 00 00 00 00 00 ................
00:01:05.462758 00007f57c4002dd0/0220: 00 00 00 00                                     ....
00:05:05.974407 REQUEST xid 0xea2ca2be chaddr 0a:00:27:00:00:00
00:05:05.974481  ciaddr 192.168.56.101
00:05:05.974497  client id: ff 27 00 00 00 00 04 44 45 4c 4c 43 00 10 4a 80 30 b5 c0 4f 50 33 4a
00:05:05.974509  params { 1 121 3 6 12 15 26 28 33 51 54 58 59 119 }
00:05:05.974600   57: 05 c0
00:05:05.974608   145: 01
00:05:05.974617 > allocateAddress to client [ff:27:00:00:00:00:04:44:45:4c:4c:43:00:10:4a:80:30:b5:c0:4f:50:33:4a] (0a:00:27:00:00:00)
00:05:05.974636 > ... found existing binding 192.168.56.101 to [ff:27:00:00:00:00:04:44:45:4c:4c:43:00:10:4a:80:30:b5:c0:4f:50:33:4a] (0a:00:27:00:00:00), acked, valid from 2022-01-16T22:16:57Z for 600s until 2022-01-16T22:26:57Z
00:05:05.974659 Lease time 600 secs (default)
00:05:05.974669 writing leases to /home/tarun/.config/VirtualBox/HostInterfaceNetworking-vboxnet0-Dhcpd.leases
00:05:06.353306 >>> requested option 1 (SubnetMask)
00:05:06.353351 ... always supplied
00:05:06.353362 >>> requested option 121 (unknown)
00:05:06.353374 ... not found
00:05:06.353384 >>> requested option 3 (Routers)
00:05:06.353397 ... not found
00:05:06.353402 >>> requested option 6 (DNSes)
00:05:06.353408 ... not found
00:05:06.353413 >>> requested option 12 (HostName)
00:05:06.353419 ... not found
00:05:06.353424 >>> requested option 15 (DomainName)
00:05:06.353430 ... not found
00:05:06.353436 >>> requested option 26 (InterfaceMTU)
00:05:06.353442 ... not found
00:05:06.353447 >>> requested option 28 (BroadcastAddress)
00:05:06.353453 ... not found
00:05:06.353458 >>> requested option 33 (StaticRoute)
00:05:06.353464 ... not found
00:05:06.353469 >>> requested option 51 (LeaseTime)
00:05:06.353475 ... not found
00:05:06.353480 >>> requested option 54 (ServerId)
00:05:06.353486 ... not found
00:05:06.353491 >>> requested option 58 (RenewalTime)
00:05:06.353497 ... not found
00:05:06.353502 >>> requested option 59 (RebindingTime)
00:05:06.353508 ... not found
00:05:06.353513 >>> requested option 119 (DomainSearch)
00:05:06.353519 ... not found
00:05:06.353531 encoding option 1 (SubnetMask)
00:05:06.353538 encoding option 51 (LeaseTime)
00:05:06.353546 ACK xid 0xea2ca2be chaddr 0a:00:27:00:00:00
00:05:06.353565  ciaddr 192.168.56.101 yiaddr 192.168.56.101
00:05:06.353583 encoded message: 548 bytes
00:05:06.353586 00007f57c4002bb0/0000: 02 01 06 00 be a2 2c ea-00 00 00 00 c0 a8 38 65 ......,.......8e
00:05:06.353591 00007f57c4002bc0/0010: c0 a8 38 65 00 00 00 00-00 00 00 00 0a 00 27 00 ..8e..........'.
00:05:06.353594 00007f57c4002bd0/0020: 00 00 00 00 00 00 00 00-00 00 00 00 00 00 00 00 ................
00:05:06.353597 00007f57c4002be0/0030: 00 00 00 00 00 00 00 00-00 00 00 00 00 00 00 00 ................
00:05:06.353601 00007f57c4002bf0/0040: 00 00 00 00 00 00 00 00-00 00 00 00 00 00 00 00 ................
00:05:06.353604 00007f57c4002c00/0050: 00 00 00 00 00 00 00 00-00 00 00 00 00 00 00 00 ................
00:05:06.353607 00007f57c4002c10/0060: 00 00 00 00 00 00 00 00-00 00 00 00 00 00 00 00 ................
00:05:06.353610 00007f57c4002c20/0070: 00 00 00 00 00 00 00 00-00 00 00 00 00 00 00 00 ................
00:05:06.353613 00007f57c4002c30/0080: 00 00 00 00 00 00 00 00-00 00 00 00 00 00 00 00 ................
00:05:06.353616 00007f57c4002c40/0090: 00 00 00 00 00 00 00 00-00 00 00 00 00 00 00 00 ................
00:05:06.353619 00007f57c4002c50/00a0: 00 00 00 00 00 00 00 00-00 00 00 00 00 00 00 00 ................
00:05:06.353623 00007f57c4002c60/00b0: 00 00 00 00 00 00 00 00-00 00 00 00 00 00 00 00 ................
00:05:06.353626 00007f57c4002c70/00c0: 00 00 00 00 00 00 00 00-00 00 00 00 00 00 00 00 ................
00:05:06.353629 00007f57c4002c80/00d0: 00 00 00 00 00 00 00 00-00 00 00 00 00 00 00 00 ................
00:05:06.353632 00007f57c4002c90/00e0: 00 00 00 00 00 00 00 00-00 00 00 00 63 82 53 63 ............c.Sc
00:05:06.353635 00007f57c4002ca0/00f0: 36 04 c0 a8 38 64 35 01-05 01 04 ff ff ff 00 33 6...8d5........3
00:05:06.353639 00007f57c4002cb0/0100: 04 00 00 02 58 ff 00 00-00 00 00 00 00 00 00 00 ....X...........
00:05:06.353642 00007f57c4002cc0/0110: 00 00 00 00 00 00 00 00-00 00 00 00 00 00 00 00 ................
00:05:06.353645 00007f57c4002cd0/0120: 00 00 00 00 00 00 00 00-00 00 00 00 00 00 00 00 ................
00:05:06.353648 00007f57c4002ce0/0130: 00 00 00 00 00 00 00 00-00 00 00 00 00 00 00 00 ................
00:05:06.353651 00007f57c4002cf0/0140: 00 00 00 00 00 00 00 00-00 00 00 00 00 00 00 00 ................
00:05:06.353654 00007f57c4002d00/0150: 00 00 00 00 00 00 00 00-00 00 00 00 00 00 00 00 ................
00:05:06.353657 00007f57c4002d10/0160: 00 00 00 00 00 00 00 00-00 00 00 00 00 00 00 00 ................
00:05:06.353661 00007f57c4002d20/0170: 00 00 00 00 00 00 00 00-00 00 00 00 00 00 00 00 ................
00:05:06.353664 00007f57c4002d30/0180: 00 00 00 00 00 00 00 00-00 00 00 00 00 00 00 00 ................
00:05:06.353667 00007f57c4002d40/0190: 00 00 00 00 00 00 00 00-00 00 00 00 00 00 00 00 ................
00:05:06.353670 00007f57c4002d50/01a0: 00 00 00 00 00 00 00 00-00 00 00 00 00 00 00 00 ................
00:05:06.353673 00007f57c4002d60/01b0: 00 00 00 00 00 00 00 00-00 00 00 00 00 00 00 00 ................
00:05:06.353676 00007f57c4002d70/01c0: 00 00 00 00 00 00 00 00-00 00 00 00 00 00 00 00 ................
00:05:06.353679 00007f57c4002d80/01d0: 00 00 00 00 00 00 00 00-00 00 00 00 00 00 00 00 ................
00:05:06.353682 00007f57c4002d90/01e0: 00 00 00 00 00 00 00 00-00 00 00 00 00 00 00 00 ................
00:05:06.353685 00007f57c4002da0/01f0: 00 00 00 00 00 00 00 00-00 00 00 00 00 00 00 00 ................
00:05:06.353688 00007f57c4002db0/0200: 00 00 00 00 00 00 00 00-00 00 00 00 00 00 00 00 ................
00:05:06.353691 00007f57c4002dc0/0210: 00 00 00 00 00 00 00 00-00 00 00 00 00 00 00 00 ................
00:05:06.353694 00007f57c4002dd0/0220: 00 00 00 00                                     ....
00:07:07.764553 REQUEST xid 0x5d884fc6 chaddr 08:00:27:df:07:eb
00:07:07.764623  ciaddr 192.168.56.102
00:07:07.764640  client id: ff 27 df 07 eb 00 04 c1 3f a2 4c 43 37 ca 4d a9 0f 79 38 98 5d 0b f2
00:07:07.764654  params { 1 121 3 6 12 15 26 28 33 51 54 58 59 119 }
00:07:07.764758   57: 05 c0
00:07:07.764766   145: 01
00:07:07.764775 > allocateAddress to client [ff:27:df:07:eb:00:04:c1:3f:a2:4c:43:37:ca:4d:a9:0f:79:38:98:5d:0b:f2] (08:00:27:df:07:eb)
00:07:07.764795 > ... found existing binding 192.168.56.102 to [ff:27:df:07:eb:00:04:c1:3f:a2:4c:43:37:ca:4d:a9:0f:79:38:98:5d:0b:f2] (08:00:27:df:07:eb), acked, valid from 2022-01-16T22:18:02Z for 600s until 2022-01-16T22:28:02Z
00:07:07.764819 Lease time 600 secs (default)
00:07:07.764829 writing leases to /home/tarun/.config/VirtualBox/HostInterfaceNetworking-vboxnet0-Dhcpd.leases
00:07:08.080773 >>> requested option 1 (SubnetMask)
00:07:08.080773 ... always supplied
00:07:08.080773 >>> requested option 121 (unknown)
00:07:08.080773 ... not found
00:07:08.080773 >>> requested option 3 (Routers)
00:07:08.080773 ... not found
00:07:08.080773 >>> requested option 6 (DNSes)
00:07:08.080773 ... not found
00:07:08.080773 >>> requested option 12 (HostName)
00:07:08.080773 ... not found
00:07:08.080773 >>> requested option 15 (DomainName)
00:07:08.080773 ... not found
00:07:08.080773 >>> requested option 26 (InterfaceMTU)
00:07:08.080773 ... not found
00:07:08.080773 >>> requested option 28 (BroadcastAddress)
00:07:08.080773 ... not found
00:07:08.080773 >>> requested option 33 (StaticRoute)
00:07:08.080773 ... not found
00:07:08.080773 >>> requested option 51 (LeaseTime)
00:07:08.080773 ... not found
00:07:08.080773 >>> requested option 54 (ServerId)
00:07:08.080773 ... not found
00:07:08.080773 >>> requested option 58 (RenewalTime)
00:07:08.080773 ... not found
00:07:08.080773 >>> requested option 59 (RebindingTime)
00:07:08.080773 ... not found
00:07:08.080773 >>> requested option 119 (DomainSearch)
00:07:08.080773 ... not found
00:07:08.080773 encoding option 1 (SubnetMask)
00:07:08.080773 encoding option 51 (LeaseTime)
00:07:08.080773 ACK xid 0x5d884fc6 chaddr 08:00:27:df:07:eb
00:07:08.080773  ciaddr 192.168.56.102 yiaddr 192.168.56.102
00:07:08.080773 encoded message: 548 bytes
00:07:08.080773 00007f57c4002bb0/0000: 02 01 06 00 c6 4f 88 5d-00 00 00 00 c0 a8 38 66 .....O.]......8f
00:07:08.080773 00007f57c4002bc0/0010: c0 a8 38 66 00 00 00 00-00 00 00 00 08 00 27 df ..8f..........'.
00:07:08.080773 00007f57c4002bd0/0020: 07 eb 00 00 00 00 00 00-00 00 00 00 00 00 00 00 ................
00:07:08.080773 00007f57c4002be0/0030: 00 00 00 00 00 00 00 00-00 00 00 00 00 00 00 00 ................
00:07:08.080773 00007f57c4002bf0/0040: 00 00 00 00 00 00 00 00-00 00 00 00 00 00 00 00 ................
00:07:08.080773 00007f57c4002c00/0050: 00 00 00 00 00 00 00 00-00 00 00 00 00 00 00 00 ................
00:07:08.080773 00007f57c4002c10/0060: 00 00 00 00 00 00 00 00-00 00 00 00 00 00 00 00 ................
00:07:08.080773 00007f57c4002c20/0070: 00 00 00 00 00 00 00 00-00 00 00 00 00 00 00 00 ................
00:07:08.080773 00007f57c4002c30/0080: 00 00 00 00 00 00 00 00-00 00 00 00 00 00 00 00 ................
00:07:08.080773 00007f57c4002c40/0090: 00 00 00 00 00 00 00 00-00 00 00 00 00 00 00 00 ................
00:07:08.080773 00007f57c4002c50/00a0: 00 00 00 00 00 00 00 00-00 00 00 00 00 00 00 00 ................
00:07:08.080773 00007f57c4002c60/00b0: 00 00 00 00 00 00 00 00-00 00 00 00 00 00 00 00 ................
00:07:08.080773 00007f57c4002c70/00c0: 00 00 00 00 00 00 00 00-00 00 00 00 00 00 00 00 ................
00:07:08.080773 00007f57c4002c80/00d0: 00 00 00 00 00 00 00 00-00 00 00 00 00 00 00 00 ................
00:07:08.080773 00007f57c4002c90/00e0: 00 00 00 00 00 00 00 00-00 00 00 00 63 82 53 63 ............c.Sc
00:07:08.080773 00007f57c4002ca0/00f0: 36 04 c0 a8 38 64 35 01-05 01 04 ff ff ff 00 33 6...8d5........3
00:07:08.080773 00007f57c4002cb0/0100: 04 00 00 02 58 ff 00 00-00 00 00 00 00 00 00 00 ....X...........
00:07:08.080773 00007f57c4002cc0/0110: 00 00 00 00 00 00 00 00-00 00 00 00 00 00 00 00 ................
00:07:08.080773 00007f57c4002cd0/0120: 00 00 00 00 00 00 00 00-00 00 00 00 00 00 00 00 ................
00:07:08.080773 00007f57c4002ce0/0130: 00 00 00 00 00 00 00 00-00 00 00 00 00 00 00 00 ................
00:07:08.080773 00007f57c4002cf0/0140: 00 00 00 00 00 00 00 00-00 00 00 00 00 00 00 00 ................
00:07:08.080773 00007f57c4002d00/0150: 00 00 00 00 00 00 00 00-00 00 00 00 00 00 00 00 ................
00:07:08.080773 00007f57c4002d10/0160: 00 00 00 00 00 00 00 00-00 00 00 00 00 00 00 00 ................
00:07:08.080773 00007f57c4002d20/0170: 00 00 00 00 00 00 00 00-00 00 00 00 00 00 00 00 ................
00:07:08.080773 00007f57c4002d30/0180: 00 00 00 00 00 00 00 00-00 00 00 00 00 00 00 00 ................
00:07:08.080773 00007f57c4002d40/0190: 00 00 00 00 00 00 00 00-00 00 00 00 00 00 00 00 ................
00:07:08.080773 00007f57c4002d50/01a0: 00 00 00 00 00 00 00 00-00 00 00 00 00 00 00 00 ................
00:07:08.080773 00007f57c4002d60/01b0: 00 00 00 00 00 00 00 00-00 00 00 00 00 00 00 00 ................
00:07:08.080773 00007f57c4002d70/01c0: 00 00 00 00 00 00 00 00-00 00 00 00 00 00 00 00 ................
00:07:08.080773 00007f57c4002d80/01d0: 00 00 00 00 00 00 00 00-00 00 00 00 00 00 00 00 ................
00:07:08.080773 00007f57c4002d90/01e0: 00 00 00 00 00 00 00 00-00 00 00 00 00 00 00 00 ................
00:07:08.080773 00007f57c4002da0/01f0: 00 00 00 00 00 00 00 00-00 00 00 00 00 00 00 00 ................
00:07:08.080773 00007f57c4002db0/0200: 00 00 00 00 00 00 00 00-00 00 00 00 00 00 00 00 ................
00:07:08.080773 00007f57c4002dc0/0210: 00 00 00 00 00 00 00 00-00 00 00 00 00 00 00 00 ................
00:07:08.080773 00007f57c4002dd0/0220: 00 00 00 00                                     ....
00:10:06.387827 REQUEST xid 0x0978b76e chaddr 0a:00:27:00:00:00
00:10:06.387888  ciaddr 192.168.56.101
00:10:06.387904  client id: ff 27 00 00 00 00 04 44 45 4c 4c 43 00 10 4a 80 30 b5 c0 4f 50 33 4a
00:10:06.387916  params { 1 121 3 6 12 15 26 28 33 51 54 58 59 119 }
00:10:06.388003   57: 05 c0
00:10:06.388010   145: 01
00:10:06.388020 > allocateAddress to client [ff:27:00:00:00:00:04:44:45:4c:4c:43:00:10:4a:80:30:b5:c0:4f:50:33:4a] (0a:00:27:00:00:00)
00:10:06.388039 > ... found existing binding 192.168.56.101 to [ff:27:00:00:00:00:04:44:45:4c:4c:43:00:10:4a:80:30:b5:c0:4f:50:33:4a] (0a:00:27:00:00:00), acked, valid from 2022-01-16T22:22:03Z for 600s until 2022-01-16T22:32:03Z
00:10:06.388062 Lease time 600 secs (default)
00:10:06.388072 writing leases to /home/tarun/.config/VirtualBox/HostInterfaceNetworking-vboxnet0-Dhcpd.leases
00:10:06.615815 >>> requested option 1 (SubnetMask)
00:10:06.615857 ... always supplied
00:10:06.615864 >>> requested option 121 (unknown)
00:10:06.615871 ... not found
00:10:06.615886 >>> requested option 3 (Routers)
00:10:06.615893 ... not found
00:10:06.615899 >>> requested option 6 (DNSes)
00:10:06.615905 ... not found
00:10:06.615911 >>> requested option 12 (HostName)
00:10:06.615918 ... not found
00:10:06.615924 >>> requested option 15 (DomainName)
00:10:06.615930 ... not found
00:10:06.615936 >>> requested option 26 (InterfaceMTU)
00:10:06.615943 ... not found
00:10:06.615949 >>> requested option 28 (BroadcastAddress)
00:10:06.615955 ... not found
00:10:06.615961 >>> requested option 33 (StaticRoute)
00:10:06.615967 ... not found
00:10:06.615973 >>> requested option 51 (LeaseTime)
00:10:06.615979 ... not found
00:10:06.615985 >>> requested option 54 (ServerId)
00:10:06.615992 ... not found
00:10:06.615997 >>> requested option 58 (RenewalTime)
00:10:06.616004 ... not found
00:10:06.616010 >>> requested option 59 (RebindingTime)
00:10:06.616016 ... not found
00:10:06.616022 >>> requested option 119 (DomainSearch)
00:10:06.616028 ... not found
00:10:06.616040 encoding option 1 (SubnetMask)
00:10:06.616048 encoding option 51 (LeaseTime)
00:10:06.616056 ACK xid 0x0978b76e chaddr 0a:00:27:00:00:00
00:10:06.616078  ciaddr 192.168.56.101 yiaddr 192.168.56.101
00:10:06.616098 encoded message: 548 bytes
00:10:06.616102 00007f57c4002bb0/0000: 02 01 06 00 6e b7 78 09-00 00 00 00 c0 a8 38 65 ....n.x.......8e
00:10:06.616107 00007f57c4002bc0/0010: c0 a8 38 65 00 00 00 00-00 00 00 00 0a 00 27 00 ..8e..........'.
00:10:06.616111 00007f57c4002bd0/0020: 00 00 00 00 00 00 00 00-00 00 00 00 00 00 00 00 ................
00:10:06.616115 00007f57c4002be0/0030: 00 00 00 00 00 00 00 00-00 00 00 00 00 00 00 00 ................
00:10:06.616118 00007f57c4002bf0/0040: 00 00 00 00 00 00 00 00-00 00 00 00 00 00 00 00 ................
00:10:06.616122 00007f57c4002c00/0050: 00 00 00 00 00 00 00 00-00 00 00 00 00 00 00 00 ................
00:10:06.616125 00007f57c4002c10/0060: 00 00 00 00 00 00 00 00-00 00 00 00 00 00 00 00 ................
00:10:06.616129 00007f57c4002c20/0070: 00 00 00 00 00 00 00 00-00 00 00 00 00 00 00 00 ................
00:10:06.616132 00007f57c4002c30/0080: 00 00 00 00 00 00 00 00-00 00 00 00 00 00 00 00 ................
00:10:06.616136 00007f57c4002c40/0090: 00 00 00 00 00 00 00 00-00 00 00 00 00 00 00 00 ................
00:10:06.616139 00007f57c4002c50/00a0: 00 00 00 00 00 00 00 00-00 00 00 00 00 00 00 00 ................
00:10:06.616143 00007f57c4002c60/00b0: 00 00 00 00 00 00 00 00-00 00 00 00 00 00 00 00 ................
00:10:06.616146 00007f57c4002c70/00c0: 00 00 00 00 00 00 00 00-00 00 00 00 00 00 00 00 ................
00:10:06.616150 00007f57c4002c80/00d0: 00 00 00 00 00 00 00 00-00 00 00 00 00 00 00 00 ................
00:10:06.616153 00007f57c4002c90/00e0: 00 00 00 00 00 00 00 00-00 00 00 00 63 82 53 63 ............c.Sc
00:10:06.616157 00007f57c4002ca0/00f0: 36 04 c0 a8 38 64 35 01-05 01 04 ff ff ff 00 33 6...8d5........3
00:10:06.616161 00007f57c4002cb0/0100: 04 00 00 02 58 ff 00 00-00 00 00 00 00 00 00 00 ....X...........
00:10:06.616164 00007f57c4002cc0/0110: 00 00 00 00 00 00 00 00-00 00 00 00 00 00 00 00 ................
00:10:06.616168 00007f57c4002cd0/0120: 00 00 00 00 00 00 00 00-00 00 00 00 00 00 00 00 ................
00:10:06.616171 00007f57c4002ce0/0130: 00 00 00 00 00 00 00 00-00 00 00 00 00 00 00 00 ................
00:10:06.616175 00007f57c4002cf0/0140: 00 00 00 00 00 00 00 00-00 00 00 00 00 00 00 00 ................
00:10:06.616178 00007f57c4002d00/0150: 00 00 00 00 00 00 00 00-00 00 00 00 00 00 00 00 ................
00:10:06.616182 00007f57c4002d10/0160: 00 00 00 00 00 00 00 00-00 00 00 00 00 00 00 00 ................
00:10:06.616185 00007f57c4002d20/0170: 00 00 00 00 00 00 00 00-00 00 00 00 00 00 00 00 ................
00:10:06.616189 00007f57c4002d30/0180: 00 00 00 00 00 00 00 00-00 00 00 00 00 00 00 00 ................
00:10:06.616192 00007f57c4002d40/0190: 00 00 00 00 00 00 00 00-00 00 00 00 00 00 00 00 ................
00:10:06.616196 00007f57c4002d50/01a0: 00 00 00 00 00 00 00 00-00 00 00 00 00 00 00 00 ................
00:10:06.616199 00007f57c4002d60/01b0: 00 00 00 00 00 00 00 00-00 00 00 00 00 00 00 00 ................
00:10:06.616203 00007f57c4002d70/01c0: 00 00 00 00 00 00 00 00-00 00 00 00 00 00 00 00 ................
00:10:06.616206 00007f57c4002d80/01d0: 00 00 00 00 00 00 00 00-00 00 00 00 00 00 00 00 ................
00:10:06.616210 00007f57c4002d90/01e0: 00 00 00 00 00 00 00 00-00 00 00 00 00 00 00 00 ................
00:10:06.616213 00007f57c4002da0/01f0: 00 00 00 00 00 00 00 00-00 00 00 00 00 00 00 00 ................
00:10:06.616216 00007f57c4002db0/0200: 00 00 00 00 00 00 00 00-00 00 00 00 00 00 00 00 ................
00:10:06.616220 00007f57c4002dc0/0210: 00 00 00 00 00 00 00 00-00 00 00 00 00 00 00 00 ................
00:10:06.616223 00007f57c4002dd0/0220: 00 00 00 00                                     ....
