00:00:00.027613 VirtualBox DHCP Server 6.1.30 r148432 linux.amd64 (Dec 10 2021 19:46:42) release log
00:00:00.027616 Log opened 2022-01-16T22:28:33.817552000Z
00:00:00.027618 Build Type: release
00:00:00.027621 OS Product: Linux
00:00:00.027624 OS Release: 5.16.0-arch1-1
00:00:00.027626 OS Version: #1 SMP PREEMPT Mon, 10 Jan 2022 20:11:47 +0000
00:00:00.027663 DMI Product Name: Inspiron 1525                   
00:00:00.027681 DMI Product Version: 
00:00:00.027691 Firmware type: BIOS
00:00:00.027753 Host RAM: 3915MB (3.8GB) total, 3565MB (3.4GB) available
00:00:00.027758 Executable: /usr/lib/virtualbox/VBoxNetDHCP
00:00:00.027759 Process ID: 661903
00:00:00.027760 Package type: LINUX_64BITS_GENERIC (OSE)
00:00:00.027799 --config:  NatNetwork
00:00:00.027807 --comment: NatNetwork
00:00:00.027996 IP address:   10.0.2.3/24
00:00:00.028007 Address pool: 10.0.2.4 - 10.0.2.254
00:00:00.028052 MAC address is not specified: will use generated MAC 08:00:27:7a:0a:0b
00:00:00.028064 Db::i_enterFixedAddressAssignment: 08:00:27:7a:0a:0b: 10.0.2.3
00:00:00.028077 loading leases from /home/tarun/.config/VirtualBox/NatNetwork-Dhcpd.leases
00:00:00.028138 > LOAD: EXPIRED lease 10.0.2.15 to [ff:27:69:f6:35:00:04:c1:3f:a2:4c:43:37:ca:4d:a9:0f:79:38:98:5d:0b:f2] (08:00:27:69:f6:35), acked, valid from 2022-01-16T22:24:04Z for 600s until 2022-01-16T22:34:04Z
00:01:07.385035 REQUEST xid 0xe5066f61 chaddr 08:00:27:69:f6:35
00:01:07.385141  ciaddr 0.0.0.0
00:01:07.385156  client id: ff 27 69 f6 35 00 04 c1 3f a2 4c 43 37 ca 4d a9 0f 79 38 98 5d 0b f2
00:01:07.385168  requested address 10.0.2.15
00:01:07.385182  params { 1 121 3 6 12 15 26 28 33 51 54 58 59 119 }
00:01:07.385269   57: 05 c0
00:01:07.385277   145: 01
00:01:07.385287 > allocateAddress 10.0.2.15 to client [ff:27:69:f6:35:00:04:c1:3f:a2:4c:43:37:ca:4d:a9:0f:79:38:98:5d:0b:f2] (08:00:27:69:f6:35)
00:01:07.385309 > ... found existing binding 10.0.2.15 to [ff:27:69:f6:35:00:04:c1:3f:a2:4c:43:37:ca:4d:a9:0f:79:38:98:5d:0b:f2] (08:00:27:69:f6:35), acked, valid from 2022-01-16T22:24:04Z for 600s until 2022-01-16T22:34:04Z
00:01:07.385339 Lease time 600 secs (default)
00:01:07.385349 writing leases to /home/tarun/.config/VirtualBox/NatNetwork-Dhcpd.leases
00:01:07.469063 >>> requested option 1 (SubnetMask)
00:01:07.469115 ... always supplied
00:01:07.469127 >>> requested option 121 (unknown)
00:01:07.469143 ... not found
00:01:07.469154 >>> requested option 3 (Routers)
00:01:07.469165 ... found in GlobalConfig (type global)
00:01:07.469178 >>> requested option 6 (DNSes)
00:01:07.469189 ... found in GlobalConfig (type global)
00:01:07.469204 >>> requested option 12 (HostName)
00:01:07.469211 ... not found
00:01:07.469217 >>> requested option 15 (DomainName)
00:01:07.469224 ... not found
00:01:07.469230 >>> requested option 26 (InterfaceMTU)
00:01:07.469237 ... not found
00:01:07.469243 >>> requested option 28 (BroadcastAddress)
00:01:07.469249 ... not found
00:01:07.469255 >>> requested option 33 (StaticRoute)
00:01:07.469262 ... not found
00:01:07.469268 >>> requested option 51 (LeaseTime)
00:01:07.469274 ... not found
00:01:07.469280 >>> requested option 54 (ServerId)
00:01:07.469286 ... not found
00:01:07.469292 >>> requested option 58 (RenewalTime)
00:01:07.469299 ... not found
00:01:07.469305 >>> requested option 59 (RebindingTime)
00:01:07.469311 ... not found
00:01:07.469317 >>> requested option 119 (DomainSearch)
00:01:07.469324 ... not found
00:01:07.469341 encoding option 1 (SubnetMask)
00:01:07.469348 encoding option 3 (Routers)
00:01:07.469355 encoding option 6 (DNSes)
00:01:07.469362 encoding option 51 (LeaseTime)
00:01:07.469371 ACK xid 0xe5066f61 chaddr 08:00:27:69:f6:35
00:01:07.469636  ciaddr 0.0.0.0 yiaddr 10.0.2.15
00:01:07.469656 encoded message: 548 bytes
00:01:07.469659 00007f7220002ce0/0000: 02 01 06 00 61 6f 06 e5-00 00 00 00 00 00 00 00 ....ao..........
00:01:07.469665 00007f7220002cf0/0010: 0a 00 02 0f 00 00 00 00-00 00 00 00 08 00 27 69 ..............'i
00:01:07.469669 00007f7220002d00/0020: f6 35 00 00 00 00 00 00-00 00 00 00 00 00 00 00 .5..............
00:01:07.469672 00007f7220002d10/0030: 00 00 00 00 00 00 00 00-00 00 00 00 00 00 00 00 ................
00:01:07.469676 00007f7220002d20/0040: 00 00 00 00 00 00 00 00-00 00 00 00 00 00 00 00 ................
00:01:07.469679 00007f7220002d30/0050: 00 00 00 00 00 00 00 00-00 00 00 00 00 00 00 00 ................
00:01:07.469683 00007f7220002d40/0060: 00 00 00 00 00 00 00 00-00 00 00 00 00 00 00 00 ................
00:01:07.469686 00007f7220002d50/0070: 00 00 00 00 00 00 00 00-00 00 00 00 00 00 00 00 ................
00:01:07.469690 00007f7220002d60/0080: 00 00 00 00 00 00 00 00-00 00 00 00 00 00 00 00 ................
00:01:07.469693 00007f7220002d70/0090: 00 00 00 00 00 00 00 00-00 00 00 00 00 00 00 00 ................
00:01:07.469697 00007f7220002d80/00a0: 00 00 00 00 00 00 00 00-00 00 00 00 00 00 00 00 ................
00:01:07.469700 00007f7220002d90/00b0: 00 00 00 00 00 00 00 00-00 00 00 00 00 00 00 00 ................
00:01:07.469703 00007f7220002da0/00c0: 00 00 00 00 00 00 00 00-00 00 00 00 00 00 00 00 ................
00:01:07.469712 00007f7220002db0/00d0: 00 00 00 00 00 00 00 00-00 00 00 00 00 00 00 00 ................
00:01:07.469715 00007f7220002dc0/00e0: 00 00 00 00 00 00 00 00-00 00 00 00 63 82 53 63 ............c.Sc
00:01:07.469719 00007f7220002dd0/00f0: 36 04 0a 00 02 03 35 01-05 01 04 ff ff ff 00 03 6.....5.........
00:01:07.469722 00007f7220002de0/0100: 04 0a 00 02 01 06 08 c2-a8 04 64 c2 a8 08 64 33 ..........d...d3
00:01:07.469725 00007f7220002df0/0110: 04 00 00 02 58 ff 00 00-00 00 00 00 00 00 00 00 ....X...........
00:01:07.469729 00007f7220002e00/0120: 00 00 00 00 00 00 00 00-00 00 00 00 00 00 00 00 ................
00:01:07.469732 00007f7220002e10/0130: 00 00 00 00 00 00 00 00-00 00 00 00 00 00 00 00 ................
00:01:07.469735 00007f7220002e20/0140: 00 00 00 00 00 00 00 00-00 00 00 00 00 00 00 00 ................
00:01:07.469738 00007f7220002e30/0150: 00 00 00 00 00 00 00 00-00 00 00 00 00 00 00 00 ................
00:01:07.469741 00007f7220002e40/0160: 00 00 00 00 00 00 00 00-00 00 00 00 00 00 00 00 ................
00:01:07.469744 00007f7220002e50/0170: 00 00 00 00 00 00 00 00-00 00 00 00 00 00 00 00 ................
00:01:07.469747 00007f7220002e60/0180: 00 00 00 00 00 00 00 00-00 00 00 00 00 00 00 00 ................
00:01:07.469750 00007f7220002e70/0190: 00 00 00 00 00 00 00 00-00 00 00 00 00 00 00 00 ................
00:01:07.469754 00007f7220002e80/01a0: 00 00 00 00 00 00 00 00-00 00 00 00 00 00 00 00 ................
00:01:07.469757 00007f7220002e90/01b0: 00 00 00 00 00 00 00 00-00 00 00 00 00 00 00 00 ................
00:01:07.469760 00007f7220002ea0/01c0: 00 00 00 00 00 00 00 00-00 00 00 00 00 00 00 00 ................
00:01:07.469763 00007f7220002eb0/01d0: 00 00 00 00 00 00 00 00-00 00 00 00 00 00 00 00 ................
00:01:07.469766 00007f7220002ec0/01e0: 00 00 00 00 00 00 00 00-00 00 00 00 00 00 00 00 ................
00:01:07.469769 00007f7220002ed0/01f0: 00 00 00 00 00 00 00 00-00 00 00 00 00 00 00 00 ................
00:01:07.469772 00007f7220002ee0/0200: 00 00 00 00 00 00 00 00-00 00 00 00 00 00 00 00 ................
00:01:07.469775 00007f7220002ef0/0210: 00 00 00 00 00 00 00 00-00 00 00 00 00 00 00 00 ................
00:01:07.469778 00007f7220002f00/0220: 00 00 00 00                                     ....
