00:00:00.002885 VirtualBox DHCP Server 6.1.30 r148432 linux.amd64 (Dec 10 2021 19:46:42) release log
00:00:00.002885 Log opened 2022-01-16T22:35:45.600656000Z
00:00:00.002885 Build Type: release
00:00:00.002885 OS Product: Linux
00:00:00.002885 OS Release: 5.16.0-arch1-1
00:00:00.002885 OS Version: #1 SMP PREEMPT Mon, 10 Jan 2022 20:11:47 +0000
00:00:00.002885 DMI Product Name: Inspiron 1525                   
00:00:00.002885 DMI Product Version: 
00:00:00.002885 Firmware type: BIOS
00:00:00.002885 Host RAM: 3915MB (3.8GB) total, 3473MB (3.3GB) available
00:00:00.002885 Executable: /usr/lib/virtualbox/VBoxNetDHCP
00:00:00.002885 Process ID: 669631
00:00:00.002885 Package type: LINUX_64BITS_GENERIC (OSE)
00:00:00.002885 --config:  NatNetwork
00:00:00.002885 --comment: NatNetwork
00:00:00.002885 IP address:   10.0.2.3/24
00:00:00.002885 Address pool: 10.0.2.4 - 10.0.2.254
00:00:00.002885 MAC address is not specified: will use generated MAC 08:00:27:56:a0:31
00:00:00.002885 Db::i_enterFixedAddressAssignment: 08:00:27:56:a0:31: 10.0.2.3
00:00:00.002885 loading leases from /home/tarun/.config/VirtualBox/NatNetwork-Dhcpd.leases
00:00:00.002885 > LOAD: EXPIRED lease 10.0.2.15 to [ff:27:69:f6:35:00:04:c1:3f:a2:4c:43:37:ca:4d:a9:0f:79:38:98:5d:0b:f2] (08:00:27:69:f6:35), acked, valid from 2022-01-16T22:34:11Z for 600s until 2022-01-16T22:44:11Z
00:01:04.885172 REQUEST xid 0xbda3c60a chaddr 08:00:27:69:f6:35
00:01:04.885264  ciaddr 0.0.0.0
00:01:04.885284  client id: ff 27 69 f6 35 00 04 c1 3f a2 4c 43 37 ca 4d a9 0f 79 38 98 5d 0b f2
00:01:04.885297  requested address 10.0.2.15
00:01:04.885311  params { 1 121 3 6 12 15 26 28 33 51 54 58 59 119 }
00:01:04.885413   57: 05 c0
00:01:04.885421   145: 01
00:01:04.885430 > allocateAddress 10.0.2.15 to client [ff:27:69:f6:35:00:04:c1:3f:a2:4c:43:37:ca:4d:a9:0f:79:38:98:5d:0b:f2] (08:00:27:69:f6:35)
00:01:04.885449 > ... found existing binding 10.0.2.15 to [ff:27:69:f6:35:00:04:c1:3f:a2:4c:43:37:ca:4d:a9:0f:79:38:98:5d:0b:f2] (08:00:27:69:f6:35), acked, valid from 2022-01-16T22:34:11Z for 600s until 2022-01-16T22:44:11Z
00:01:04.885485 Lease time 600 secs (default)
00:01:04.885495 writing leases to /home/tarun/.config/VirtualBox/NatNetwork-Dhcpd.leases
00:01:04.965448 >>> requested option 1 (SubnetMask)
00:01:04.965495 ... always supplied
00:01:04.965507 >>> requested option 121 (unknown)
00:01:04.965519 ... not found
00:01:04.965530 >>> requested option 3 (Routers)
00:01:04.965553 ... found in GlobalConfig (type global)
00:01:04.965561 >>> requested option 6 (DNSes)
00:01:04.965567 ... found in GlobalConfig (type global)
00:01:04.965576 >>> requested option 12 (HostName)
00:01:04.965583 ... not found
00:01:04.965589 >>> requested option 15 (DomainName)
00:01:04.965596 ... not found
00:01:04.965606 >>> requested option 26 (InterfaceMTU)
00:01:04.965613 ... not found
00:01:04.965619 >>> requested option 28 (BroadcastAddress)
00:01:04.965625 ... not found
00:01:04.965631 >>> requested option 33 (StaticRoute)
00:01:04.965638 ... not found
00:01:04.965644 >>> requested option 51 (LeaseTime)
00:01:04.965651 ... not found
00:01:04.965661 >>> requested option 54 (ServerId)
00:01:04.965668 ... not found
00:01:04.965674 >>> requested option 58 (RenewalTime)
00:01:04.965680 ... not found
00:01:04.965686 >>> requested option 59 (RebindingTime)
00:01:04.965693 ... not found
00:01:04.965699 >>> requested option 119 (DomainSearch)
00:01:04.965706 ... not found
00:01:04.965723 encoding option 1 (SubnetMask)
00:01:04.965731 encoding option 3 (Routers)
00:01:04.965738 encoding option 6 (DNSes)
00:01:04.965745 encoding option 51 (LeaseTime)
00:01:04.965755 ACK xid 0xbda3c60a chaddr 08:00:27:69:f6:35
00:01:04.965781  ciaddr 0.0.0.0 yiaddr 10.0.2.15
00:01:04.965801 encoded message: 548 bytes
00:01:04.965804 00007fa364002bb0/0000: 02 01 06 00 0a c6 a3 bd-00 00 00 00 00 00 00 00 ................
00:01:04.965809 00007fa364002bc0/0010: 0a 00 02 0f 00 00 00 00-00 00 00 00 08 00 27 69 ..............'i
00:01:04.965813 00007fa364002bd0/0020: f6 35 00 00 00 00 00 00-00 00 00 00 00 00 00 00 .5..............
00:01:04.965817 00007fa364002be0/0030: 00 00 00 00 00 00 00 00-00 00 00 00 00 00 00 00 ................
00:01:04.965820 00007fa364002bf0/0040: 00 00 00 00 00 00 00 00-00 00 00 00 00 00 00 00 ................
00:01:04.965824 00007fa364002c00/0050: 00 00 00 00 00 00 00 00-00 00 00 00 00 00 00 00 ................
00:01:04.965827 00007fa364002c10/0060: 00 00 00 00 00 00 00 00-00 00 00 00 00 00 00 00 ................
00:01:04.965831 00007fa364002c20/0070: 00 00 00 00 00 00 00 00-00 00 00 00 00 00 00 00 ................
00:01:04.965834 00007fa364002c30/0080: 00 00 00 00 00 00 00 00-00 00 00 00 00 00 00 00 ................
00:01:04.965842 00007fa364002c40/0090: 00 00 00 00 00 00 00 00-00 00 00 00 00 00 00 00 ................
00:01:04.965845 00007fa364002c50/00a0: 00 00 00 00 00 00 00 00-00 00 00 00 00 00 00 00 ................
00:01:04.965849 00007fa364002c60/00b0: 00 00 00 00 00 00 00 00-00 00 00 00 00 00 00 00 ................
00:01:04.965852 00007fa364002c70/00c0: 00 00 00 00 00 00 00 00-00 00 00 00 00 00 00 00 ................
00:01:04.965856 00007fa364002c80/00d0: 00 00 00 00 00 00 00 00-00 00 00 00 00 00 00 00 ................
00:01:04.965859 00007fa364002c90/00e0: 00 00 00 00 00 00 00 00-00 00 00 00 63 82 53 63 ............c.Sc
00:01:04.965863 00007fa364002ca0/00f0: 36 04 0a 00 02 03 35 01-05 01 04 ff ff ff 00 03 6.....5.........
00:01:04.965867 00007fa364002cb0/0100: 04 0a 00 02 01 06 08 c2-a8 04 64 c2 a8 08 64 33 ..........d...d3
00:01:04.965870 00007fa364002cc0/0110: 04 00 00 02 58 ff 00 00-00 00 00 00 00 00 00 00 ....X...........
00:01:04.965874 00007fa364002cd0/0120: 00 00 00 00 00 00 00 00-00 00 00 00 00 00 00 00 ................
00:01:04.965877 00007fa364002ce0/0130: 00 00 00 00 00 00 00 00-00 00 00 00 00 00 00 00 ................
00:01:04.965881 00007fa364002cf0/0140: 00 00 00 00 00 00 00 00-00 00 00 00 00 00 00 00 ................
00:01:04.965884 00007fa364002d00/0150: 00 00 00 00 00 00 00 00-00 00 00 00 00 00 00 00 ................
00:01:04.965888 00007fa364002d10/0160: 00 00 00 00 00 00 00 00-00 00 00 00 00 00 00 00 ................
00:01:04.965891 00007fa364002d20/0170: 00 00 00 00 00 00 00 00-00 00 00 00 00 00 00 00 ................
00:01:04.965895 00007fa364002d30/0180: 00 00 00 00 00 00 00 00-00 00 00 00 00 00 00 00 ................
00:01:04.965902 00007fa364002d40/0190: 00 00 00 00 00 00 00 00-00 00 00 00 00 00 00 00 ................
00:01:04.965906 00007fa364002d50/01a0: 00 00 00 00 00 00 00 00-00 00 00 00 00 00 00 00 ................
00:01:04.965909 00007fa364002d60/01b0: 00 00 00 00 00 00 00 00-00 00 00 00 00 00 00 00 ................
00:01:04.965912 00007fa364002d70/01c0: 00 00 00 00 00 00 00 00-00 00 00 00 00 00 00 00 ................
00:01:04.965916 00007fa364002d80/01d0: 00 00 00 00 00 00 00 00-00 00 00 00 00 00 00 00 ................
00:01:04.965919 00007fa364002d90/01e0: 00 00 00 00 00 00 00 00-00 00 00 00 00 00 00 00 ................
00:01:04.965923 00007fa364002da0/01f0: 00 00 00 00 00 00 00 00-00 00 00 00 00 00 00 00 ................
00:01:04.965926 00007fa364002db0/0200: 00 00 00 00 00 00 00 00-00 00 00 00 00 00 00 00 ................
00:01:04.965930 00007fa364002dc0/0210: 00 00 00 00 00 00 00 00-00 00 00 00 00 00 00 00 ................
00:01:04.965933 00007fa364002dd0/0220: 00 00 00 00                                     ....
00:06:12.522354 REQUEST xid 0xfaccf70c chaddr 08:00:27:69:f6:35
00:06:12.522426  ciaddr 10.0.2.15
00:06:12.522442  client id: ff 27 69 f6 35 00 04 c1 3f a2 4c 43 37 ca 4d a9 0f 79 38 98 5d 0b f2
00:06:12.522454  params { 1 121 3 6 12 15 26 28 33 51 54 58 59 119 }
00:06:12.522554   57: 05 c0
00:06:12.522562   145: 01
00:06:12.522571 > allocateAddress to client [ff:27:69:f6:35:00:04:c1:3f:a2:4c:43:37:ca:4d:a9:0f:79:38:98:5d:0b:f2] (08:00:27:69:f6:35)
00:06:12.522595 > ... found existing binding 10.0.2.15 to [ff:27:69:f6:35:00:04:c1:3f:a2:4c:43:37:ca:4d:a9:0f:79:38:98:5d:0b:f2] (08:00:27:69:f6:35), acked, valid from 2022-01-16T22:36:50Z for 600s until 2022-01-16T22:46:50Z
00:06:12.522618 Lease time 600 secs (default)
00:06:12.522857 writing leases to /home/tarun/.config/VirtualBox/NatNetwork-Dhcpd.leases
00:06:12.869279 >>> requested option 1 (SubnetMask)
00:06:12.869317 ... always supplied
00:06:12.869324 >>> requested option 121 (unknown)
00:06:12.869514 ... not found
00:06:12.869523 >>> requested option 3 (Routers)
00:06:12.869530 ... found in GlobalConfig (type global)
00:06:12.869538 >>> requested option 6 (DNSes)
00:06:12.869544 ... found in GlobalConfig (type global)
00:06:12.869551 >>> requested option 12 (HostName)
00:06:12.869563 ... not found
00:06:12.869569 >>> requested option 15 (DomainName)
00:06:12.869576 ... not found
00:06:12.869582 >>> requested option 26 (InterfaceMTU)
00:06:12.869589 ... not found
00:06:12.869595 >>> requested option 28 (BroadcastAddress)
00:06:12.869601 ... not found
00:06:12.869607 >>> requested option 33 (StaticRoute)
00:06:12.869614 ... not found
00:06:12.869625 >>> requested option 51 (LeaseTime)
00:06:12.869632 ... not found
00:06:12.869639 >>> requested option 54 (ServerId)
00:06:12.869665 ... not found
00:06:12.869673 >>> requested option 58 (RenewalTime)
00:06:12.869684 ... not found
00:06:12.869690 >>> requested option 59 (RebindingTime)
00:06:12.869697 ... not found
00:06:12.869703 >>> requested option 119 (DomainSearch)
00:06:12.869709 ... not found
00:06:12.869721 encoding option 1 (SubnetMask)
00:06:12.869729 encoding option 3 (Routers)
00:06:12.869740 encoding option 6 (DNSes)
00:06:12.869748 encoding option 51 (LeaseTime)
00:06:12.869757 ACK xid 0xfaccf70c chaddr 08:00:27:69:f6:35
00:06:12.869780  ciaddr 10.0.2.15 yiaddr 10.0.2.15
00:06:12.869804 encoded message: 548 bytes
00:06:12.869807 00007fa364002bb0/0000: 02 01 06 00 0c f7 cc fa-00 00 00 00 0a 00 02 0f ................
00:06:12.869812 00007fa364002bc0/0010: 0a 00 02 0f 00 00 00 00-00 00 00 00 08 00 27 69 ..............'i
00:06:12.869816 00007fa364002bd0/0020: f6 35 00 00 00 00 00 00-00 00 00 00 00 00 00 00 .5..............
00:06:12.869820 00007fa364002be0/0030: 00 00 00 00 00 00 00 00-00 00 00 00 00 00 00 00 ................
00:06:12.869823 00007fa364002bf0/0040: 00 00 00 00 00 00 00 00-00 00 00 00 00 00 00 00 ................
00:06:12.869831 00007fa364002c00/0050: 00 00 00 00 00 00 00 00-00 00 00 00 00 00 00 00 ................
00:06:12.869835 00007fa364002c10/0060: 00 00 00 00 00 00 00 00-00 00 00 00 00 00 00 00 ................
00:06:12.869838 00007fa364002c20/0070: 00 00 00 00 00 00 00 00-00 00 00 00 00 00 00 00 ................
00:06:12.869842 00007fa364002c30/0080: 00 00 00 00 00 00 00 00-00 00 00 00 00 00 00 00 ................
00:06:12.869845 00007fa364002c40/0090: 00 00 00 00 00 00 00 00-00 00 00 00 00 00 00 00 ................
00:06:12.869849 00007fa364002c50/00a0: 00 00 00 00 00 00 00 00-00 00 00 00 00 00 00 00 ................
00:06:12.869852 00007fa364002c60/00b0: 00 00 00 00 00 00 00 00-00 00 00 00 00 00 00 00 ................
00:06:12.869860 00007fa364002c70/00c0: 00 00 00 00 00 00 00 00-00 00 00 00 00 00 00 00 ................
00:06:12.869863 00007fa364002c80/00d0: 00 00 00 00 00 00 00 00-00 00 00 00 00 00 00 00 ................
00:06:12.869867 00007fa364002c90/00e0: 00 00 00 00 00 00 00 00-00 00 00 00 63 82 53 63 ............c.Sc
00:06:12.869870 00007fa364002ca0/00f0: 36 04 0a 00 02 03 35 01-05 01 04 ff ff ff 00 03 6.....5.........
00:06:12.869874 00007fa364002cb0/0100: 04 0a 00 02 01 06 08 c2-a8 04 64 c2 a8 08 64 33 ..........d...d3
00:06:12.869878 00007fa364002cc0/0110: 04 00 00 02 58 ff 00 00-00 00 00 00 00 00 00 00 ....X...........
00:06:12.869881 00007fa364002cd0/0120: 00 00 00 00 00 00 00 00-00 00 00 00 00 00 00 00 ................
00:06:12.869888 00007fa364002ce0/0130: 00 00 00 00 00 00 00 00-00 00 00 00 00 00 00 00 ................
00:06:12.869891 00007fa364002cf0/0140: 00 00 00 00 00 00 00 00-00 00 00 00 00 00 00 00 ................
00:06:12.869895 00007fa364002d00/0150: 00 00 00 00 00 00 00 00-00 00 00 00 00 00 00 00 ................
00:06:12.869898 00007fa364002d10/0160: 00 00 00 00 00 00 00 00-00 00 00 00 00 00 00 00 ................
00:06:12.869902 00007fa364002d20/0170: 00 00 00 00 00 00 00 00-00 00 00 00 00 00 00 00 ................
00:06:12.869905 00007fa364002d30/0180: 00 00 00 00 00 00 00 00-00 00 00 00 00 00 00 00 ................
00:06:12.869909 00007fa364002d40/0190: 00 00 00 00 00 00 00 00-00 00 00 00 00 00 00 00 ................
00:06:12.869912 00007fa364002d50/01a0: 00 00 00 00 00 00 00 00-00 00 00 00 00 00 00 00 ................
00:06:12.869920 00007fa364002d60/01b0: 00 00 00 00 00 00 00 00-00 00 00 00 00 00 00 00 ................
00:06:12.869923 00007fa364002d70/01c0: 00 00 00 00 00 00 00 00-00 00 00 00 00 00 00 00 ................
00:06:12.869927 00007fa364002d80/01d0: 00 00 00 00 00 00 00 00-00 00 00 00 00 00 00 00 ................
00:06:12.869930 00007fa364002d90/01e0: 00 00 00 00 00 00 00 00-00 00 00 00 00 00 00 00 ................
00:06:12.869934 00007fa364002da0/01f0: 00 00 00 00 00 00 00 00-00 00 00 00 00 00 00 00 ................
00:06:12.869937 00007fa364002db0/0200: 00 00 00 00 00 00 00 00-00 00 00 00 00 00 00 00 ................
00:06:12.869941 00007fa364002dc0/0210: 00 00 00 00 00 00 00 00-00 00 00 00 00 00 00 00 ................
00:06:12.869944 00007fa364002dd0/0220: 00 00 00 00                                     ....
00:11:13.362479 REQUEST xid 0x240ccdcd chaddr 08:00:27:69:f6:35
00:11:13.362549  ciaddr 10.0.2.15
00:11:13.362570  client id: ff 27 69 f6 35 00 04 c1 3f a2 4c 43 37 ca 4d a9 0f 79 38 98 5d 0b f2
00:11:13.362812  params { 1 121 3 6 12 15 26 28 33 51 54 58 59 119 }
00:11:13.362930   57: 05 c0
00:11:13.362938   145: 01
00:11:13.362948 > allocateAddress to client [ff:27:69:f6:35:00:04:c1:3f:a2:4c:43:37:ca:4d:a9:0f:79:38:98:5d:0b:f2] (08:00:27:69:f6:35)
00:11:13.362972 > ... found existing binding 10.0.2.15 to [ff:27:69:f6:35:00:04:c1:3f:a2:4c:43:37:ca:4d:a9:0f:79:38:98:5d:0b:f2] (08:00:27:69:f6:35), acked, valid from 2022-01-16T22:41:58Z for 600s until 2022-01-16T22:51:58Z
00:11:13.362995 Lease time 600 secs (default)
00:11:13.363006 writing leases to /home/tarun/.config/VirtualBox/NatNetwork-Dhcpd.leases
00:11:13.456539 >>> requested option 1 (SubnetMask)
00:11:13.456587 ... always supplied
00:11:13.456595 >>> requested option 121 (unknown)
00:11:13.456602 ... not found
00:11:13.456608 >>> requested option 3 (Routers)
00:11:13.456615 ... found in GlobalConfig (type global)
00:11:13.456623 >>> requested option 6 (DNSes)
00:11:13.456630 ... found in GlobalConfig (type global)
00:11:13.456642 >>> requested option 12 (HostName)
00:11:13.456649 ... not found
00:11:13.456655 >>> requested option 15 (DomainName)
00:11:13.456662 ... not found
00:11:13.456668 >>> requested option 26 (InterfaceMTU)
00:11:13.456674 ... not found
00:11:13.456680 >>> requested option 28 (BroadcastAddress)
00:11:13.456687 ... not found
00:11:13.456693 >>> requested option 33 (StaticRoute)
00:11:13.456704 ... not found
00:11:13.456710 >>> requested option 51 (LeaseTime)
00:11:13.456717 ... not found
00:11:13.456723 >>> requested option 54 (ServerId)
00:11:13.456730 ... not found
00:11:13.456736 >>> requested option 58 (RenewalTime)
00:11:13.456742 ... not found
00:11:13.456748 >>> requested option 59 (RebindingTime)
00:11:13.456759 ... not found
00:11:13.456766 >>> requested option 119 (DomainSearch)
00:11:13.456772 ... not found
00:11:13.456784 encoding option 1 (SubnetMask)
00:11:13.456791 encoding option 3 (Routers)
00:11:13.456799 encoding option 6 (DNSes)
00:11:13.456806 encoding option 51 (LeaseTime)
00:11:13.456819 ACK xid 0x240ccdcd chaddr 08:00:27:69:f6:35
00:11:13.456842  ciaddr 10.0.2.15 yiaddr 10.0.2.15
00:11:13.456862 encoded message: 548 bytes
00:11:13.456866 00007fa364002bb0/0000: 02 01 06 00 cd cd 0c 24-00 00 00 00 0a 00 02 0f .......$........
00:11:13.456871 00007fa364002bc0/0010: 0a 00 02 0f 00 00 00 00-00 00 00 00 08 00 27 69 ..............'i
00:11:13.456879 00007fa364002bd0/0020: f6 35 00 00 00 00 00 00-00 00 00 00 00 00 00 00 .5..............
00:11:13.456883 00007fa364002be0/0030: 00 00 00 00 00 00 00 00-00 00 00 00 00 00 00 00 ................
00:11:13.456887 00007fa364002bf0/0040: 00 00 00 00 00 00 00 00-00 00 00 00 00 00 00 00 ................
00:11:13.456890 00007fa364002c00/0050: 00 00 00 00 00 00 00 00-00 00 00 00 00 00 00 00 ................
00:11:13.456894 00007fa364002c10/0060: 00 00 00 00 00 00 00 00-00 00 00 00 00 00 00 00 ................
00:11:13.456897 00007fa364002c20/0070: 00 00 00 00 00 00 00 00-00 00 00 00 00 00 00 00 ................
00:11:13.456901 00007fa364002c30/0080: 00 00 00 00 00 00 00 00-00 00 00 00 00 00 00 00 ................
00:11:13.456904 00007fa364002c40/0090: 00 00 00 00 00 00 00 00-00 00 00 00 00 00 00 00 ................
00:11:13.456908 00007fa364002c50/00a0: 00 00 00 00 00 00 00 00-00 00 00 00 00 00 00 00 ................
00:11:13.456911 00007fa364002c60/00b0: 00 00 00 00 00 00 00 00-00 00 00 00 00 00 00 00 ................
00:11:13.456915 00007fa364002c70/00c0: 00 00 00 00 00 00 00 00-00 00 00 00 00 00 00 00 ................
00:11:13.456918 00007fa364002c80/00d0: 00 00 00 00 00 00 00 00-00 00 00 00 00 00 00 00 ................
00:11:13.456922 00007fa364002c90/00e0: 00 00 00 00 00 00 00 00-00 00 00 00 63 82 53 63 ............c.Sc
00:11:13.456925 00007fa364002ca0/00f0: 36 04 0a 00 02 03 35 01-05 01 04 ff ff ff 00 03 6.....5.........
00:11:13.456929 00007fa364002cb0/0100: 04 0a 00 02 01 06 08 c2-a8 04 64 c2 a8 08 64 33 ..........d...d3
00:11:13.456933 00007fa364002cc0/0110: 04 00 00 02 58 ff 00 00-00 00 00 00 00 00 00 00 ....X...........
00:11:13.456940 00007fa364002cd0/0120: 00 00 00 00 00 00 00 00-00 00 00 00 00 00 00 00 ................
00:11:13.456944 00007fa364002ce0/0130: 00 00 00 00 00 00 00 00-00 00 00 00 00 00 00 00 ................
00:11:13.456947 00007fa364002cf0/0140: 00 00 00 00 00 00 00 00-00 00 00 00 00 00 00 00 ................
00:11:13.456951 00007fa364002d00/0150: 00 00 00 00 00 00 00 00-00 00 00 00 00 00 00 00 ................
00:11:13.456954 00007fa364002d10/0160: 00 00 00 00 00 00 00 00-00 00 00 00 00 00 00 00 ................
00:11:13.456958 00007fa364002d20/0170: 00 00 00 00 00 00 00 00-00 00 00 00 00 00 00 00 ................
00:11:13.456961 00007fa364002d30/0180: 00 00 00 00 00 00 00 00-00 00 00 00 00 00 00 00 ................
00:11:13.456965 00007fa364002d40/0190: 00 00 00 00 00 00 00 00-00 00 00 00 00 00 00 00 ................
00:11:13.456968 00007fa364002d50/01a0: 00 00 00 00 00 00 00 00-00 00 00 00 00 00 00 00 ................
00:11:13.456972 00007fa364002d60/01b0: 00 00 00 00 00 00 00 00-00 00 00 00 00 00 00 00 ................
00:11:13.456975 00007fa364002d70/01c0: 00 00 00 00 00 00 00 00-00 00 00 00 00 00 00 00 ................
00:11:13.456979 00007fa364002d80/01d0: 00 00 00 00 00 00 00 00-00 00 00 00 00 00 00 00 ................
00:11:13.456982 00007fa364002d90/01e0: 00 00 00 00 00 00 00 00-00 00 00 00 00 00 00 00 ................
00:11:13.456986 00007fa364002da0/01f0: 00 00 00 00 00 00 00 00-00 00 00 00 00 00 00 00 ................
00:11:13.456989 00007fa364002db0/0200: 00 00 00 00 00 00 00 00-00 00 00 00 00 00 00 00 ................
00:11:13.456993 00007fa364002dc0/0210: 00 00 00 00 00 00 00 00-00 00 00 00 00 00 00 00 ................
00:11:13.457000 00007fa364002dd0/0220: 00 00 00 00                                     ....
