00:00:00.003814 VirtualBox DHCP Server 6.1.30 r148432 linux.amd64 (Dec 10 2021 19:46:42) release log
00:00:00.003818 Log opened 2022-01-16T22:33:07.267855000Z
00:00:00.003819 Build Type: release
00:00:00.003824 OS Product: Linux
00:00:00.003826 OS Release: 5.16.0-arch1-1
00:00:00.003828 OS Version: #1 SMP PREEMPT Mon, 10 Jan 2022 20:11:47 +0000
00:00:00.003869 DMI Product Name: Inspiron 1525                   
00:00:00.003888 DMI Product Version: 
00:00:00.003900 Firmware type: BIOS
00:00:00.003963 Host RAM: 3915MB (3.8GB) total, 3469MB (3.3GB) available
00:00:00.003968 Executable: /usr/lib/virtualbox/VBoxNetDHCP
00:00:00.003969 Process ID: 666819
00:00:00.003969 Package type: LINUX_64BITS_GENERIC (OSE)
00:00:00.004014 --config:  NatNetwork
00:00:00.004022 --comment: NatNetwork
00:00:00.004222 IP address:   10.0.2.3/24
00:00:00.004234 Address pool: 10.0.2.4 - 10.0.2.254
00:00:00.004280 MAC address is not specified: will use generated MAC 08:00:27:8c:e7:df
00:00:00.004293 Db::i_enterFixedAddressAssignment: 08:00:27:8c:e7:df: 10.0.2.3
00:00:00.004305 loading leases from /home/tarun/.config/VirtualBox/NatNetwork-Dhcpd.leases
00:00:00.004372 > LOAD: EXPIRED lease 10.0.2.15 to [ff:27:69:f6:35:00:04:c1:3f:a2:4c:43:37:ca:4d:a9:0f:79:38:98:5d:0b:f2] (08:00:27:69:f6:35), acked, valid from 2022-01-16T22:29:41Z for 600s until 2022-01-16T22:39:41Z
00:01:04.359694 REQUEST xid 0x8c172d66 chaddr 08:00:27:69:f6:35
00:01:04.359787  ciaddr 0.0.0.0
00:01:04.359802  client id: ff 27 69 f6 35 00 04 c1 3f a2 4c 43 37 ca 4d a9 0f 79 38 98 5d 0b f2
00:01:04.359814  requested address 10.0.2.15
00:01:04.359831  params { 1 121 3 6 12 15 26 28 33 51 54 58 59 119 }
00:01:04.359924   57: 05 c0
00:01:04.359932   145: 01
00:01:04.359941 > allocateAddress 10.0.2.15 to client [ff:27:69:f6:35:00:04:c1:3f:a2:4c:43:37:ca:4d:a9:0f:79:38:98:5d:0b:f2] (08:00:27:69:f6:35)
00:01:04.359965 > ... found existing binding 10.0.2.15 to [ff:27:69:f6:35:00:04:c1:3f:a2:4c:43:37:ca:4d:a9:0f:79:38:98:5d:0b:f2] (08:00:27:69:f6:35), acked, valid from 2022-01-16T22:29:41Z for 600s until 2022-01-16T22:39:41Z
00:01:04.359993 Lease time 600 secs (default)
00:01:04.360003 writing leases to /home/tarun/.config/VirtualBox/NatNetwork-Dhcpd.leases
00:01:04.469548 >>> requested option 1 (SubnetMask)
00:01:04.469591 ... always supplied
00:01:04.469599 >>> requested option 121 (unknown)
00:01:04.469606 ... not found
00:01:04.469612 >>> requested option 3 (Routers)
00:01:04.469624 ... found in GlobalConfig (type global)
00:01:04.469632 >>> requested option 6 (DNSes)
00:01:04.469638 ... found in GlobalConfig (type global)
00:01:04.469646 >>> requested option 12 (HostName)
00:01:04.469657 ... not found
00:01:04.469663 >>> requested option 15 (DomainName)
00:01:04.469669 ... not found
00:01:04.469675 >>> requested option 26 (InterfaceMTU)
00:01:04.469686 ... not found
00:01:04.469692 >>> requested option 28 (BroadcastAddress)
00:01:04.469699 ... not found
00:01:04.469705 >>> requested option 33 (StaticRoute)
00:01:04.469714 ... not found
00:01:04.469720 >>> requested option 51 (LeaseTime)
00:01:04.469727 ... not found
00:01:04.469732 >>> requested option 54 (ServerId)
00:01:04.469739 ... not found
00:01:04.469749 >>> requested option 58 (RenewalTime)
00:01:04.469756 ... not found
00:01:04.469762 >>> requested option 59 (RebindingTime)
00:01:04.469771 ... not found
00:01:04.469778 >>> requested option 119 (DomainSearch)
00:01:04.469784 ... not found
00:01:04.469796 encoding option 1 (SubnetMask)
00:01:04.469808 encoding option 3 (Routers)
00:01:04.469815 encoding option 6 (DNSes)
00:01:04.469822 encoding option 51 (LeaseTime)
00:01:04.469834 ACK xid 0x8c172d66 chaddr 08:00:27:69:f6:35
00:01:04.469856  ciaddr 0.0.0.0 yiaddr 10.0.2.15
00:01:04.469880 encoded message: 548 bytes
00:01:04.469884 00007ffbbc002bb0/0000: 02 01 06 00 66 2d 17 8c-00 00 00 00 00 00 00 00 ....f-..........
00:01:04.469906 00007ffbbc002bc0/0010: 0a 00 02 0f 00 00 00 00-00 00 00 00 08 00 27 69 ..............'i
00:01:04.469910 00007ffbbc002bd0/0020: f6 35 00 00 00 00 00 00-00 00 00 00 00 00 00 00 .5..............
00:01:04.469913 00007ffbbc002be0/0030: 00 00 00 00 00 00 00 00-00 00 00 00 00 00 00 00 ................
00:01:04.469917 00007ffbbc002bf0/0040: 00 00 00 00 00 00 00 00-00 00 00 00 00 00 00 00 ................
00:01:04.469925 00007ffbbc002c00/0050: 00 00 00 00 00 00 00 00-00 00 00 00 00 00 00 00 ................
00:01:04.469928 00007ffbbc002c10/0060: 00 00 00 00 00 00 00 00-00 00 00 00 00 00 00 00 ................
00:01:04.469932 00007ffbbc002c20/0070: 00 00 00 00 00 00 00 00-00 00 00 00 00 00 00 00 ................
00:01:04.469935 00007ffbbc002c30/0080: 00 00 00 00 00 00 00 00-00 00 00 00 00 00 00 00 ................
00:01:04.469939 00007ffbbc002c40/0090: 00 00 00 00 00 00 00 00-00 00 00 00 00 00 00 00 ................
00:01:04.469942 00007ffbbc002c50/00a0: 00 00 00 00 00 00 00 00-00 00 00 00 00 00 00 00 ................
00:01:04.469945 00007ffbbc002c60/00b0: 00 00 00 00 00 00 00 00-00 00 00 00 00 00 00 00 ................
00:01:04.469952 00007ffbbc002c70/00c0: 00 00 00 00 00 00 00 00-00 00 00 00 00 00 00 00 ................
00:01:04.469955 00007ffbbc002c80/00d0: 00 00 00 00 00 00 00 00-00 00 00 00 00 00 00 00 ................
00:01:04.469959 00007ffbbc002c90/00e0: 00 00 00 00 00 00 00 00-00 00 00 00 63 82 53 63 ............c.Sc
00:01:04.469962 00007ffbbc002ca0/00f0: 36 04 0a 00 02 03 35 01-05 01 04 ff ff ff 00 03 6.....5.........
00:01:04.469966 00007ffbbc002cb0/0100: 04 0a 00 02 01 06 08 c2-a8 04 64 c2 a8 08 64 33 ..........d...d3
00:01:04.469970 00007ffbbc002cc0/0110: 04 00 00 02 58 ff 00 00-00 00 00 00 00 00 00 00 ....X...........
00:01:04.469973 00007ffbbc002cd0/0120: 00 00 00 00 00 00 00 00-00 00 00 00 00 00 00 00 ................
00:01:04.469977 00007ffbbc002ce0/0130: 00 00 00 00 00 00 00 00-00 00 00 00 00 00 00 00 ................
00:01:04.469984 00007ffbbc002cf0/0140: 00 00 00 00 00 00 00 00-00 00 00 00 00 00 00 00 ................
00:01:04.469988 00007ffbbc002d00/0150: 00 00 00 00 00 00 00 00-00 00 00 00 00 00 00 00 ................
00:01:04.469991 00007ffbbc002d10/0160: 00 00 00 00 00 00 00 00-00 00 00 00 00 00 00 00 ................
00:01:04.469995 00007ffbbc002d20/0170: 00 00 00 00 00 00 00 00-00 00 00 00 00 00 00 00 ................
00:01:04.469998 00007ffbbc002d30/0180: 00 00 00 00 00 00 00 00-00 00 00 00 00 00 00 00 ................
00:01:04.470002 00007ffbbc002d40/0190: 00 00 00 00 00 00 00 00-00 00 00 00 00 00 00 00 ................
00:01:04.470005 00007ffbbc002d50/01a0: 00 00 00 00 00 00 00 00-00 00 00 00 00 00 00 00 ................
00:01:04.470011 00007ffbbc002d60/01b0: 00 00 00 00 00 00 00 00-00 00 00 00 00 00 00 00 ................
00:01:04.470015 00007ffbbc002d70/01c0: 00 00 00 00 00 00 00 00-00 00 00 00 00 00 00 00 ................
00:01:04.470018 00007ffbbc002d80/01d0: 00 00 00 00 00 00 00 00-00 00 00 00 00 00 00 00 ................
00:01:04.470022 00007ffbbc002d90/01e0: 00 00 00 00 00 00 00 00-00 00 00 00 00 00 00 00 ................
00:01:04.470025 00007ffbbc002da0/01f0: 00 00 00 00 00 00 00 00-00 00 00 00 00 00 00 00 ................
00:01:04.470029 00007ffbbc002db0/0200: 00 00 00 00 00 00 00 00-00 00 00 00 00 00 00 00 ................
00:01:04.470032 00007ffbbc002dc0/0210: 00 00 00 00 00 00 00 00-00 00 00 00 00 00 00 00 ................
00:01:04.470036 00007ffbbc002dd0/0220: 00 00 00 00                                     ....
