00:00:00.383754 VirtualBox DHCP Server 6.1.30 r148432 linux.amd64 (Dec 10 2021 19:46:42) release log
00:00:00.383760 Log opened 2022-01-18T20:48:15.278748000Z
00:00:00.383762 Build Type: release
00:00:00.383769 OS Product: Linux
00:00:00.383773 OS Release: 5.16.1-arch1-1
00:00:00.383776 OS Version: #1 SMP PREEMPT Sun, 16 Jan 2022 11:39:23 +0000
00:00:00.383840 DMI Product Name: Inspiron 1525                   
00:00:00.383870 DMI Product Version: 
00:00:00.383890 Firmware type: BIOS
00:00:00.383996 Host RAM: 3915MB (3.8GB) total, 3438MB (3.3GB) available
00:00:00.384004 Executable: /usr/lib/virtualbox/VBoxNetDHCP
00:00:00.384006 Process ID: 9467
00:00:00.384007 Package type: LINUX_64BITS_GENERIC (OSE)
00:00:00.384075 --config:  NatNetwork
00:00:00.384089 --comment: NatNetwork
00:00:00.384409 IP address:   10.0.2.3/24
00:00:00.384428 Address pool: 10.0.2.4 - 10.0.2.254
00:00:00.384505 MAC address is not specified: will use generated MAC 08:00:27:98:1a:16
00:00:00.384527 Db::i_enterFixedAddressAssignment: 08:00:27:98:1a:16: 10.0.2.3
00:00:00.384548 loading leases from /home/tarun/.config/VirtualBox/NatNetwork-Dhcpd.leases
00:00:00.406199 > LOAD: EXPIRED lease 10.0.2.15 to [ff:27:69:f6:35:00:04:c1:3f:a2:4c:43:37:ca:4d:a9:0f:79:38:98:5d:0b:f2] (08:00:27:69:f6:35), expired, valid from 2022-01-16T22:46:58Z for 600s until 2022-01-16T22:56:58Z
