00:00:00.308148 VirtualBox GUI VM Selector Window 6.1.30 r148432 linux.amd64 (Dec 10 2021 19:46:42) release log
00:00:00.308152 Log opened 2022-01-16T22:11:02.752530000Z
00:00:00.308155 Build Type: release
00:00:00.308161 OS Product: Linux
00:00:00.308166 OS Release: 5.16.0-arch1-1
00:00:00.308170 OS Version: #1 SMP PREEMPT Mon, 10 Jan 2022 20:11:47 +0000
00:00:00.308206 DMI Product Name: Inspiron 1525                   
00:00:00.308228 DMI Product Version: 
00:00:00.308241 Firmware type: BIOS
00:00:00.308305 Host RAM: 3915MB (3.8GB) total, 3135MB (3.0GB) available
00:00:00.308311 Executable: /usr/lib/virtualbox/VirtualBox
00:00:00.308314 Process ID: 643148
00:00:00.308317 Package type: LINUX_64BITS_GENERIC (OSE)
00:00:00.308363 Qt version: 5.15.2
00:00:00.924581 GUI: UIMediumEnumerator: Medium-enumeration started...
00:00:01.959260 GUI: UIDesktopWidgetWatchdog::sltHandleHostScreenAvailableGeometryCalculated: Screen 0 work area is actually resized to: 10x31 x 1416x855
00:00:02.037084 GUI: UIMediumEnumerator: Medium-enumeration finished!
00:05:37.196961 GUI: UIMediumEnumerator: Medium-enumeration finished!
