00:00:00.363184 VirtualBox GUI VM Selector Window 6.1.30 r148432 linux.amd64 (Dec 10 2021 19:46:42) release log
00:00:00.363189 Log opened 2022-01-16T21:33:32.737409000Z
00:00:00.363192 Build Type: release
00:00:00.363198 OS Product: Linux
00:00:00.363202 OS Release: 5.16.0-arch1-1
00:00:00.363206 OS Version: #1 SMP PREEMPT Mon, 10 Jan 2022 20:11:47 +0000
00:00:00.363241 DMI Product Name: Inspiron 1525                   
00:00:00.363262 DMI Product Version: 
00:00:00.363275 Firmware type: BIOS
00:00:00.363339 Host RAM: 3915MB (3.8GB) total, 3631MB (3.5GB) available
00:00:00.363346 Executable: /usr/lib/virtualbox/VirtualBox
00:00:00.363348 Process ID: 603531
00:00:00.363351 Package type: LINUX_64BITS_GENERIC (OSE)
00:00:00.363405 Qt version: 5.15.2
00:00:00.447014 GUI: UIMediumEnumerator: Medium-enumeration started...
00:00:01.426030 GUI: UIDesktopWidgetWatchdog::sltHandleHostScreenAvailableGeometryCalculated: Screen 0 work area is actually resized to: 10x31 x 1416x855
00:00:01.427209 GUI: UIMediumEnumerator: Medium-enumeration finished!
