08:26:59.323140 Log continuation - Log started 2022-01-16T12:34:18.459980000Z
08:32:58.054510 GUI: UIMediumEnumerator: Medium-enumeration finished!
08:33:21.963317 GUI: UIMediumEnumerator: Medium-enumeration finished!
08:35:30.767412 GUI: UIMediumEnumerator: Medium-enumeration finished!
