00:00:00.175794 VirtualBox GUI VM Selector Window 6.1.30 r148432 linux.amd64 (Dec 10 2021 19:46:42) release log
00:00:00.175800 Log opened 2022-01-16T21:53:58.731691000Z
00:00:00.175803 Build Type: release
00:00:00.175809 OS Product: Linux
00:00:00.175813 OS Release: 5.16.0-arch1-1
00:00:00.175817 OS Version: #1 SMP PREEMPT Mon, 10 Jan 2022 20:11:47 +0000
00:00:00.175852 DMI Product Name: Inspiron 1525                   
00:00:00.175873 DMI Product Version: 
00:00:00.175886 Firmware type: BIOS
00:00:00.175948 Host RAM: 3915MB (3.8GB) total, 3611MB (3.5GB) available
00:00:00.175955 Executable: /usr/lib/virtualbox/VirtualBox
00:00:00.175958 Process ID: 624891
00:00:00.175961 Package type: LINUX_64BITS_GENERIC (OSE)
00:00:00.176013 Qt version: 5.15.2
00:00:00.271897 GUI: UIMediumEnumerator: Medium-enumeration started...
00:00:01.313888 GUI: UIDesktopWidgetWatchdog::sltHandleHostScreenAvailableGeometryCalculated: Screen 0 work area is actually resized to: 10x31 x 1416x855
00:00:01.341683 GUI: UIMediumEnumerator: Medium-enumeration finished!
00:00:21.442170 GUI: UIMediumEnumerator: Medium-enumeration finished!
