00:00:02.815530 VirtualBox GUI VM Selector Window 6.1.30 r148432 linux.amd64 (Dec 10 2021 19:46:42) release log
00:00:02.815534 Log opened 2022-01-16T12:34:18.459980000Z
00:00:02.815538 Build Type: release
00:00:02.815543 OS Product: Linux
00:00:02.815547 OS Release: 5.16.0-arch1-1
00:00:02.815551 OS Version: #1 SMP PREEMPT Mon, 10 Jan 2022 20:11:47 +0000
00:00:02.815590 DMI Product Name: Inspiron 1525                   
00:00:02.815610 DMI Product Version: 
00:00:02.815624 Firmware type: BIOS
00:00:02.815687 Host RAM: 3915MB (3.8GB) total, 3445MB (3.3GB) available
00:00:02.815694 Executable: /usr/lib/virtualbox/VirtualBox
00:00:02.815697 Process ID: 67087
00:00:02.815699 Package type: LINUX_64BITS_GENERIC (OSE)
00:00:02.815754 Qt version: 5.15.2
00:00:03.454777 GUI: UIMediumEnumerator: Medium-enumeration started...
00:00:07.319397 GUI: UIDesktopWidgetWatchdog::sltHandleHostScreenAvailableGeometryCalculated: Screen 0 work area is actually resized to: 10x31 x 1416x855
00:00:07.412080 GUI: UIMediumEnumerator: Medium-enumeration finished!
08:26:59.244098 GUI: UIMediumEnumerator: Medium-enumeration finished!
08:26:59.283664 Log rotated - Log started 2022-01-16T12:34:18.459980000Z
