00:00:00.222544 VirtualBox GUI VM Selector Window 6.1.30 r148432 linux.amd64 (Dec 10 2021 19:46:42) release log
00:00:00.222549 Log opened 2022-01-16T22:35:05.686362000Z
00:00:00.222552 Build Type: release
00:00:00.222558 OS Product: Linux
00:00:00.222562 OS Release: 5.16.0-arch1-1
00:00:00.222566 OS Version: #1 SMP PREEMPT Mon, 10 Jan 2022 20:11:47 +0000
00:00:00.222600 DMI Product Name: Inspiron 1525                   
00:00:00.222620 DMI Product Version: 
00:00:00.222633 Firmware type: BIOS
00:00:00.222696 Host RAM: 3915MB (3.8GB) total, 3511MB (3.4GB) available
00:00:00.222703 Executable: /usr/lib/virtualbox/VirtualBox
00:00:00.222706 Process ID: 668831
00:00:00.222708 Package type: LINUX_64BITS_GENERIC (OSE)
00:00:00.222763 Qt version: 5.15.2
00:00:00.316002 GUI: UIMediumEnumerator: Medium-enumeration started...
00:00:01.413169 GUI: UIDesktopWidgetWatchdog::sltHandleHostScreenAvailableGeometryCalculated: Screen 0 work area is actually resized to: 10x31 x 1416x855
00:00:01.414500 GUI: UIMediumEnumerator: Medium-enumeration finished!
