00:00:00.184375 VirtualBox GUI VM Selector Window 6.1.30 r148432 linux.amd64 (Dec 10 2021 19:46:42) release log
00:00:00.184380 Log opened 2022-01-16T21:36:54.396457000Z
00:00:00.184383 Build Type: release
00:00:00.184389 OS Product: Linux
00:00:00.184393 OS Release: 5.16.0-arch1-1
00:00:00.184397 OS Version: #1 SMP PREEMPT Mon, 10 Jan 2022 20:11:47 +0000
00:00:00.184434 DMI Product Name: Inspiron 1525                   
00:00:00.184455 DMI Product Version: 
00:00:00.184468 Firmware type: BIOS
00:00:00.184531 Host RAM: 3915MB (3.8GB) total, 3613MB (3.5GB) available
00:00:00.184538 Executable: /usr/lib/virtualbox/VirtualBox
00:00:00.184541 Process ID: 607122
00:00:00.184544 Package type: LINUX_64BITS_GENERIC (OSE)
00:00:00.184670 Qt version: 5.15.2
00:00:00.283216 GUI: UIMediumEnumerator: Medium-enumeration started...
00:00:01.305469 GUI: UIDesktopWidgetWatchdog::sltHandleHostScreenAvailableGeometryCalculated: Screen 0 work area is actually resized to: 10x31 x 1416x855
00:00:01.306709 GUI: UIMediumEnumerator: Medium-enumeration finished!
