00:00:00.503701 VirtualBox GUI VM Selector Window 6.1.30 r148432 linux.amd64 (Dec 10 2021 19:46:42) release log
00:00:00.503706 Log opened 2022-01-16T21:23:31.491213000Z
00:00:00.503710 Build Type: release
00:00:00.503715 OS Product: Linux
00:00:00.503720 OS Release: 5.16.0-arch1-1
00:00:00.503724 OS Version: #1 SMP PREEMPT Mon, 10 Jan 2022 20:11:47 +0000
00:00:00.503762 DMI Product Name: Inspiron 1525                   
00:00:00.503783 DMI Product Version: 
00:00:00.503797 Firmware type: BIOS
00:00:00.503859 Host RAM: 3915MB (3.8GB) total, 3612MB (3.5GB) available
00:00:00.503867 Executable: /usr/lib/virtualbox/VirtualBox
00:00:00.503869 Process ID: 592671
00:00:00.503872 Package type: LINUX_64BITS_GENERIC (OSE)
00:00:00.503926 Qt version: 5.15.2
00:00:00.637915 GUI: UIMediumEnumerator: Medium-enumeration started...
00:00:02.136973 GUI: UIDesktopWidgetWatchdog::sltHandleHostScreenAvailableGeometryCalculated: Screen 0 work area is actually resized to: 10x31 x 1416x855
00:00:02.149056 GUI: UIMediumEnumerator: Medium-enumeration finished!
00:07:55.885676 GUI: UIMediumEnumerator: Medium-enumeration finished!
