00:00:00.190371 VirtualBox GUI VM Selector Window 6.1.30 r148432 linux.amd64 (Dec 10 2021 19:46:42) release log
00:00:00.190377 Log opened 2022-01-16T22:31:28.127593000Z
00:00:00.190380 Build Type: release
00:00:00.190387 OS Product: Linux
00:00:00.190391 OS Release: 5.16.0-arch1-1
00:00:00.190395 OS Version: #1 SMP PREEMPT Mon, 10 Jan 2022 20:11:47 +0000
00:00:00.190437 DMI Product Name: Inspiron 1525                   
00:00:00.190458 DMI Product Version: 
00:00:00.190472 Firmware type: BIOS
00:00:00.190540 Host RAM: 3915MB (3.8GB) total, 3040MB (2.9GB) available
00:00:00.190548 Executable: /usr/lib/virtualbox/VirtualBox
00:00:00.190551 Process ID: 664949
00:00:00.190553 Package type: LINUX_64BITS_GENERIC (OSE)
00:00:00.190622 Qt version: 5.15.2
00:00:00.295000 GUI: UIMediumEnumerator: Medium-enumeration started...
00:00:01.410534 GUI: UIDesktopWidgetWatchdog::sltHandleHostScreenAvailableGeometryCalculated: Screen 0 work area is actually resized to: 10x31 x 1416x855
00:00:01.411737 GUI: UIMediumEnumerator: Medium-enumeration finished!
00:00:39.738667 GUI: UIMediumEnumerator: Medium-enumeration finished!
00:03:33.965589 GUI: UIMediumEnumerator: Medium-enumeration finished!
00:17:03.685752 GUI: UIMediumEnumerator: Medium-enumeration finished!
