00:00:00.027327 main     VirtualBox XPCOM Server 6.1.30 r148432 linux.amd64 (Dec 10 2021 19:46:42) release log
00:00:00.027341 main     Log opened 2022-01-18T20:48:04.994573000Z
00:00:00.027348 main     Build Type: release
00:00:00.027360 main     OS Product: Linux
00:00:00.027370 main     OS Release: 5.16.1-arch1-1
00:00:00.027379 main     OS Version: #1 SMP PREEMPT Sun, 16 Jan 2022 11:39:23 +0000
00:00:00.027476 main     DMI Product Name: Inspiron 1525                   
00:00:00.027538 main     DMI Product Version: 
00:00:00.027573 main     Firmware type: BIOS
00:00:00.027730 main     Host RAM: 3915MB (3.8GB) total, 3520MB (3.4GB) available
00:00:00.027748 main     Executable: /usr/lib/virtualbox/VBoxSVC
00:00:00.027754 main     Process ID: 9231
00:00:00.027759 main     Package type: LINUX_64BITS_GENERIC (OSE)
00:00:00.035096 main     IPC socket path: /tmp/.vbox-tarun-ipc/ipcd
00:00:00.181047 nspr-2   VirtualBox: object creation starts
00:00:00.181210 nspr-2   Home directory: '/home/tarun/.config/VirtualBox'
00:00:00.206059 nspr-2   Loading settings file "/home/tarun/.config/VirtualBox/VirtualBox.xml" with version "1.14-linux"
00:00:00.284833 nspr-2   NetIfAdpCtlOut: VBoxNetAdpCtl: Error while retrieving link speed for wlan0: VBoxNetAdpCtl: ioctl failed: Operation not supported
00:00:00.294484 nspr-2   HostDnsMonitor: initializing
00:00:00.294843 nspr-2   NAT: resolv.conf: nameserver 194.168.4.100
00:00:00.294868 nspr-2   NAT: resolv.conf: nameserver 194.168.8.100
00:00:00.294892 nspr-2   HostDnsMonitor: updating information
00:00:00.294919 nspr-2   HostDnsMonitor: old information
00:00:00.294931 nspr-2     no server entries
00:00:00.294942 nspr-2     no domain set
00:00:00.294952 nspr-2     no search string entries
00:00:00.294963 nspr-2   HostDnsMonitor: new information
00:00:00.294973 nspr-2     server 1: 194.168.4.100
00:00:00.294984 nspr-2     server 2: 194.168.8.100
00:00:00.294995 nspr-2     no domain set
00:00:00.295006 nspr-2     no search string entries
00:00:00.622294 nspr-2   VD: VDInit finished with VINF_SUCCESS
00:00:00.633676 nspr-2   ERROR [COM]: aRC=NS_ERROR_FAILURE (0x80004005) aIID={027bc463-929c-40e8-bf16-fea557cd8e7e} aComponent={SystemPropertiesWrap} aText={Cannot determine default Guest Additions ISO location. Most likely they are not available}, preserve=false aResultDetail=0
00:00:00.727542 nspr-2   Loading settings file "/home/tarun/VirtualBox VMs/Arch/Arch.vbox" with version "1.16-linux"
00:00:00.819683 nspr-2   OCI: Local config file '/home/tarun/.config/VirtualBox/oci_config' does not exist
00:00:00.819807 nspr-2   OCI: Original config file '/home/tarun/.oci/config' does not exist
00:00:00.819847 nspr-2   OCI: Reading profiles finished with status NS_OK
00:00:00.819891 nspr-2   ExtPack: Created cloud provider 'OCI' (hrc=NS_OK)
00:00:00.819994 nspr-2   VirtualBox: object created
00:00:00.907790 nspr-2   Launched VM: 3221228992 pid: 9279 (0x243f) frontend: GUI/Qt name: Arch
00:00:08.421971 nspr-5   WARNING [COM]: aRC=NS_ERROR_FAILURE (0x80004005) aIID={16ced992-5fdc-4aba-aff5-6a39bbd7c38b} aComponent={HostWrap} aText={VirtualBox is not currently allowed to access USB devices.  You can change this by adding your user to the 'vboxusers' group.  Please see the user manual for a more detailed explanation}, preserve=true  aResultDetail=0
00:00:08.425459 nspr-3   WARNING [COM]: aRC=NS_ERROR_FAILURE (0x80004005) aIID={16ced992-5fdc-4aba-aff5-6a39bbd7c38b} aComponent={HostWrap} aText={VirtualBox is not currently allowed to access USB devices.  You can change this by adding your user to the 'vboxusers' group.  Please see the user manual for a more detailed explanation}, preserve=true  aResultDetail=0
00:00:08.670734 nspr-3   Load [/usr/lib/virtualbox/ExtensionPacks/Oracle_VM_VirtualBox_Extension_Pack/linux.amd64/VBoxHostWebcam.so] vrc=VINF_SUCCESS
00:00:08.736000 nspr-3   WARNING [COM]: aRC=NS_ERROR_FAILURE (0x80004005) aIID={16ced992-5fdc-4aba-aff5-6a39bbd7c38b} aComponent={HostWrap} aText={VirtualBox is not currently allowed to access USB devices.  You can change this by adding your user to the 'vboxusers' group.  Please see the user manual for a more detailed explanation}, preserve=true  aResultDetail=0
00:00:09.197300 nspr-6   WARNING [COM]: aRC=NS_ERROR_FAILURE (0x80004005) aIID={16ced992-5fdc-4aba-aff5-6a39bbd7c38b} aComponent={HostWrap} aText={VirtualBox is not currently allowed to access USB devices.  You can change this by adding your user to the 'vboxusers' group.  Please see the user manual for a more detailed explanation}, preserve=true  aResultDetail=0
00:00:09.199589 nspr-6   WARNING [COM]: aRC=NS_ERROR_FAILURE (0x80004005) aIID={16ced992-5fdc-4aba-aff5-6a39bbd7c38b} aComponent={HostWrap} aText={VirtualBox is not currently allowed to access USB devices.  You can change this by adding your user to the 'vboxusers' group.  Please see the user manual for a more detailed explanation}, preserve=true  aResultDetail=0
00:00:09.367148 nspr-4   ERROR [COM]: aRC=VBOX_E_IPRT_ERROR (0x80bb0005) aIID={85632c68-b5bb-4316-a900-5eb28d3413df} aComponent={SessionMachine} aText={Saved screenshot data is not available (VERR_NOT_SUPPORTED)}, preserve=false aResultDetail=-37
00:00:09.460043 nspr-4   NetIfAdpCtlOut: VBoxNetAdpCtl: Error while retrieving link speed for wlan0: VBoxNetAdpCtl: ioctl failed: Operation not supported
00:00:09.584470 nspr-4   VM 'Arch' starts using NAT network 'NatNetwork'
00:00:09.584559 nspr-4   HostDnsMonitorProxy::GetDomainName: no domain set
00:00:09.584589 nspr-4   ERROR [COM]: aRC=VBOX_E_OBJECT_NOT_FOUND (0x80bb0001) aIID={46735de7-f4c4-4020-a185-0d2881bcfa8b} aComponent={DHCPGlobalConfigWrap} aText={DHCP option 15 was not found}, preserve=false aResultDetail=0
00:00:09.584622 nspr-4   HostDnsMonitorProxy::GetNameServers:
00:00:09.584635 nspr-4     name server 1: 194.168.4.100
00:00:09.584646 nspr-4     name server 2: 194.168.8.100
00:00:09.584770 nspr-4   Saving settings file "/home/tarun/.config/VirtualBox/VirtualBox.xml" with version "1.14-linux"
00:00:09.739141 nspr-4   Saving settings file "/home/tarun/.config/VirtualBox/VirtualBox.xml" with version "1.14-linux"
00:00:09.875311 nspr-4   NetworkServiceRunning: started 'VBoxNetDHCP', pid 000024fb
00:00:09.885450 nspr-4   NetworkServiceRunning: started 'VBoxNetNAT', pid 000024fc
00:00:09.885542 nspr-4   Started NAT network 'NatNetwork'
00:00:09.886420 nspr-6   Saving settings file "/home/tarun/VirtualBox VMs/Arch/Arch.vbox" with version "1.16-linux"
00:00:10.159145 nspr-6   HostDnsMonitorProxy::GetNameServers:
00:00:10.159193 nspr-6     name server 1: 194.168.4.100
00:00:10.159206 nspr-6     name server 2: 194.168.8.100
00:00:10.906352 nspr-5   WARNING [COM]: aRC=NS_ERROR_FAILURE (0x80004005) aIID={16ced992-5fdc-4aba-aff5-6a39bbd7c38b} aComponent={HostWrap} aText={VirtualBox is not currently allowed to access USB devices.  You can change this by adding your user to the 'vboxusers' group.  Please see the user manual for a more detailed explanation}, preserve=true  aResultDetail=0
00:00:11.016347 nspr-5   NetIfAdpCtlOut: VBoxNetAdpCtl: Error while retrieving link speed for wlan0: VBoxNetAdpCtl: ioctl failed: Operation not supported
00:00:25.655243 nspr-2   Saving settings file "/home/tarun/VirtualBox VMs/Arch/Arch.vbox" with version "1.16-linux"
00:00:26.163887 nspr-6   VM 'Arch' stops using NAT network 'NatNetwork'
00:00:26.166725 nspr-6   NetworkServiceRunning: killing VBoxNetDHCP, pid 000024fb...
00:00:26.179231 nspr-6   NetworkServiceRunning: VBoxNetNAT (pid 000024fc) stopped: iStatus=0 enmReason=1
00:00:26.179285 nspr-6   Stopped NAT network 'NatNetwork'
00:00:31.226915 main     VirtualBox: object deletion starts
00:00:31.227144 main     ERROR [COM]: aRC=VBOX_E_OBJECT_IN_USE (0x80bb000c) aIID={ad47ad09-787b-44ab-b343-a082a3f2dfb1} aComponent={MediumWrap} aText={Medium '/home/tarun/VirtualBox VMs/Arch/Snapshots/{c39b4ce7-9e72-4b58-a180-e597e1d45607}.vdi' cannot be closed because it is still attached to 1 virtual machines}, preserve=false aResultDetail=0
00:00:31.237872 main     ERROR [COM]: aRC=VBOX_E_OBJECT_IN_USE (0x80bb000c) aIID={ad47ad09-787b-44ab-b343-a082a3f2dfb1} aComponent={MediumWrap} aText={Medium '/home/tarun/VirtualBox VMs/Arch/Snapshots/{19cdcb6c-8ed7-4b2b-b6c6-23b302a0f7ae}.vdi' cannot be closed because it is still attached to 1 virtual machines}, preserve=false aResultDetail=0
00:00:31.238030 main     ERROR [COM]: aRC=VBOX_E_OBJECT_IN_USE (0x80bb000c) aIID={ad47ad09-787b-44ab-b343-a082a3f2dfb1} aComponent={MediumWrap} aText={Medium '/home/tarun/VirtualBox VMs/Arch/Snapshots/{2cc1a8b0-2408-45db-9b33-9455afeb2ce4}.vdi' cannot be closed because it is still attached to 1 virtual machines}, preserve=false aResultDetail=0
00:00:31.238101 main     ERROR [COM]: aRC=VBOX_E_OBJECT_IN_USE (0x80bb000c) aIID={ad47ad09-787b-44ab-b343-a082a3f2dfb1} aComponent={MediumWrap} aText={Medium '/home/tarun/VirtualBox VMs/Arch/Snapshots/{3862d46c-9456-4117-b7ea-095a74bfdce8}.vdi' cannot be closed because it is still attached to 1 virtual machines}, preserve=false aResultDetail=0
00:00:31.238215 main     ERROR [COM]: aRC=VBOX_E_OBJECT_IN_USE (0x80bb000c) aIID={ad47ad09-787b-44ab-b343-a082a3f2dfb1} aComponent={MediumWrap} aText={Medium '/home/tarun/VirtualBox VMs/Arch/Arch.vdi' cannot be closed because it is still attached to 1 virtual machines}, preserve=false aResultDetail=0
00:00:31.238281 main     ERROR [COM]: aRC=VBOX_E_OBJECT_IN_USE (0x80bb000c) aIID={ad47ad09-787b-44ab-b343-a082a3f2dfb1} aComponent={MediumWrap} aText={Medium '/home/tarun/VirtualBox VMs/Arch/Snapshots/{9f4ef9c1-47e3-4389-b62c-c6ed1e6454ad}.vdi' cannot be closed because it is still attached to 1 virtual machines}, preserve=false aResultDetail=0
00:00:31.238346 main     ERROR [COM]: aRC=VBOX_E_OBJECT_IN_USE (0x80bb000c) aIID={ad47ad09-787b-44ab-b343-a082a3f2dfb1} aComponent={MediumWrap} aText={Medium '/home/tarun/VirtualBox VMs/Arch/Snapshots/{55e9e13d-e562-4955-86ad-63fd6440422c}.vdi' cannot be closed because it is still attached to 1 virtual machines}, preserve=false aResultDetail=0
00:00:31.238436 main     ERROR [COM]: aRC=VBOX_E_OBJECT_IN_USE (0x80bb000c) aIID={ad47ad09-787b-44ab-b343-a082a3f2dfb1} aComponent={MediumWrap} aText={Medium '/home/tarun/VirtualBox VMs/Arch/Snapshots/{2114cf72-0067-4503-a5d2-ba736862ee6d}.vdi' cannot be closed because it is still attached to 1 virtual machines}, preserve=false aResultDetail=0
00:00:31.238503 main     ERROR [COM]: aRC=VBOX_E_OBJECT_IN_USE (0x80bb000c) aIID={ad47ad09-787b-44ab-b343-a082a3f2dfb1} aComponent={MediumWrap} aText={Medium '/home/tarun/VirtualBox VMs/Arch/Snapshots/{c0bfb9e9-7622-45ec-bc9d-a0e0a440028d}.vdi' cannot be closed because it is still attached to 1 virtual machines}, preserve=false aResultDetail=0
00:00:31.238567 main     ERROR [COM]: aRC=VBOX_E_OBJECT_IN_USE (0x80bb000c) aIID={ad47ad09-787b-44ab-b343-a082a3f2dfb1} aComponent={MediumWrap} aText={Medium '/home/tarun/VirtualBox VMs/Arch/Arch_1.vdi' cannot be closed because it is still attached to 1 virtual machines}, preserve=false aResultDetail=0
00:00:31.240839 main     HostDnsMonitor: shutting down ...
00:00:31.251558 main     HostDnsMonitor: shut down
00:00:31.665088 Watcher  ERROR [COM]: aRC=E_ACCESSDENIED (0x80070005) aIID={d0a0163f-e254-4e5b-a1f2-011cf991c38d} aComponent={VirtualBoxWrap} aText={The object is not ready}, preserve=false aResultDetail=0
00:00:36.251908 main     {00007f51c4016080} HostPowerServiceLinux::~HostPowerServiceLinux: RTThreadWait() for 5000 ms failed with VERR_TIMEOUT
00:00:36.253530 main     VirtualBox: object deleted
