00:00:00.001265 main     VirtualBox XPCOM Server 6.1.30 r148432 linux.amd64 (Dec 10 2021 19:46:42) release log
00:00:00.001273 main     Log opened 2022-01-16T22:16:53.416556000Z
00:00:00.001278 main     Build Type: release
00:00:00.001286 main     OS Product: Linux
00:00:00.001293 main     OS Release: 5.16.0-arch1-1
00:00:00.001299 main     OS Version: #1 SMP PREEMPT Mon, 10 Jan 2022 20:11:47 +0000
00:00:00.001350 main     DMI Product Name: Inspiron 1525                   
00:00:00.001383 main     DMI Product Version: 
00:00:00.001404 main     Firmware type: BIOS
00:00:00.001491 main     Host RAM: 3915MB (3.8GB) total, 3605MB (3.5GB) available
00:00:00.001501 main     Executable: /usr/lib/virtualbox/VBoxSVC
00:00:00.001505 main     Process ID: 649291
00:00:00.001510 main     Package type: LINUX_64BITS_GENERIC (OSE)
00:00:00.006532 main     IPC socket path: /tmp/.vbox-tarun-ipc/ipcd
00:00:00.120624 nspr-2   VirtualBox: object creation starts
00:00:00.120940 nspr-2   Home directory: '/home/tarun/.config/VirtualBox'
00:00:00.121505 nspr-2   Loading settings file "/home/tarun/.config/VirtualBox/VirtualBox.xml" with version "1.14-linux"
00:00:00.150781 nspr-2   NetIfAdpCtlOut: VBoxNetAdpCtl: Error while retrieving link speed for wlan0: VBoxNetAdpCtl: ioctl failed: Operation not supported
00:00:00.181216 nspr-2   HostDnsMonitor: initializing
00:00:00.181595 nspr-2   NAT: resolv.conf: nameserver 194.168.4.100
00:00:00.181619 nspr-2   NAT: resolv.conf: nameserver 194.168.8.100
00:00:00.181646 nspr-2   HostDnsMonitor: updating information
00:00:00.181676 nspr-2   HostDnsMonitor: old information
00:00:00.181691 nspr-2     no server entries
00:00:00.181704 nspr-2     no domain set
00:00:00.181716 nspr-2     no search string entries
00:00:00.181729 nspr-2   HostDnsMonitor: new information
00:00:00.181741 nspr-2     server 1: 194.168.4.100
00:00:00.181755 nspr-2     server 2: 194.168.8.100
00:00:00.181768 nspr-2     no domain set
00:00:00.181780 nspr-2     no search string entries
00:00:00.207251 nspr-2   failed to create vboxnet0, error (0xffffffff)
00:00:00.209435 nspr-2   VD: VDInit finished with VINF_SUCCESS
00:00:00.209632 nspr-2   ERROR [COM]: aRC=NS_ERROR_FAILURE (0x80004005) aIID={027bc463-929c-40e8-bf16-fea557cd8e7e} aComponent={SystemPropertiesWrap} aText={Cannot determine default Guest Additions ISO location. Most likely they are not available}, preserve=false aResultDetail=0
00:00:00.215489 nspr-2   Loading settings file "/home/tarun/VirtualBox VMs/Arch/Arch.vbox" with version "1.16-linux"
00:00:00.219339 nspr-2   OCI: Local config file '/home/tarun/.config/VirtualBox/oci_config' does not exist
00:00:00.219394 nspr-2   OCI: Original config file '/home/tarun/.oci/config' does not exist
00:00:00.219414 nspr-2   OCI: Reading profiles finished with status NS_OK
00:00:00.219437 nspr-2   ExtPack: Created cloud provider 'OCI' (hrc=NS_OK)
00:00:00.219480 nspr-2   VirtualBox: object created
00:00:00.230133 nspr-2   Launched VM: 3959426864 pid: 649316 (0x9e864) frontend: GUI/Qt name: Arch
00:00:01.956462 nspr-3   WARNING [COM]: aRC=NS_ERROR_FAILURE (0x80004005) aIID={16ced992-5fdc-4aba-aff5-6a39bbd7c38b} aComponent={HostWrap} aText={VirtualBox is not currently allowed to access USB devices.  You can change this by adding your user to the 'vboxusers' group.  Please see the user manual for a more detailed explanation}, preserve=true  aResultDetail=0
00:00:01.959684 nspr-5   WARNING [COM]: aRC=NS_ERROR_FAILURE (0x80004005) aIID={16ced992-5fdc-4aba-aff5-6a39bbd7c38b} aComponent={HostWrap} aText={VirtualBox is not currently allowed to access USB devices.  You can change this by adding your user to the 'vboxusers' group.  Please see the user manual for a more detailed explanation}, preserve=true  aResultDetail=0
00:00:01.961027 nspr-5   Load [/usr/lib/virtualbox/ExtensionPacks/Oracle_VM_VirtualBox_Extension_Pack/linux.amd64/VBoxHostWebcam.so] vrc=VINF_SUCCESS
00:00:02.032155 nspr-5   WARNING [COM]: aRC=NS_ERROR_FAILURE (0x80004005) aIID={16ced992-5fdc-4aba-aff5-6a39bbd7c38b} aComponent={HostWrap} aText={VirtualBox is not currently allowed to access USB devices.  You can change this by adding your user to the 'vboxusers' group.  Please see the user manual for a more detailed explanation}, preserve=true  aResultDetail=0
00:00:02.176758 nspr-5   WARNING [COM]: aRC=NS_ERROR_FAILURE (0x80004005) aIID={16ced992-5fdc-4aba-aff5-6a39bbd7c38b} aComponent={HostWrap} aText={VirtualBox is not currently allowed to access USB devices.  You can change this by adding your user to the 'vboxusers' group.  Please see the user manual for a more detailed explanation}, preserve=true  aResultDetail=0
00:00:02.178899 nspr-4   WARNING [COM]: aRC=NS_ERROR_FAILURE (0x80004005) aIID={16ced992-5fdc-4aba-aff5-6a39bbd7c38b} aComponent={HostWrap} aText={VirtualBox is not currently allowed to access USB devices.  You can change this by adding your user to the 'vboxusers' group.  Please see the user manual for a more detailed explanation}, preserve=true  aResultDetail=0
00:00:02.222973 nspr-4   ERROR [COM]: aRC=VBOX_E_IPRT_ERROR (0x80bb0005) aIID={85632c68-b5bb-4316-a900-5eb28d3413df} aComponent={SessionMachine} aText={Saved screenshot data is not available (VERR_NOT_SUPPORTED)}, preserve=false aResultDetail=-37
00:00:02.266375 nspr-4   NetIfAdpCtlOut: VBoxNetAdpCtl: Error while retrieving link speed for wlan0: VBoxNetAdpCtl: ioctl failed: Operation not supported
00:00:02.557455 nspr-3   VM 'Arch' starts using NAT network 'NatNetwork'
00:00:02.557813 nspr-3   Saving settings file "/home/tarun/.config/VirtualBox/VirtualBox.xml" with version "1.14-linux"
00:00:02.662476 nspr-3   Saving settings file "/home/tarun/.config/VirtualBox/VirtualBox.xml" with version "1.14-linux"
00:00:02.740244 nspr-3   Saving settings file "/home/tarun/.config/VirtualBox/VirtualBox.xml" with version "1.14-linux"
00:00:02.851226 nspr-3   Saving settings file "/home/tarun/.config/VirtualBox/VirtualBox.xml" with version "1.14-linux"
00:00:02.951445 nspr-3   Saving settings file "/home/tarun/.config/VirtualBox/VirtualBox.xml" with version "1.14-linux"
00:00:03.053193 nspr-3   HostDnsMonitorProxy::GetDomainName: no domain set
00:00:03.053273 nspr-3   ERROR [COM]: aRC=VBOX_E_OBJECT_NOT_FOUND (0x80bb0001) aIID={46735de7-f4c4-4020-a185-0d2881bcfa8b} aComponent={DHCPGlobalConfigWrap} aText={DHCP option 15 was not found}, preserve=false aResultDetail=0
00:00:03.053331 nspr-3   HostDnsMonitorProxy::GetNameServers:
00:00:03.053342 nspr-3     name server 1: 194.168.4.100
00:00:03.053353 nspr-3     name server 2: 194.168.8.100
00:00:03.053475 nspr-3   Saving settings file "/home/tarun/.config/VirtualBox/VirtualBox.xml" with version "1.14-linux"
00:00:03.177037 nspr-3   Saving settings file "/home/tarun/.config/VirtualBox/VirtualBox.xml" with version "1.14-linux"
00:00:03.302366 nspr-3   NetworkServiceRunning: started 'VBoxNetDHCP', pid 0009e8ba
00:00:03.312561 nspr-3   NetworkServiceRunning: started 'VBoxNetNAT', pid 0009e8bb
00:00:03.312704 nspr-3   Started NAT network 'NatNetwork'
00:00:03.313656 nspr-4   Saving settings file "/home/tarun/VirtualBox VMs/Arch/Arch.vbox" with version "1.16-linux"
00:00:03.553039 nspr-5   HostDnsMonitorProxy::GetNameServers:
00:00:03.553087 nspr-5     name server 1: 194.168.4.100
00:00:03.553099 nspr-5     name server 2: 194.168.8.100
00:00:03.647526 nspr-5   WARNING [COM]: aRC=NS_ERROR_FAILURE (0x80004005) aIID={16ced992-5fdc-4aba-aff5-6a39bbd7c38b} aComponent={HostWrap} aText={VirtualBox is not currently allowed to access USB devices.  You can change this by adding your user to the 'vboxusers' group.  Please see the user manual for a more detailed explanation}, preserve=true  aResultDetail=0
00:00:03.778029 nspr-5   NetIfAdpCtlOut: VBoxNetAdpCtl: Error while retrieving link speed for wlan0: VBoxNetAdpCtl: ioctl failed: Operation not supported
00:00:03.813496 nspr-4   NetworkServiceRunning: started 'VBoxNetDHCP', pid 0009e8dc
00:09:04.543952 nspr-3   Saving settings file "/home/tarun/VirtualBox VMs/Arch/Arch.vbox" with version "1.16-linux"
00:09:04.727990 nspr-6   Saving settings file "/home/tarun/VirtualBox VMs/Arch/Arch.vbox" with version "1.16-linux"
00:09:05.051096 nspr-6   VM 'Arch' stops using NAT network 'NatNetwork'
00:09:05.053708 nspr-6   NetworkServiceRunning: killing VBoxNetDHCP, pid 0009e8ba...
00:09:05.065475 nspr-6   NetworkServiceRunning: VBoxNetNAT (pid 0009e8bb) stopped: iStatus=0 enmReason=1
00:09:05.065526 nspr-6   Stopped NAT network 'NatNetwork'
00:09:09.171422 nspr-6   VM 'Arch' starts using NAT network 'NatNetwork'
00:09:09.171544 nspr-6   HostDnsMonitorProxy::GetDomainName: no domain set
00:09:09.171598 nspr-6   ERROR [COM]: aRC=VBOX_E_OBJECT_NOT_FOUND (0x80bb0001) aIID={46735de7-f4c4-4020-a185-0d2881bcfa8b} aComponent={DHCPGlobalConfigWrap} aText={DHCP option 15 was not found}, preserve=false aResultDetail=0
00:09:09.171671 nspr-6   HostDnsMonitorProxy::GetNameServers:
00:09:09.171698 nspr-6     name server 1: 194.168.4.100
00:09:09.171723 nspr-6     name server 2: 194.168.8.100
00:09:09.171973 nspr-6   Saving settings file "/home/tarun/.config/VirtualBox/VirtualBox.xml" with version "1.14-linux"
00:09:09.279681 nspr-6   Saving settings file "/home/tarun/.config/VirtualBox/VirtualBox.xml" with version "1.14-linux"
00:09:09.369759 nspr-6   NetworkServiceRunning: started 'VBoxNetDHCP', pid 000a0dbb
00:09:09.370383 nspr-6   NetworkServiceRunning: started 'VBoxNetNAT', pid 000a0dbc
00:09:09.370507 nspr-6   Started NAT network 'NatNetwork'
00:09:09.374960 nspr-2   Saving settings file "/home/tarun/VirtualBox VMs/Arch/Arch.vbox" with version "1.16-linux"
00:09:09.438690 nspr-6   HostDnsMonitorProxy::GetNameServers:
00:09:09.438733 nspr-6     name server 1: 194.168.4.100
00:09:09.438745 nspr-6     name server 2: 194.168.8.100
00:09:09.518132 nspr-6   WARNING [COM]: aRC=NS_ERROR_FAILURE (0x80004005) aIID={16ced992-5fdc-4aba-aff5-6a39bbd7c38b} aComponent={HostWrap} aText={VirtualBox is not currently allowed to access USB devices.  You can change this by adding your user to the 'vboxusers' group.  Please see the user manual for a more detailed explanation}, preserve=true  aResultDetail=0
00:09:09.579782 nspr-5   NetIfAdpCtlOut: VBoxNetAdpCtl: Error while retrieving link speed for wlan0: VBoxNetAdpCtl: ioctl failed: Operation not supported
00:09:09.583656 nspr-3   ERROR [COM]: aRC=VBOX_E_OBJECT_IN_USE (0x80bb000c) aIID={cadef0a2-a1a9-4ac2-8e80-c049af69dac8} aComponent={DHCPServerWrap} aText={Cannot start DHCP server because it is already running (pid 0009e8dc)}, preserve=false aResultDetail=-51
00:10:01.222388 nspr-3   Saving settings file "/home/tarun/VirtualBox VMs/Arch/Arch.vbox" with version "1.16-linux"
00:10:01.572757 SaveState Saving settings file "/home/tarun/VirtualBox VMs/Arch/Arch.vbox" with version "1.16-linux"
00:10:01.683755 nspr-6   VM 'Arch' stops using NAT network 'NatNetwork'
00:10:01.686582 nspr-6   NetworkServiceRunning: killing VBoxNetDHCP, pid 000a0dbb...
00:10:01.693065 nspr-6   NetworkServiceRunning: VBoxNetNAT (pid 000a0dbc) stopped: iStatus=0 enmReason=1
00:10:01.693125 nspr-6   Stopped NAT network 'NatNetwork'
00:10:04.723811 nspr-3   Launched VM: 3758100336 pid: 659868 (0xa119c) frontend: GUI/Qt name: Arch
00:10:06.408326 nspr-2   WARNING [COM]: aRC=NS_ERROR_FAILURE (0x80004005) aIID={16ced992-5fdc-4aba-aff5-6a39bbd7c38b} aComponent={HostWrap} aText={VirtualBox is not currently allowed to access USB devices.  You can change this by adding your user to the 'vboxusers' group.  Please see the user manual for a more detailed explanation}, preserve=true  aResultDetail=0
00:10:06.411029 nspr-2   WARNING [COM]: aRC=NS_ERROR_FAILURE (0x80004005) aIID={16ced992-5fdc-4aba-aff5-6a39bbd7c38b} aComponent={HostWrap} aText={VirtualBox is not currently allowed to access USB devices.  You can change this by adding your user to the 'vboxusers' group.  Please see the user manual for a more detailed explanation}, preserve=true  aResultDetail=0
00:10:06.412319 nspr-6   Load [/usr/lib/virtualbox/ExtensionPacks/Oracle_VM_VirtualBox_Extension_Pack/linux.amd64/VBoxHostWebcam.so] vrc=VINF_SUCCESS
00:10:06.478679 nspr-5   WARNING [COM]: aRC=NS_ERROR_FAILURE (0x80004005) aIID={16ced992-5fdc-4aba-aff5-6a39bbd7c38b} aComponent={HostWrap} aText={VirtualBox is not currently allowed to access USB devices.  You can change this by adding your user to the 'vboxusers' group.  Please see the user manual for a more detailed explanation}, preserve=true  aResultDetail=0
00:10:06.605670 nspr-5   WARNING [COM]: aRC=NS_ERROR_FAILURE (0x80004005) aIID={16ced992-5fdc-4aba-aff5-6a39bbd7c38b} aComponent={HostWrap} aText={VirtualBox is not currently allowed to access USB devices.  You can change this by adding your user to the 'vboxusers' group.  Please see the user manual for a more detailed explanation}, preserve=true  aResultDetail=0
00:10:06.607613 nspr-5   WARNING [COM]: aRC=NS_ERROR_FAILURE (0x80004005) aIID={16ced992-5fdc-4aba-aff5-6a39bbd7c38b} aComponent={HostWrap} aText={VirtualBox is not currently allowed to access USB devices.  You can change this by adding your user to the 'vboxusers' group.  Please see the user manual for a more detailed explanation}, preserve=true  aResultDetail=0
00:10:06.856843 nspr-2   VM 'Arch' starts using NAT network 'NatNetwork'
00:10:06.856926 nspr-2   HostDnsMonitorProxy::GetDomainName: no domain set
00:10:06.856963 nspr-2   ERROR [COM]: aRC=VBOX_E_OBJECT_NOT_FOUND (0x80bb0001) aIID={46735de7-f4c4-4020-a185-0d2881bcfa8b} aComponent={DHCPGlobalConfigWrap} aText={DHCP option 15 was not found}, preserve=false aResultDetail=0
00:10:06.857013 nspr-2   HostDnsMonitorProxy::GetNameServers:
00:10:06.857032 nspr-2     name server 1: 194.168.4.100
00:10:06.857049 nspr-2     name server 2: 194.168.8.100
00:10:06.857220 nspr-2   Saving settings file "/home/tarun/.config/VirtualBox/VirtualBox.xml" with version "1.14-linux"
00:10:06.952126 nspr-2   Saving settings file "/home/tarun/.config/VirtualBox/VirtualBox.xml" with version "1.14-linux"
00:10:07.065365 nspr-2   NetworkServiceRunning: started 'VBoxNetDHCP', pid 000a11cd
00:10:07.065958 nspr-2   NetworkServiceRunning: started 'VBoxNetNAT', pid 000a11ce
00:10:07.066078 nspr-2   Started NAT network 'NatNetwork'
00:10:07.067380 nspr-5   Saving settings file "/home/tarun/VirtualBox VMs/Arch/Arch.vbox" with version "1.16-linux"
00:10:07.165638 nspr-3   HostDnsMonitorProxy::GetNameServers:
00:10:07.165680 nspr-3     name server 1: 194.168.4.100
00:10:07.165692 nspr-3     name server 2: 194.168.8.100
00:10:07.267109 nspr-2   WARNING [COM]: aRC=NS_ERROR_FAILURE (0x80004005) aIID={16ced992-5fdc-4aba-aff5-6a39bbd7c38b} aComponent={HostWrap} aText={VirtualBox is not currently allowed to access USB devices.  You can change this by adding your user to the 'vboxusers' group.  Please see the user manual for a more detailed explanation}, preserve=true  aResultDetail=0
00:10:07.351083 nspr-2   NetIfAdpCtlOut: VBoxNetAdpCtl: Error while retrieving link speed for wlan0: VBoxNetAdpCtl: ioctl failed: Operation not supported
00:10:07.355942 nspr-2   ERROR [COM]: aRC=VBOX_E_OBJECT_IN_USE (0x80bb000c) aIID={cadef0a2-a1a9-4ac2-8e80-c049af69dac8} aComponent={DHCPServerWrap} aText={Cannot start DHCP server because it is already running (pid 0009e8dc)}, preserve=false aResultDetail=-51
00:10:09.245048 nspr-3   Saving settings file "/home/tarun/VirtualBox VMs/Arch/Arch.vbox" with version "1.16-linux"
00:10:18.801246 nspr-6   Saving settings file "/home/tarun/VirtualBox VMs/Arch/Arch.vbox" with version "1.16-linux"
00:10:18.942670 nspr-6   Saving settings file "/home/tarun/VirtualBox VMs/Arch/Arch.vbox" with version "1.16-linux"
00:10:19.308181 nspr-3   VM 'Arch' stops using NAT network 'NatNetwork'
00:10:19.310335 nspr-3   NetworkServiceRunning: killing VBoxNetDHCP, pid 000a11cd...
00:10:19.322179 nspr-3   NetworkServiceRunning: VBoxNetNAT (pid 000a11ce) stopped: iStatus=0 enmReason=1
00:10:19.322236 nspr-3   Stopped NAT network 'NatNetwork'
00:10:24.577953 main     VirtualBox: object deletion starts
00:10:24.578053 main     ERROR [COM]: aRC=VBOX_E_OBJECT_IN_USE (0x80bb000c) aIID={ad47ad09-787b-44ab-b343-a082a3f2dfb1} aComponent={MediumWrap} aText={Medium '/home/tarun/VirtualBox VMs/Arch/Snapshots/{c39b4ce7-9e72-4b58-a180-e597e1d45607}.vdi' cannot be closed because it is still attached to 1 virtual machines}, preserve=false aResultDetail=0
00:10:24.578510 main     ERROR [COM]: aRC=VBOX_E_OBJECT_IN_USE (0x80bb000c) aIID={ad47ad09-787b-44ab-b343-a082a3f2dfb1} aComponent={MediumWrap} aText={Medium '/home/tarun/VirtualBox VMs/Arch/Snapshots/{19cdcb6c-8ed7-4b2b-b6c6-23b302a0f7ae}.vdi' cannot be closed because it is still attached to 1 virtual machines}, preserve=false aResultDetail=0
00:10:24.578573 main     ERROR [COM]: aRC=VBOX_E_OBJECT_IN_USE (0x80bb000c) aIID={ad47ad09-787b-44ab-b343-a082a3f2dfb1} aComponent={MediumWrap} aText={Medium '/home/tarun/VirtualBox VMs/Arch/Snapshots/{2cc1a8b0-2408-45db-9b33-9455afeb2ce4}.vdi' cannot be closed because it is still attached to 1 virtual machines}, preserve=false aResultDetail=0
00:10:24.578608 main     ERROR [COM]: aRC=VBOX_E_OBJECT_IN_USE (0x80bb000c) aIID={ad47ad09-787b-44ab-b343-a082a3f2dfb1} aComponent={MediumWrap} aText={Medium '/home/tarun/VirtualBox VMs/Arch/Snapshots/{3862d46c-9456-4117-b7ea-095a74bfdce8}.vdi' cannot be closed because it is still attached to 1 virtual machines}, preserve=false aResultDetail=0
00:10:24.578641 main     ERROR [COM]: aRC=VBOX_E_OBJECT_IN_USE (0x80bb000c) aIID={ad47ad09-787b-44ab-b343-a082a3f2dfb1} aComponent={MediumWrap} aText={Medium '/home/tarun/VirtualBox VMs/Arch/Arch.vdi' cannot be closed because it is still attached to 1 virtual machines}, preserve=false aResultDetail=0
00:10:24.578677 main     ERROR [COM]: aRC=VBOX_E_OBJECT_IN_USE (0x80bb000c) aIID={ad47ad09-787b-44ab-b343-a082a3f2dfb1} aComponent={MediumWrap} aText={Medium '/home/tarun/VirtualBox VMs/Arch/Snapshots/{9f4ef9c1-47e3-4389-b62c-c6ed1e6454ad}.vdi' cannot be closed because it is still attached to 1 virtual machines}, preserve=false aResultDetail=0
00:10:24.578712 main     ERROR [COM]: aRC=VBOX_E_OBJECT_IN_USE (0x80bb000c) aIID={ad47ad09-787b-44ab-b343-a082a3f2dfb1} aComponent={MediumWrap} aText={Medium '/home/tarun/VirtualBox VMs/Arch/Snapshots/{55e9e13d-e562-4955-86ad-63fd6440422c}.vdi' cannot be closed because it is still attached to 1 virtual machines}, preserve=false aResultDetail=0
00:10:24.578745 main     ERROR [COM]: aRC=VBOX_E_OBJECT_IN_USE (0x80bb000c) aIID={ad47ad09-787b-44ab-b343-a082a3f2dfb1} aComponent={MediumWrap} aText={Medium '/home/tarun/VirtualBox VMs/Arch/Snapshots/{2114cf72-0067-4503-a5d2-ba736862ee6d}.vdi' cannot be closed because it is still attached to 1 virtual machines}, preserve=false aResultDetail=0
00:10:24.578779 main     ERROR [COM]: aRC=VBOX_E_OBJECT_IN_USE (0x80bb000c) aIID={ad47ad09-787b-44ab-b343-a082a3f2dfb1} aComponent={MediumWrap} aText={Medium '/home/tarun/VirtualBox VMs/Arch/Snapshots/{c0bfb9e9-7622-45ec-bc9d-a0e0a440028d}.vdi' cannot be closed because it is still attached to 1 virtual machines}, preserve=false aResultDetail=0
00:10:24.578812 main     ERROR [COM]: aRC=VBOX_E_OBJECT_IN_USE (0x80bb000c) aIID={ad47ad09-787b-44ab-b343-a082a3f2dfb1} aComponent={MediumWrap} aText={Medium '/home/tarun/VirtualBox VMs/Arch/Arch_1.vdi' cannot be closed because it is still attached to 1 virtual machines}, preserve=false aResultDetail=0
00:10:24.579623 main     NetworkServiceRunning: killing VBoxNetDHCP, pid 0009e8dc...
00:10:24.645564 main     HostDnsMonitor: shutting down ...
00:10:24.650920 main     HostDnsMonitor: shut down
00:10:24.809776 Watcher  ERROR [COM]: aRC=E_ACCESSDENIED (0x80070005) aIID={d0a0163f-e254-4e5b-a1f2-011cf991c38d} aComponent={VirtualBoxWrap} aText={The object is not ready}, preserve=false aResultDetail=0
00:10:29.651099 main     {00007fc0f00187e0} HostPowerServiceLinux::~HostPowerServiceLinux: RTThreadWait() for 5000 ms failed with VERR_TIMEOUT
00:10:29.651963 main     VirtualBox: object deleted
