00:00:00.011149 main     VirtualBox XPCOM Server 6.1.32 r149290 linux.amd64 (Jan 18 2022 20:32:19) release log
00:00:00.011157 main     Log opened 2022-01-21T21:30:18.149932000Z
00:00:00.011160 main     Build Type: release
00:00:00.011167 main     OS Product: Linux
00:00:00.011171 main     OS Release: 5.16.1-arch1-1
00:00:00.011175 main     OS Version: #1 SMP PREEMPT Sun, 16 Jan 2022 11:39:23 +0000
00:00:00.011217 main     DMI Product Name: Inspiron 1525                   
00:00:00.011238 main     DMI Product Version: 
00:00:00.011252 main     Firmware type: BIOS
00:00:00.011318 main     Host RAM: 3915MB (3.8GB) total, 3436MB (3.3GB) available
00:00:00.011325 main     Executable: /usr/lib/virtualbox/VBoxSVC
00:00:00.011328 main     Process ID: 28825
00:00:00.011331 main     Package type: LINUX_64BITS_GENERIC (OSE)
00:00:00.014818 main     IPC socket path: /tmp/.vbox-tarun-ipc/ipcd
00:00:00.165134 nspr-2   VirtualBox: object creation starts
00:00:00.165459 nspr-2   Home directory: '/home/tarun/.config/VirtualBox'
00:00:00.222132 nspr-2   Loading settings file "/home/tarun/.config/VirtualBox/VirtualBox.xml" with version "1.14-linux"
00:00:00.361411 nspr-2   NetIfAdpCtlOut: VBoxNetAdpCtl: Error while retrieving link speed for wlan0: VBoxNetAdpCtl: ioctl failed: Operation not supported
00:00:00.365138 nspr-2   HostDnsMonitor: initializing
00:00:00.365752 nspr-2   NAT: resolv.conf: nameserver 194.168.4.100
00:00:00.365795 nspr-2   NAT: resolv.conf: nameserver 194.168.8.100
00:00:00.365843 nspr-2   HostDnsMonitor: updating information
00:00:00.365900 nspr-2   HostDnsMonitor: old information
00:00:00.365927 nspr-2     no server entries
00:00:00.365950 nspr-2     no domain set
00:00:00.365973 nspr-2     no search string entries
00:00:00.365996 nspr-2   HostDnsMonitor: new information
00:00:00.366018 nspr-2     server 1: 194.168.4.100
00:00:00.366043 nspr-2     server 2: 194.168.8.100
00:00:00.366067 nspr-2     no domain set
00:00:00.366089 nspr-2     no search string entries
00:00:00.724996 nspr-2   VD: VDInit finished with VINF_SUCCESS
00:00:00.758531 nspr-2   ERROR [COM]: aRC=NS_ERROR_FAILURE (0x80004005) aIID={027bc463-929c-40e8-bf16-fea557cd8e7e} aComponent={SystemPropertiesWrap} aText={Cannot determine default Guest Additions ISO location. Most likely they are not available}, preserve=false aResultDetail=0
00:00:00.845124 nspr-2   Loading settings file "/home/tarun/VirtualBox VMs/Arch/Arch.vbox" with version "1.16-linux"
00:00:01.021536 nspr-2   OCI: Local config file '/home/tarun/.config/VirtualBox/oci_config' does not exist
00:00:01.021601 nspr-2   OCI: Original config file '/home/tarun/.oci/config' does not exist
00:00:01.021614 nspr-2   OCI: Reading profiles finished with status NS_OK
00:00:01.021642 nspr-2   ExtPack: Created cloud provider 'OCI' (hrc=NS_OK)
00:00:01.021689 nspr-2   VirtualBox: object created
00:00:01.094043 nspr-2   Launched VM: 402656704 pid: 28899 (0x70e3) frontend: GUI/Qt name: Arch
00:00:08.660230 nspr-3   WARNING [COM]: aRC=NS_ERROR_FAILURE (0x80004005) aIID={16ced992-5fdc-4aba-aff5-6a39bbd7c38b} aComponent={HostWrap} aText={VirtualBox is not currently allowed to access USB devices.  You can change this by adding your user to the 'vboxusers' group.  Please see the user manual for a more detailed explanation}, preserve=true  aResultDetail=0
00:00:08.663170 nspr-4   WARNING [COM]: aRC=NS_ERROR_FAILURE (0x80004005) aIID={16ced992-5fdc-4aba-aff5-6a39bbd7c38b} aComponent={HostWrap} aText={VirtualBox is not currently allowed to access USB devices.  You can change this by adding your user to the 'vboxusers' group.  Please see the user manual for a more detailed explanation}, preserve=true  aResultDetail=0
00:00:08.682946 nspr-4   Load [/usr/lib/virtualbox/ExtensionPacks/Oracle_VM_VirtualBox_Extension_Pack/linux.amd64/VBoxHostWebcam.so] vrc=VINF_SUCCESS
00:00:08.751563 nspr-4   WARNING [COM]: aRC=NS_ERROR_FAILURE (0x80004005) aIID={16ced992-5fdc-4aba-aff5-6a39bbd7c38b} aComponent={HostWrap} aText={VirtualBox is not currently allowed to access USB devices.  You can change this by adding your user to the 'vboxusers' group.  Please see the user manual for a more detailed explanation}, preserve=true  aResultDetail=0
00:00:09.360473 nspr-6   WARNING [COM]: aRC=NS_ERROR_FAILURE (0x80004005) aIID={16ced992-5fdc-4aba-aff5-6a39bbd7c38b} aComponent={HostWrap} aText={VirtualBox is not currently allowed to access USB devices.  You can change this by adding your user to the 'vboxusers' group.  Please see the user manual for a more detailed explanation}, preserve=true  aResultDetail=0
00:00:09.363817 nspr-6   WARNING [COM]: aRC=NS_ERROR_FAILURE (0x80004005) aIID={16ced992-5fdc-4aba-aff5-6a39bbd7c38b} aComponent={HostWrap} aText={VirtualBox is not currently allowed to access USB devices.  You can change this by adding your user to the 'vboxusers' group.  Please see the user manual for a more detailed explanation}, preserve=true  aResultDetail=0
00:00:09.692102 nspr-3   ERROR [COM]: aRC=VBOX_E_IPRT_ERROR (0x80bb0005) aIID={85632c68-b5bb-4316-a900-5eb28d3413df} aComponent={SessionMachine} aText={Saved screenshot data is not available (VERR_NOT_SUPPORTED)}, preserve=false aResultDetail=-37
00:00:09.856167 nspr-3   NetIfAdpCtlOut: VBoxNetAdpCtl: Error while retrieving link speed for wlan0: VBoxNetAdpCtl: ioctl failed: Operation not supported
00:00:09.973928 nspr-3   VM 'Arch' starts using NAT network 'NatNetwork'
00:00:09.974181 nspr-3   HostDnsMonitorProxy::GetDomainName: no domain set
00:00:09.974212 nspr-3   ERROR [COM]: aRC=VBOX_E_OBJECT_NOT_FOUND (0x80bb0001) aIID={46735de7-f4c4-4020-a185-0d2881bcfa8b} aComponent={DHCPGlobalConfigWrap} aText={DHCP option 15 was not found}, preserve=false aResultDetail=0
00:00:09.974248 nspr-3   HostDnsMonitorProxy::GetNameServers:
00:00:09.974261 nspr-3     name server 1: 194.168.4.100
00:00:09.974272 nspr-3     name server 2: 194.168.8.100
00:00:09.974441 nspr-3   Saving settings file "/home/tarun/.config/VirtualBox/VirtualBox.xml" with version "1.14-linux"
00:00:10.237134 nspr-3   Saving settings file "/home/tarun/.config/VirtualBox/VirtualBox.xml" with version "1.14-linux"
00:00:10.367196 nspr-3   NetworkServiceRunning: started 'VBoxNetDHCP', pid 000071a2
00:00:10.377235 nspr-3   NetworkServiceRunning: started 'VBoxNetNAT', pid 000071a3
00:00:10.377368 nspr-3   Started NAT network 'NatNetwork'
00:00:10.378166 nspr-5   Saving settings file "/home/tarun/VirtualBox VMs/Arch/Arch.vbox" with version "1.16-linux"
00:00:10.677704 nspr-6   HostDnsMonitorProxy::GetNameServers:
00:00:10.677752 nspr-6     name server 1: 194.168.4.100
00:00:10.677765 nspr-6     name server 2: 194.168.8.100
00:00:11.300789 nspr-3   WARNING [COM]: aRC=NS_ERROR_FAILURE (0x80004005) aIID={16ced992-5fdc-4aba-aff5-6a39bbd7c38b} aComponent={HostWrap} aText={VirtualBox is not currently allowed to access USB devices.  You can change this by adding your user to the 'vboxusers' group.  Please see the user manual for a more detailed explanation}, preserve=true  aResultDetail=0
00:00:11.370623 nspr-3   NetIfAdpCtlOut: VBoxNetAdpCtl: Error while retrieving link speed for wlan0: VBoxNetAdpCtl: ioctl failed: Operation not supported
00:00:15.838418 nspr-4   ERROR [COM]: aRC=VBOX_E_IPRT_ERROR (0x80bb0005) aIID={85632c68-b5bb-4316-a900-5eb28d3413df} aComponent={SessionMachine} aText={Saved screenshot data is not available (VERR_NOT_SUPPORTED)}, preserve=false aResultDetail=-37
