00:00:00.289445 main     VirtualBox XPCOM Server 6.1.30 r148432 linux.amd64 (Dec 10 2021 19:46:42) release log
00:00:00.289452 main     Log opened 2022-01-16T22:07:36.825205000Z
00:00:00.289455 main     Build Type: release
00:00:00.289461 main     OS Product: Linux
00:00:00.289466 main     OS Release: 5.16.0-arch1-1
00:00:00.289470 main     OS Version: #1 SMP PREEMPT Mon, 10 Jan 2022 20:11:47 +0000
00:00:00.289509 main     DMI Product Name: Inspiron 1525                   
00:00:00.289530 main     DMI Product Version: 
00:00:00.289543 main     Firmware type: BIOS
00:00:00.289608 main     Host RAM: 3915MB (3.8GB) total, 3599MB (3.5GB) available
00:00:00.289615 main     Executable: /usr/lib/virtualbox/VBoxSVC
00:00:00.289618 main     Process ID: 639537
00:00:00.289621 main     Package type: LINUX_64BITS_GENERIC (OSE)
00:00:00.292838 main     IPC socket path: /tmp/.vbox-tarun-ipc/ipcd
00:00:00.403609 nspr-2   VirtualBox: object creation starts
00:00:00.403930 nspr-2   Home directory: '/home/tarun/.config/VirtualBox'
00:00:00.404440 nspr-2   Loading settings file "/home/tarun/.config/VirtualBox/VirtualBox.xml" with version "1.12-linux"
00:00:00.433569 nspr-2   NetIfAdpCtlOut: VBoxNetAdpCtl: Error while retrieving link speed for wlan0: VBoxNetAdpCtl: ioctl failed: Operation not supported
00:00:00.435172 nspr-2   HostDnsMonitor: initializing
00:00:00.435508 nspr-2   NAT: resolv.conf: nameserver 194.168.4.100
00:00:00.435528 nspr-2   NAT: resolv.conf: nameserver 194.168.8.100
00:00:00.435550 nspr-2   HostDnsMonitor: updating information
00:00:00.435576 nspr-2   HostDnsMonitor: old information
00:00:00.435588 nspr-2     no server entries
00:00:00.435599 nspr-2     no domain set
00:00:00.435609 nspr-2     no search string entries
00:00:00.435620 nspr-2   HostDnsMonitor: new information
00:00:00.435631 nspr-2     server 1: 194.168.4.100
00:00:00.435642 nspr-2     server 2: 194.168.8.100
00:00:00.435653 nspr-2     no domain set
00:00:00.435663 nspr-2     no search string entries
00:00:00.441227 nspr-2   VD: VDInit finished with VINF_SUCCESS
00:00:00.441391 nspr-2   ERROR [COM]: aRC=NS_ERROR_FAILURE (0x80004005) aIID={027bc463-929c-40e8-bf16-fea557cd8e7e} aComponent={SystemPropertiesWrap} aText={Cannot determine default Guest Additions ISO location. Most likely they are not available}, preserve=false aResultDetail=0
00:00:00.446116 nspr-2   Loading settings file "/home/tarun/VirtualBox VMs/Arch/Arch.vbox" with version "1.16-linux"
00:00:00.448847 nspr-2   OCI: Local config file '/home/tarun/.config/VirtualBox/oci_config' does not exist
00:00:00.448884 nspr-2   OCI: Original config file '/home/tarun/.oci/config' does not exist
00:00:00.448896 nspr-2   OCI: Reading profiles finished with status NS_OK
00:00:00.448910 nspr-2   ExtPack: Created cloud provider 'OCI' (hrc=NS_OK)
00:00:00.448942 nspr-2   VirtualBox: object created
00:00:00.454551 nspr-2   ERROR [COM]: aRC=VBOX_E_OBJECT_NOT_FOUND (0x80bb0001) aIID={d0a0163f-e254-4e5b-a1f2-011cf991c38d} aComponent={VirtualBoxWrap} aText={Could not find a registered machine named '1000'}, preserve=false aResultDetail=0
00:00:05.456036 main     VirtualBox: object deletion starts
00:00:05.456230 main     ERROR [COM]: aRC=VBOX_E_OBJECT_IN_USE (0x80bb000c) aIID={ad47ad09-787b-44ab-b343-a082a3f2dfb1} aComponent={MediumWrap} aText={Medium '/home/tarun/VirtualBox VMs/Arch/Snapshots/{c39b4ce7-9e72-4b58-a180-e597e1d45607}.vdi' cannot be closed because it is still attached to 1 virtual machines}, preserve=false aResultDetail=0
00:00:05.456401 main     ERROR [COM]: aRC=VBOX_E_OBJECT_IN_USE (0x80bb000c) aIID={ad47ad09-787b-44ab-b343-a082a3f2dfb1} aComponent={MediumWrap} aText={Medium '/home/tarun/VirtualBox VMs/Arch/Snapshots/{19cdcb6c-8ed7-4b2b-b6c6-23b302a0f7ae}.vdi' cannot be closed because it is still attached to 1 virtual machines}, preserve=false aResultDetail=0
00:00:05.456513 main     ERROR [COM]: aRC=VBOX_E_OBJECT_IN_USE (0x80bb000c) aIID={ad47ad09-787b-44ab-b343-a082a3f2dfb1} aComponent={MediumWrap} aText={Medium '/home/tarun/VirtualBox VMs/Arch/Snapshots/{2cc1a8b0-2408-45db-9b33-9455afeb2ce4}.vdi' cannot be closed because it is still attached to 1 virtual machines}, preserve=false aResultDetail=0
00:00:05.456683 main     ERROR [COM]: aRC=VBOX_E_OBJECT_IN_USE (0x80bb000c) aIID={ad47ad09-787b-44ab-b343-a082a3f2dfb1} aComponent={MediumWrap} aText={Medium '/home/tarun/VirtualBox VMs/Arch/Snapshots/{3862d46c-9456-4117-b7ea-095a74bfdce8}.vdi' cannot be closed because it is still attached to 1 virtual machines}, preserve=false aResultDetail=0
00:00:05.456793 main     ERROR [COM]: aRC=VBOX_E_OBJECT_IN_USE (0x80bb000c) aIID={ad47ad09-787b-44ab-b343-a082a3f2dfb1} aComponent={MediumWrap} aText={Medium '/home/tarun/VirtualBox VMs/Arch/Arch.vdi' cannot be closed because it is still attached to 1 virtual machines}, preserve=false aResultDetail=0
00:00:05.456883 main     ERROR [COM]: aRC=VBOX_E_OBJECT_IN_USE (0x80bb000c) aIID={ad47ad09-787b-44ab-b343-a082a3f2dfb1} aComponent={MediumWrap} aText={Medium '/home/tarun/VirtualBox VMs/Arch/Snapshots/{9f4ef9c1-47e3-4389-b62c-c6ed1e6454ad}.vdi' cannot be closed because it is still attached to 1 virtual machines}, preserve=false aResultDetail=0
00:00:05.456975 main     ERROR [COM]: aRC=VBOX_E_OBJECT_IN_USE (0x80bb000c) aIID={ad47ad09-787b-44ab-b343-a082a3f2dfb1} aComponent={MediumWrap} aText={Medium '/home/tarun/VirtualBox VMs/Arch/Snapshots/{55e9e13d-e562-4955-86ad-63fd6440422c}.vdi' cannot be closed because it is still attached to 1 virtual machines}, preserve=false aResultDetail=0
00:00:05.457139 main     ERROR [COM]: aRC=VBOX_E_OBJECT_IN_USE (0x80bb000c) aIID={ad47ad09-787b-44ab-b343-a082a3f2dfb1} aComponent={MediumWrap} aText={Medium '/home/tarun/VirtualBox VMs/Arch/Snapshots/{2114cf72-0067-4503-a5d2-ba736862ee6d}.vdi' cannot be closed because it is still attached to 1 virtual machines}, preserve=false aResultDetail=0
00:00:05.457219 main     ERROR [COM]: aRC=VBOX_E_OBJECT_IN_USE (0x80bb000c) aIID={ad47ad09-787b-44ab-b343-a082a3f2dfb1} aComponent={MediumWrap} aText={Medium '/home/tarun/VirtualBox VMs/Arch/Snapshots/{c0bfb9e9-7622-45ec-bc9d-a0e0a440028d}.vdi' cannot be closed because it is still attached to 1 virtual machines}, preserve=false aResultDetail=0
00:00:05.457286 main     ERROR [COM]: aRC=VBOX_E_OBJECT_IN_USE (0x80bb000c) aIID={ad47ad09-787b-44ab-b343-a082a3f2dfb1} aComponent={MediumWrap} aText={Medium '/home/tarun/VirtualBox VMs/Arch/Arch_1.vdi' cannot be closed because it is still attached to 1 virtual machines}, preserve=false aResultDetail=0
00:00:05.459546 main     HostDnsMonitor: shutting down ...
00:00:05.470770 main     HostDnsMonitor: shut down
00:00:05.951420 Watcher  ERROR [COM]: aRC=E_ACCESSDENIED (0x80070005) aIID={d0a0163f-e254-4e5b-a1f2-011cf991c38d} aComponent={VirtualBoxWrap} aText={The object is not ready}, preserve=false aResultDetail=0
00:00:10.471195 main     {00007fb85c015820} HostPowerServiceLinux::~HostPowerServiceLinux: RTThreadWait() for 5000 ms failed with VERR_TIMEOUT
00:00:10.472487 main     VirtualBox: object deleted
