00:00:00.000803 main     VirtualBox XPCOM Server 6.1.30 r148432 linux.amd64 (Dec 10 2021 19:46:42) release log
00:00:00.000808 main     Log opened 2022-01-16T22:27:23.094857000Z
00:00:00.000812 main     Build Type: release
00:00:00.000817 main     OS Product: Linux
00:00:00.000822 main     OS Release: 5.16.0-arch1-1
00:00:00.000826 main     OS Version: #1 SMP PREEMPT Mon, 10 Jan 2022 20:11:47 +0000
00:00:00.000865 main     DMI Product Name: Inspiron 1525                   
00:00:00.000886 main     DMI Product Version: 
00:00:00.000900 main     Firmware type: BIOS
00:00:00.000958 main     Host RAM: 3915MB (3.8GB) total, 3590MB (3.5GB) available
00:00:00.000965 main     Executable: /usr/lib/virtualbox/VBoxSVC
00:00:00.000968 main     Process ID: 660428
00:00:00.000971 main     Package type: LINUX_64BITS_GENERIC (OSE)
00:00:00.004481 main     IPC socket path: /tmp/.vbox-tarun-ipc/ipcd
00:00:00.115505 nspr-2   VirtualBox: object creation starts
00:00:00.115761 nspr-2   Home directory: '/home/tarun/.config/VirtualBox'
00:00:00.116339 nspr-2   Loading settings file "/home/tarun/.config/VirtualBox/VirtualBox.xml" with version "1.14-linux"
00:00:00.148664 nspr-2   NetIfAdpCtlOut: VBoxNetAdpCtl: Error while retrieving link speed for wlan0: VBoxNetAdpCtl: ioctl failed: Operation not supported
00:00:00.171207 nspr-2   HostDnsMonitor: initializing
00:00:00.171612 nspr-2   NAT: resolv.conf: nameserver 194.168.4.100
00:00:00.171637 nspr-2   NAT: resolv.conf: nameserver 194.168.8.100
00:00:00.171663 nspr-2   HostDnsMonitor: updating information
00:00:00.171694 nspr-2   HostDnsMonitor: old information
00:00:00.171709 nspr-2     no server entries
00:00:00.171722 nspr-2     no domain set
00:00:00.171734 nspr-2     no search string entries
00:00:00.171747 nspr-2   HostDnsMonitor: new information
00:00:00.171760 nspr-2     server 1: 194.168.4.100
00:00:00.171773 nspr-2     server 2: 194.168.8.100
00:00:00.171787 nspr-2     no domain set
00:00:00.171799 nspr-2     no search string entries
00:00:00.199646 nspr-2   failed to create vboxnet0, error (0xffffffff)
00:00:00.201327 nspr-2   VD: VDInit finished with VINF_SUCCESS
00:00:00.201477 nspr-2   ERROR [COM]: aRC=NS_ERROR_FAILURE (0x80004005) aIID={027bc463-929c-40e8-bf16-fea557cd8e7e} aComponent={SystemPropertiesWrap} aText={Cannot determine default Guest Additions ISO location. Most likely they are not available}, preserve=false aResultDetail=0
00:00:00.206162 nspr-2   Loading settings file "/home/tarun/VirtualBox VMs/Arch/Arch.vbox" with version "1.16-linux"
00:00:00.208969 nspr-2   OCI: Local config file '/home/tarun/.config/VirtualBox/oci_config' does not exist
00:00:00.209007 nspr-2   OCI: Original config file '/home/tarun/.oci/config' does not exist
00:00:00.209019 nspr-2   OCI: Reading profiles finished with status NS_OK
00:00:00.209041 nspr-2   ExtPack: Created cloud provider 'OCI' (hrc=NS_OK)
00:00:00.209073 nspr-2   VirtualBox: object created
00:00:08.341967 main     VirtualBox: object deletion starts
00:00:08.342159 main     ERROR [COM]: aRC=VBOX_E_OBJECT_IN_USE (0x80bb000c) aIID={ad47ad09-787b-44ab-b343-a082a3f2dfb1} aComponent={MediumWrap} aText={Medium '/home/tarun/VirtualBox VMs/Arch/Snapshots/{c39b4ce7-9e72-4b58-a180-e597e1d45607}.vdi' cannot be closed because it is still attached to 1 virtual machines}, preserve=false aResultDetail=0
00:00:08.342264 main     ERROR [COM]: aRC=VBOX_E_OBJECT_IN_USE (0x80bb000c) aIID={ad47ad09-787b-44ab-b343-a082a3f2dfb1} aComponent={MediumWrap} aText={Medium '/home/tarun/VirtualBox VMs/Arch/Snapshots/{19cdcb6c-8ed7-4b2b-b6c6-23b302a0f7ae}.vdi' cannot be closed because it is still attached to 1 virtual machines}, preserve=false aResultDetail=0
00:00:08.342333 main     ERROR [COM]: aRC=VBOX_E_OBJECT_IN_USE (0x80bb000c) aIID={ad47ad09-787b-44ab-b343-a082a3f2dfb1} aComponent={MediumWrap} aText={Medium '/home/tarun/VirtualBox VMs/Arch/Snapshots/{2cc1a8b0-2408-45db-9b33-9455afeb2ce4}.vdi' cannot be closed because it is still attached to 1 virtual machines}, preserve=false aResultDetail=0
00:00:08.342398 main     ERROR [COM]: aRC=VBOX_E_OBJECT_IN_USE (0x80bb000c) aIID={ad47ad09-787b-44ab-b343-a082a3f2dfb1} aComponent={MediumWrap} aText={Medium '/home/tarun/VirtualBox VMs/Arch/Snapshots/{3862d46c-9456-4117-b7ea-095a74bfdce8}.vdi' cannot be closed because it is still attached to 1 virtual machines}, preserve=false aResultDetail=0
00:00:08.342506 main     ERROR [COM]: aRC=VBOX_E_OBJECT_IN_USE (0x80bb000c) aIID={ad47ad09-787b-44ab-b343-a082a3f2dfb1} aComponent={MediumWrap} aText={Medium '/home/tarun/VirtualBox VMs/Arch/Arch.vdi' cannot be closed because it is still attached to 1 virtual machines}, preserve=false aResultDetail=0
00:00:08.342572 main     ERROR [COM]: aRC=VBOX_E_OBJECT_IN_USE (0x80bb000c) aIID={ad47ad09-787b-44ab-b343-a082a3f2dfb1} aComponent={MediumWrap} aText={Medium '/home/tarun/VirtualBox VMs/Arch/Snapshots/{9f4ef9c1-47e3-4389-b62c-c6ed1e6454ad}.vdi' cannot be closed because it is still attached to 1 virtual machines}, preserve=false aResultDetail=0
00:00:08.342636 main     ERROR [COM]: aRC=VBOX_E_OBJECT_IN_USE (0x80bb000c) aIID={ad47ad09-787b-44ab-b343-a082a3f2dfb1} aComponent={MediumWrap} aText={Medium '/home/tarun/VirtualBox VMs/Arch/Snapshots/{55e9e13d-e562-4955-86ad-63fd6440422c}.vdi' cannot be closed because it is still attached to 1 virtual machines}, preserve=false aResultDetail=0
00:00:08.342703 main     ERROR [COM]: aRC=VBOX_E_OBJECT_IN_USE (0x80bb000c) aIID={ad47ad09-787b-44ab-b343-a082a3f2dfb1} aComponent={MediumWrap} aText={Medium '/home/tarun/VirtualBox VMs/Arch/Snapshots/{2114cf72-0067-4503-a5d2-ba736862ee6d}.vdi' cannot be closed because it is still attached to 1 virtual machines}, preserve=false aResultDetail=0
00:00:08.342768 main     ERROR [COM]: aRC=VBOX_E_OBJECT_IN_USE (0x80bb000c) aIID={ad47ad09-787b-44ab-b343-a082a3f2dfb1} aComponent={MediumWrap} aText={Medium '/home/tarun/VirtualBox VMs/Arch/Snapshots/{c0bfb9e9-7622-45ec-bc9d-a0e0a440028d}.vdi' cannot be closed because it is still attached to 1 virtual machines}, preserve=false aResultDetail=0
00:00:08.342831 main     ERROR [COM]: aRC=VBOX_E_OBJECT_IN_USE (0x80bb000c) aIID={ad47ad09-787b-44ab-b343-a082a3f2dfb1} aComponent={MediumWrap} aText={Medium '/home/tarun/VirtualBox VMs/Arch/Arch_1.vdi' cannot be closed because it is still attached to 1 virtual machines}, preserve=false aResultDetail=0
00:00:08.345130 main     HostDnsMonitor: shutting down ...
00:00:08.365663 main     HostDnsMonitor: shut down
00:00:08.712474 Watcher  ERROR [COM]: aRC=E_ACCESSDENIED (0x80070005) aIID={d0a0163f-e254-4e5b-a1f2-011cf991c38d} aComponent={VirtualBoxWrap} aText={The object is not ready}, preserve=false aResultDetail=0
00:00:13.366091 main     {00007f3d940165c0} HostPowerServiceLinux::~HostPowerServiceLinux: RTThreadWait() for 5000 ms failed with VERR_TIMEOUT
00:00:13.367522 main     VirtualBox: object deleted
