00:00:00.031207 main     VirtualBox XPCOM Server 6.1.32 r149290 linux.amd64 (Jan 18 2022 20:32:19) release log
00:00:00.031222 main     Log opened 2022-01-22T10:33:18.587650000Z
00:00:00.031229 main     Build Type: release
00:00:00.031241 main     OS Product: Linux
00:00:00.031250 main     OS Release: 5.16.2-arch1-1
00:00:00.031259 main     OS Version: #1 SMP PREEMPT Thu, 20 Jan 2022 16:18:29 +0000
00:00:00.031353 main     DMI Product Name: Inspiron 1525                   
00:00:00.031414 main     DMI Product Version: 
00:00:00.031448 main     Firmware type: BIOS
00:00:00.031606 main     Host RAM: 3915MB (3.8GB) total, 3537MB (3.4GB) available
00:00:00.031622 main     Executable: /usr/lib/virtualbox/VBoxSVC
00:00:00.031628 main     Process ID: 3048
00:00:00.031634 main     Package type: LINUX_64BITS_GENERIC (OSE)
00:00:00.037208 main     IPC socket path: /tmp/.vbox-tarun-ipc/ipcd
00:00:00.261474 nspr-2   VirtualBox: object creation starts
00:00:00.261843 nspr-2   Home directory: '/home/tarun/.config/VirtualBox'
00:00:00.312880 nspr-2   Loading settings file "/home/tarun/.config/VirtualBox/VirtualBox.xml" with version "1.14-linux"
00:00:00.464115 nspr-2   NetIfAdpCtlOut: VBoxNetAdpCtl: Error while retrieving link speed for wlan0: VBoxNetAdpCtl: ioctl failed: Operation not supported
00:00:00.466619 nspr-2   HostDnsMonitor: initializing
00:00:00.467059 nspr-2   NAT: resolv.conf: nameserver 194.168.4.100
00:00:00.467089 nspr-2   NAT: resolv.conf: nameserver 194.168.8.100
00:00:00.467121 nspr-2   HostDnsMonitor: updating information
00:00:00.467160 nspr-2   HostDnsMonitor: old information
00:00:00.467178 nspr-2     no server entries
00:00:00.467194 nspr-2     no domain set
00:00:00.467210 nspr-2     no search string entries
00:00:00.467226 nspr-2   HostDnsMonitor: new information
00:00:00.467242 nspr-2     server 1: 194.168.4.100
00:00:00.467259 nspr-2     server 2: 194.168.8.100
00:00:00.467275 nspr-2     no domain set
00:00:00.467291 nspr-2     no search string entries
00:00:00.888364 nspr-2   VD: VDInit finished with VINF_SUCCESS
00:00:00.921939 nspr-2   ERROR [COM]: aRC=NS_ERROR_FAILURE (0x80004005) aIID={027bc463-929c-40e8-bf16-fea557cd8e7e} aComponent={SystemPropertiesWrap} aText={Cannot determine default Guest Additions ISO location. Most likely they are not available}, preserve=false aResultDetail=0
00:00:01.002960 nspr-2   Loading settings file "/home/tarun/VirtualBox VMs/Arch/Arch.vbox" with version "1.16-linux"
00:00:02.030981 nspr-2   OCI: Local config file '/home/tarun/.config/VirtualBox/oci_config' does not exist
00:00:02.031110 nspr-2   OCI: Original config file '/home/tarun/.oci/config' does not exist
00:00:02.031151 nspr-2   OCI: Reading profiles finished with status NS_OK
00:00:02.031220 nspr-2   ExtPack: Created cloud provider 'OCI' (hrc=NS_OK)
00:00:02.031327 nspr-2   VirtualBox: object created
00:00:02.123471 nspr-2   Launched VM: 3221228992 pid: 3123 (0xc33) frontend: GUI/Qt name: Arch
00:00:09.787230 nspr-3   WARNING [COM]: aRC=NS_ERROR_FAILURE (0x80004005) aIID={16ced992-5fdc-4aba-aff5-6a39bbd7c38b} aComponent={HostWrap} aText={VirtualBox is not currently allowed to access USB devices.  You can change this by adding your user to the 'vboxusers' group.  Please see the user manual for a more detailed explanation}, preserve=true  aResultDetail=0
00:00:09.789848 nspr-4   WARNING [COM]: aRC=NS_ERROR_FAILURE (0x80004005) aIID={16ced992-5fdc-4aba-aff5-6a39bbd7c38b} aComponent={HostWrap} aText={VirtualBox is not currently allowed to access USB devices.  You can change this by adding your user to the 'vboxusers' group.  Please see the user manual for a more detailed explanation}, preserve=true  aResultDetail=0
00:00:09.812189 nspr-4   Load [/usr/lib/virtualbox/ExtensionPacks/Oracle_VM_VirtualBox_Extension_Pack/linux.amd64/VBoxHostWebcam.so] vrc=VINF_SUCCESS
00:00:09.879884 nspr-4   WARNING [COM]: aRC=NS_ERROR_FAILURE (0x80004005) aIID={16ced992-5fdc-4aba-aff5-6a39bbd7c38b} aComponent={HostWrap} aText={VirtualBox is not currently allowed to access USB devices.  You can change this by adding your user to the 'vboxusers' group.  Please see the user manual for a more detailed explanation}, preserve=true  aResultDetail=0
00:00:10.343444 nspr-6   WARNING [COM]: aRC=NS_ERROR_FAILURE (0x80004005) aIID={16ced992-5fdc-4aba-aff5-6a39bbd7c38b} aComponent={HostWrap} aText={VirtualBox is not currently allowed to access USB devices.  You can change this by adding your user to the 'vboxusers' group.  Please see the user manual for a more detailed explanation}, preserve=true  aResultDetail=0
00:00:10.347044 nspr-6   WARNING [COM]: aRC=NS_ERROR_FAILURE (0x80004005) aIID={16ced992-5fdc-4aba-aff5-6a39bbd7c38b} aComponent={HostWrap} aText={VirtualBox is not currently allowed to access USB devices.  You can change this by adding your user to the 'vboxusers' group.  Please see the user manual for a more detailed explanation}, preserve=true  aResultDetail=0
00:00:10.532917 nspr-3   ERROR [COM]: aRC=VBOX_E_IPRT_ERROR (0x80bb0005) aIID={85632c68-b5bb-4316-a900-5eb28d3413df} aComponent={SessionMachine} aText={Saved screenshot data is not available (VERR_NOT_SUPPORTED)}, preserve=false aResultDetail=-37
00:00:10.697858 nspr-3   NetIfAdpCtlOut: VBoxNetAdpCtl: Error while retrieving link speed for wlan0: VBoxNetAdpCtl: ioctl failed: Operation not supported
00:00:10.819117 nspr-3   VM 'Arch' starts using NAT network 'NatNetwork'
00:00:10.819236 nspr-3   HostDnsMonitorProxy::GetDomainName: no domain set
00:00:10.819291 nspr-3   ERROR [COM]: aRC=VBOX_E_OBJECT_NOT_FOUND (0x80bb0001) aIID={46735de7-f4c4-4020-a185-0d2881bcfa8b} aComponent={DHCPGlobalConfigWrap} aText={DHCP option 15 was not found}, preserve=false aResultDetail=0
00:00:10.819364 nspr-3   HostDnsMonitorProxy::GetNameServers:
00:00:10.819391 nspr-3     name server 1: 194.168.4.100
00:00:10.819416 nspr-3     name server 2: 194.168.8.100
00:00:10.819657 nspr-3   Saving settings file "/home/tarun/.config/VirtualBox/VirtualBox.xml" with version "1.14-linux"
00:00:11.004052 nspr-3   Saving settings file "/home/tarun/.config/VirtualBox/VirtualBox.xml" with version "1.14-linux"
00:00:11.141314 nspr-3   NetworkServiceRunning: started 'VBoxNetDHCP', pid 00000cf2
00:00:11.173666 nspr-3   NetworkServiceRunning: started 'VBoxNetNAT', pid 00000cf3
00:00:11.173766 nspr-3   Started NAT network 'NatNetwork'
00:00:11.174673 nspr-4   Saving settings file "/home/tarun/VirtualBox VMs/Arch/Arch.vbox" with version "1.16-linux"
00:00:11.370183 nspr-3   HostDnsMonitorProxy::GetNameServers:
00:00:11.370230 nspr-3     name server 1: 194.168.4.100
00:00:11.370242 nspr-3     name server 2: 194.168.8.100
00:00:12.187318 nspr-6   WARNING [COM]: aRC=NS_ERROR_FAILURE (0x80004005) aIID={16ced992-5fdc-4aba-aff5-6a39bbd7c38b} aComponent={HostWrap} aText={VirtualBox is not currently allowed to access USB devices.  You can change this by adding your user to the 'vboxusers' group.  Please see the user manual for a more detailed explanation}, preserve=true  aResultDetail=0
00:00:12.285524 nspr-6   NetIfAdpCtlOut: VBoxNetAdpCtl: Error while retrieving link speed for wlan0: VBoxNetAdpCtl: ioctl failed: Operation not supported
00:00:15.623851 nspr-2   ERROR [COM]: aRC=VBOX_E_IPRT_ERROR (0x80bb0005) aIID={85632c68-b5bb-4316-a900-5eb28d3413df} aComponent={SessionMachine} aText={Saved screenshot data is not available (VERR_NOT_SUPPORTED)}, preserve=false aResultDetail=-37
00:14:10.288403 nspr-2   WARNING [COM]: aRC=NS_ERROR_FAILURE (0x80004005) aIID={16ced992-5fdc-4aba-aff5-6a39bbd7c38b} aComponent={HostWrap} aText={VirtualBox is not currently allowed to access USB devices.  You can change this by adding your user to the 'vboxusers' group.  Please see the user manual for a more detailed explanation}, preserve=true  aResultDetail=0
00:14:10.290822 nspr-4   WARNING [COM]: aRC=NS_ERROR_FAILURE (0x80004005) aIID={16ced992-5fdc-4aba-aff5-6a39bbd7c38b} aComponent={HostWrap} aText={VirtualBox is not currently allowed to access USB devices.  You can change this by adding your user to the 'vboxusers' group.  Please see the user manual for a more detailed explanation}, preserve=true  aResultDetail=0
00:14:10.342331 nspr-6   ERROR [COM]: aRC=VBOX_E_IPRT_ERROR (0x80bb0005) aIID={85632c68-b5bb-4316-a900-5eb28d3413df} aComponent={SessionMachine} aText={Saved screenshot data is not available (VERR_NOT_SUPPORTED)}, preserve=false aResultDetail=-37
00:14:10.440029 nspr-4   WARNING [COM]: aRC=NS_ERROR_FAILURE (0x80004005) aIID={16ced992-5fdc-4aba-aff5-6a39bbd7c38b} aComponent={HostWrap} aText={VirtualBox is not currently allowed to access USB devices.  You can change this by adding your user to the 'vboxusers' group.  Please see the user manual for a more detailed explanation}, preserve=true  aResultDetail=0
00:14:10.442750 nspr-6   WARNING [COM]: aRC=NS_ERROR_FAILURE (0x80004005) aIID={16ced992-5fdc-4aba-aff5-6a39bbd7c38b} aComponent={HostWrap} aText={VirtualBox is not currently allowed to access USB devices.  You can change this by adding your user to the 'vboxusers' group.  Please see the user manual for a more detailed explanation}, preserve=true  aResultDetail=0
00:37:16.131688 nspr-2   ERROR [COM]: aRC=VBOX_E_IPRT_ERROR (0x80bb0005) aIID={85632c68-b5bb-4316-a900-5eb28d3413df} aComponent={SessionMachine} aText={Saved screenshot data is not available (VERR_NOT_SUPPORTED)}, preserve=false aResultDetail=-37
03:02:26.410623 dns-monitor HostDnsMonitor: updating information
03:02:26.410731 dns-monitor HostDnsMonitor: old information
03:02:26.410748 dns-monitor   server 1: 194.168.4.100
03:02:26.410762 dns-monitor   server 2: 194.168.8.100
03:02:26.410774 dns-monitor   no domain set
03:02:26.410789 dns-monitor   no search string entries
03:02:26.410842 dns-monitor HostDnsMonitor: new information
03:02:26.410853 dns-monitor   no server entries
03:02:26.410864 dns-monitor   no domain set
03:02:26.410875 dns-monitor   no search string entries
03:02:26.411768 nspr-3   HostDnsMonitorProxy::GetNameServers:
03:02:26.411797 nspr-3     no name server entries
03:02:39.900513 dns-monitor NAT: resolv.conf: nameserver 194.168.4.100
03:02:39.900548 dns-monitor NAT: resolv.conf: nameserver 194.168.8.100
03:02:39.900659 dns-monitor HostDnsMonitor: updating information
03:02:39.900675 dns-monitor HostDnsMonitor: old information
03:02:39.900686 dns-monitor   no server entries
03:02:39.900728 dns-monitor   no domain set
03:02:39.900741 dns-monitor   no search string entries
03:02:39.900752 dns-monitor HostDnsMonitor: new information
03:02:39.900762 dns-monitor   server 1: 194.168.4.100
03:02:39.900774 dns-monitor   server 2: 194.168.8.100
03:02:39.900785 dns-monitor   no domain set
03:02:39.900795 dns-monitor   no search string entries
03:02:39.902452 nspr-4   HostDnsMonitorProxy::GetNameServers:
03:02:39.902479 nspr-4     name server 1: 194.168.4.100
03:02:39.902492 nspr-4     name server 2: 194.168.8.100
03:08:41.418202 dns-monitor HostDnsMonitor: updating information
03:08:41.418274 dns-monitor HostDnsMonitor: old information
03:08:41.418288 dns-monitor   server 1: 194.168.4.100
03:08:41.418301 dns-monitor   server 2: 194.168.8.100
03:08:41.418313 dns-monitor   no domain set
03:08:41.418324 dns-monitor   no search string entries
03:08:41.418335 dns-monitor HostDnsMonitor: new information
03:08:41.418345 dns-monitor   no server entries
03:08:41.418356 dns-monitor   no domain set
03:08:41.418366 dns-monitor   no search string entries
03:08:41.419289 nspr-6   HostDnsMonitorProxy::GetNameServers:
03:08:41.419317 nspr-6     no name server entries
03:10:08.578594 dns-monitor NAT: resolv.conf: nameserver 194.168.4.100
03:10:08.578646 dns-monitor NAT: resolv.conf: nameserver 194.168.8.100
03:10:08.578672 dns-monitor HostDnsMonitor: updating information
03:10:08.578730 dns-monitor HostDnsMonitor: old information
03:10:08.578743 dns-monitor   no server entries
03:10:08.578755 dns-monitor   no domain set
03:10:08.578765 dns-monitor   no search string entries
03:10:08.578776 dns-monitor HostDnsMonitor: new information
03:10:08.578787 dns-monitor   server 1: 194.168.4.100
03:10:08.578799 dns-monitor   server 2: 194.168.8.100
03:10:08.578810 dns-monitor   no domain set
03:10:08.578860 dns-monitor   no search string entries
03:10:08.581714 nspr-2   HostDnsMonitorProxy::GetNameServers:
03:10:08.581765 nspr-2     name server 1: 194.168.4.100
03:10:08.581801 nspr-2     name server 2: 194.168.8.100
06:20:10.506467 nspr-5   WARNING [COM]: aRC=NS_ERROR_FAILURE (0x80004005) aIID={16ced992-5fdc-4aba-aff5-6a39bbd7c38b} aComponent={HostWrap} aText={VirtualBox is not currently allowed to access USB devices.  You can change this by adding your user to the 'vboxusers' group.  Please see the user manual for a more detailed explanation}, preserve=true  aResultDetail=0
06:20:10.509333 nspr-2   WARNING [COM]: aRC=NS_ERROR_FAILURE (0x80004005) aIID={16ced992-5fdc-4aba-aff5-6a39bbd7c38b} aComponent={HostWrap} aText={VirtualBox is not currently allowed to access USB devices.  You can change this by adding your user to the 'vboxusers' group.  Please see the user manual for a more detailed explanation}, preserve=true  aResultDetail=0
06:20:10.588901 nspr-6   ERROR [COM]: aRC=VBOX_E_IPRT_ERROR (0x80bb0005) aIID={85632c68-b5bb-4316-a900-5eb28d3413df} aComponent={SessionMachine} aText={Saved screenshot data is not available (VERR_NOT_SUPPORTED)}, preserve=false aResultDetail=-37
06:20:10.679632 nspr-4   WARNING [COM]: aRC=NS_ERROR_FAILURE (0x80004005) aIID={16ced992-5fdc-4aba-aff5-6a39bbd7c38b} aComponent={HostWrap} aText={VirtualBox is not currently allowed to access USB devices.  You can change this by adding your user to the 'vboxusers' group.  Please see the user manual for a more detailed explanation}, preserve=true  aResultDetail=0
06:20:10.682551 nspr-2   WARNING [COM]: aRC=NS_ERROR_FAILURE (0x80004005) aIID={16ced992-5fdc-4aba-aff5-6a39bbd7c38b} aComponent={HostWrap} aText={VirtualBox is not currently allowed to access USB devices.  You can change this by adding your user to the 'vboxusers' group.  Please see the user manual for a more detailed explanation}, preserve=true  aResultDetail=0
09:56:09.212670 nspr-6   Saving settings file "/home/tarun/VirtualBox VMs/Arch/Arch.vbox" with version "1.16-linux"
09:56:09.453583 nspr-6   Saving settings file "/home/tarun/VirtualBox VMs/Arch/Arch.vbox" with version "1.16-linux"
09:56:09.722386 nspr-5   VM 'Arch' stops using NAT network 'NatNetwork'
09:56:09.726379 nspr-5   NetworkServiceRunning: killing VBoxNetDHCP, pid 00000cf2...
09:56:09.741051 nspr-5   NetworkServiceRunning: VBoxNetNAT (pid 00000cf3) stopped: iStatus=0 enmReason=1
09:56:09.741120 nspr-5   Stopped NAT network 'NatNetwork'
09:56:15.150877 main     VirtualBox: object deletion starts
09:56:15.150991 main     ERROR [COM]: aRC=VBOX_E_OBJECT_IN_USE (0x80bb000c) aIID={ad47ad09-787b-44ab-b343-a082a3f2dfb1} aComponent={MediumWrap} aText={Medium '/home/tarun/VirtualBox VMs/Arch/Snapshots/{c39b4ce7-9e72-4b58-a180-e597e1d45607}.vdi' cannot be closed because it is still attached to 1 virtual machines}, preserve=false aResultDetail=0
09:56:15.151046 main     ERROR [COM]: aRC=VBOX_E_OBJECT_IN_USE (0x80bb000c) aIID={ad47ad09-787b-44ab-b343-a082a3f2dfb1} aComponent={MediumWrap} aText={Medium '/home/tarun/VirtualBox VMs/Arch/Snapshots/{19cdcb6c-8ed7-4b2b-b6c6-23b302a0f7ae}.vdi' cannot be closed because it is still attached to 1 virtual machines}, preserve=false aResultDetail=0
09:56:15.151077 main     ERROR [COM]: aRC=VBOX_E_OBJECT_IN_USE (0x80bb000c) aIID={ad47ad09-787b-44ab-b343-a082a3f2dfb1} aComponent={MediumWrap} aText={Medium '/home/tarun/VirtualBox VMs/Arch/Snapshots/{2cc1a8b0-2408-45db-9b33-9455afeb2ce4}.vdi' cannot be closed because it is still attached to 1 virtual machines}, preserve=false aResultDetail=0
09:56:15.151105 main     ERROR [COM]: aRC=VBOX_E_OBJECT_IN_USE (0x80bb000c) aIID={ad47ad09-787b-44ab-b343-a082a3f2dfb1} aComponent={MediumWrap} aText={Medium '/home/tarun/VirtualBox VMs/Arch/Snapshots/{3862d46c-9456-4117-b7ea-095a74bfdce8}.vdi' cannot be closed because it is still attached to 1 virtual machines}, preserve=false aResultDetail=0
09:56:15.151132 main     ERROR [COM]: aRC=VBOX_E_OBJECT_IN_USE (0x80bb000c) aIID={ad47ad09-787b-44ab-b343-a082a3f2dfb1} aComponent={MediumWrap} aText={Medium '/home/tarun/VirtualBox VMs/Arch/Arch.vdi' cannot be closed because it is still attached to 1 virtual machines}, preserve=false aResultDetail=0
09:56:15.151183 main     ERROR [COM]: aRC=VBOX_E_OBJECT_IN_USE (0x80bb000c) aIID={ad47ad09-787b-44ab-b343-a082a3f2dfb1} aComponent={MediumWrap} aText={Medium '/home/tarun/VirtualBox VMs/Arch/Snapshots/{9f4ef9c1-47e3-4389-b62c-c6ed1e6454ad}.vdi' cannot be closed because it is still attached to 1 virtual machines}, preserve=false aResultDetail=0
09:56:15.151211 main     ERROR [COM]: aRC=VBOX_E_OBJECT_IN_USE (0x80bb000c) aIID={ad47ad09-787b-44ab-b343-a082a3f2dfb1} aComponent={MediumWrap} aText={Medium '/home/tarun/VirtualBox VMs/Arch/Snapshots/{55e9e13d-e562-4955-86ad-63fd6440422c}.vdi' cannot be closed because it is still attached to 1 virtual machines}, preserve=false aResultDetail=0
09:56:15.151239 main     ERROR [COM]: aRC=VBOX_E_OBJECT_IN_USE (0x80bb000c) aIID={ad47ad09-787b-44ab-b343-a082a3f2dfb1} aComponent={MediumWrap} aText={Medium '/home/tarun/VirtualBox VMs/Arch/Snapshots/{2114cf72-0067-4503-a5d2-ba736862ee6d}.vdi' cannot be closed because it is still attached to 1 virtual machines}, preserve=false aResultDetail=0
09:56:15.151267 main     ERROR [COM]: aRC=VBOX_E_OBJECT_IN_USE (0x80bb000c) aIID={ad47ad09-787b-44ab-b343-a082a3f2dfb1} aComponent={MediumWrap} aText={Medium '/home/tarun/VirtualBox VMs/Arch/Snapshots/{c0bfb9e9-7622-45ec-bc9d-a0e0a440028d}.vdi' cannot be closed because it is still attached to 1 virtual machines}, preserve=false aResultDetail=0
09:56:15.151293 main     ERROR [COM]: aRC=VBOX_E_OBJECT_IN_USE (0x80bb000c) aIID={ad47ad09-787b-44ab-b343-a082a3f2dfb1} aComponent={MediumWrap} aText={Medium '/home/tarun/VirtualBox VMs/Arch/Arch_1.vdi' cannot be closed because it is still attached to 1 virtual machines}, preserve=false aResultDetail=0
09:56:15.152368 main     HostDnsMonitor: shutting down ...
09:56:15.158498 main     HostDnsMonitor: shut down
09:56:15.222798 Watcher  ERROR [COM]: aRC=E_ACCESSDENIED (0x80070005) aIID={d0a0163f-e254-4e5b-a1f2-011cf991c38d} aComponent={VirtualBoxWrap} aText={The object is not ready}, preserve=false aResultDetail=0
09:56:20.158808 main     {00007f28c4016080} HostPowerServiceLinux::~HostPowerServiceLinux: RTThreadWait() for 5000 ms failed with VERR_TIMEOUT
09:56:20.160247 main     VirtualBox: object deleted
