00:00:00.001239 main     VirtualBox XPCOM Server 6.1.30 r148432 linux.amd64 (Dec 10 2021 19:46:42) release log
00:00:00.001247 main     Log opened 2022-01-16T22:27:36.503464000Z
00:00:00.001252 main     Build Type: release
00:00:00.001260 main     OS Product: Linux
00:00:00.001266 main     OS Release: 5.16.0-arch1-1
00:00:00.001273 main     OS Version: #1 SMP PREEMPT Mon, 10 Jan 2022 20:11:47 +0000
00:00:00.001325 main     DMI Product Name: Inspiron 1525                   
00:00:00.001357 main     DMI Product Version: 
00:00:00.001378 main     Firmware type: BIOS
00:00:00.001466 main     Host RAM: 3915MB (3.8GB) total, 3593MB (3.5GB) available
00:00:00.001477 main     Executable: /usr/lib/virtualbox/VBoxSVC
00:00:00.001481 main     Process ID: 660710
00:00:00.001485 main     Package type: LINUX_64BITS_GENERIC (OSE)
00:00:00.005847 main     IPC socket path: /tmp/.vbox-tarun-ipc/ipcd
00:00:00.117198 nspr-2   VirtualBox: object creation starts
00:00:00.117448 nspr-2   Home directory: '/home/tarun/.config/VirtualBox'
00:00:00.117985 nspr-2   Loading settings file "/home/tarun/.config/VirtualBox/VirtualBox.xml" with version "1.14-linux"
00:00:00.146157 nspr-2   NetIfAdpCtlOut: VBoxNetAdpCtl: Error while retrieving link speed for wlan0: VBoxNetAdpCtl: ioctl failed: Operation not supported
00:00:00.171250 nspr-2   HostDnsMonitor: initializing
00:00:00.171588 nspr-2   NAT: resolv.conf: nameserver 194.168.4.100
00:00:00.171609 nspr-2   NAT: resolv.conf: nameserver 194.168.8.100
00:00:00.171632 nspr-2   HostDnsMonitor: updating information
00:00:00.171687 nspr-2   HostDnsMonitor: old information
00:00:00.171699 nspr-2     no server entries
00:00:00.171710 nspr-2     no domain set
00:00:00.171720 nspr-2     no search string entries
00:00:00.171731 nspr-2   HostDnsMonitor: new information
00:00:00.171741 nspr-2     server 1: 194.168.4.100
00:00:00.171753 nspr-2     server 2: 194.168.8.100
00:00:00.171763 nspr-2     no domain set
00:00:00.171774 nspr-2     no search string entries
00:00:00.195800 nspr-2   failed to create vboxnet0, error (0xffffffff)
00:00:00.197574 nspr-2   VD: VDInit finished with VINF_SUCCESS
00:00:00.197728 nspr-2   ERROR [COM]: aRC=NS_ERROR_FAILURE (0x80004005) aIID={027bc463-929c-40e8-bf16-fea557cd8e7e} aComponent={SystemPropertiesWrap} aText={Cannot determine default Guest Additions ISO location. Most likely they are not available}, preserve=false aResultDetail=0
00:00:00.202256 nspr-2   Loading settings file "/home/tarun/VirtualBox VMs/Arch/Arch.vbox" with version "1.16-linux"
00:00:00.205086 nspr-2   OCI: Local config file '/home/tarun/.config/VirtualBox/oci_config' does not exist
00:00:00.205123 nspr-2   OCI: Original config file '/home/tarun/.oci/config' does not exist
00:00:00.205135 nspr-2   OCI: Reading profiles finished with status NS_OK
00:00:00.205149 nspr-2   ExtPack: Created cloud provider 'OCI' (hrc=NS_OK)
00:00:00.205181 nspr-2   VirtualBox: object created
00:00:00.212018 nspr-2   Launched VM: 4026535360 pid: 660735 (0xa14ff) frontend: headless name: Arch
00:00:00.521906 nspr-4   VM 'Arch' starts using NAT network 'NatNetwork'
00:00:00.522010 nspr-4   HostDnsMonitorProxy::GetDomainName: no domain set
00:00:00.522048 nspr-4   ERROR [COM]: aRC=VBOX_E_OBJECT_NOT_FOUND (0x80bb0001) aIID={46735de7-f4c4-4020-a185-0d2881bcfa8b} aComponent={DHCPGlobalConfigWrap} aText={DHCP option 15 was not found}, preserve=false aResultDetail=0
00:00:00.522105 nspr-4   HostDnsMonitorProxy::GetNameServers:
00:00:00.522124 nspr-4     name server 1: 194.168.4.100
00:00:00.522142 nspr-4     name server 2: 194.168.8.100
00:00:00.522319 nspr-4   Saving settings file "/home/tarun/.config/VirtualBox/VirtualBox.xml" with version "1.14-linux"
00:00:00.639858 nspr-4   Saving settings file "/home/tarun/.config/VirtualBox/VirtualBox.xml" with version "1.14-linux"
00:00:00.741241 nspr-4   NetworkServiceRunning: started 'VBoxNetDHCP', pid 000a1522
00:00:00.741647 nspr-4   NetworkServiceRunning: started 'VBoxNetNAT', pid 000a1523
00:00:00.741733 nspr-4   Started NAT network 'NatNetwork'
00:00:00.742606 nspr-3   Saving settings file "/home/tarun/VirtualBox VMs/Arch/Arch.vbox" with version "1.16-linux"
00:00:00.831036 nspr-4   HostDnsMonitorProxy::GetNameServers:
00:00:00.831073 nspr-4     name server 1: 194.168.4.100
00:00:00.831086 nspr-4     name server 2: 194.168.8.100
00:00:00.917917 nspr-3   WARNING [COM]: aRC=NS_ERROR_FAILURE (0x80004005) aIID={16ced992-5fdc-4aba-aff5-6a39bbd7c38b} aComponent={HostWrap} aText={VirtualBox is not currently allowed to access USB devices.  You can change this by adding your user to the 'vboxusers' group.  Please see the user manual for a more detailed explanation}, preserve=true  aResultDetail=0
00:00:00.990667 nspr-3   NetIfAdpCtlOut: VBoxNetAdpCtl: Error while retrieving link speed for wlan0: VBoxNetAdpCtl: ioctl failed: Operation not supported
00:00:01.018228 nspr-4   NetworkServiceRunning: started 'VBoxNetDHCP', pid 000a1540
00:00:44.432663 nspr-3   Saving settings file "/home/tarun/VirtualBox VMs/Arch/Arch.vbox" with version "1.16-linux"
00:00:44.604049 nspr-4   VM 'Arch' stops using NAT network 'NatNetwork'
00:00:44.611865 nspr-4   NetworkServiceRunning: killing VBoxNetDHCP, pid 000a1522...
00:00:44.619957 nspr-4   NetworkServiceRunning: VBoxNetNAT (pid 000a1523) stopped: iStatus=0 enmReason=1
00:00:44.620014 nspr-4   Stopped NAT network 'NatNetwork'
00:00:49.622804 main     VirtualBox: object deletion starts
00:00:49.622904 main     ERROR [COM]: aRC=VBOX_E_OBJECT_IN_USE (0x80bb000c) aIID={ad47ad09-787b-44ab-b343-a082a3f2dfb1} aComponent={MediumWrap} aText={Medium '/home/tarun/VirtualBox VMs/Arch/Snapshots/{c39b4ce7-9e72-4b58-a180-e597e1d45607}.vdi' cannot be closed because it is still attached to 1 virtual machines}, preserve=false aResultDetail=0
00:00:49.622957 main     ERROR [COM]: aRC=VBOX_E_OBJECT_IN_USE (0x80bb000c) aIID={ad47ad09-787b-44ab-b343-a082a3f2dfb1} aComponent={MediumWrap} aText={Medium '/home/tarun/VirtualBox VMs/Arch/Snapshots/{19cdcb6c-8ed7-4b2b-b6c6-23b302a0f7ae}.vdi' cannot be closed because it is still attached to 1 virtual machines}, preserve=false aResultDetail=0
00:00:49.622988 main     ERROR [COM]: aRC=VBOX_E_OBJECT_IN_USE (0x80bb000c) aIID={ad47ad09-787b-44ab-b343-a082a3f2dfb1} aComponent={MediumWrap} aText={Medium '/home/tarun/VirtualBox VMs/Arch/Snapshots/{2cc1a8b0-2408-45db-9b33-9455afeb2ce4}.vdi' cannot be closed because it is still attached to 1 virtual machines}, preserve=false aResultDetail=0
00:00:49.623016 main     ERROR [COM]: aRC=VBOX_E_OBJECT_IN_USE (0x80bb000c) aIID={ad47ad09-787b-44ab-b343-a082a3f2dfb1} aComponent={MediumWrap} aText={Medium '/home/tarun/VirtualBox VMs/Arch/Snapshots/{3862d46c-9456-4117-b7ea-095a74bfdce8}.vdi' cannot be closed because it is still attached to 1 virtual machines}, preserve=false aResultDetail=0
00:00:49.623043 main     ERROR [COM]: aRC=VBOX_E_OBJECT_IN_USE (0x80bb000c) aIID={ad47ad09-787b-44ab-b343-a082a3f2dfb1} aComponent={MediumWrap} aText={Medium '/home/tarun/VirtualBox VMs/Arch/Arch.vdi' cannot be closed because it is still attached to 1 virtual machines}, preserve=false aResultDetail=0
00:00:49.623072 main     ERROR [COM]: aRC=VBOX_E_OBJECT_IN_USE (0x80bb000c) aIID={ad47ad09-787b-44ab-b343-a082a3f2dfb1} aComponent={MediumWrap} aText={Medium '/home/tarun/VirtualBox VMs/Arch/Snapshots/{9f4ef9c1-47e3-4389-b62c-c6ed1e6454ad}.vdi' cannot be closed because it is still attached to 1 virtual machines}, preserve=false aResultDetail=0
00:00:49.623100 main     ERROR [COM]: aRC=VBOX_E_OBJECT_IN_USE (0x80bb000c) aIID={ad47ad09-787b-44ab-b343-a082a3f2dfb1} aComponent={MediumWrap} aText={Medium '/home/tarun/VirtualBox VMs/Arch/Snapshots/{55e9e13d-e562-4955-86ad-63fd6440422c}.vdi' cannot be closed because it is still attached to 1 virtual machines}, preserve=false aResultDetail=0
00:00:49.623127 main     ERROR [COM]: aRC=VBOX_E_OBJECT_IN_USE (0x80bb000c) aIID={ad47ad09-787b-44ab-b343-a082a3f2dfb1} aComponent={MediumWrap} aText={Medium '/home/tarun/VirtualBox VMs/Arch/Snapshots/{2114cf72-0067-4503-a5d2-ba736862ee6d}.vdi' cannot be closed because it is still attached to 1 virtual machines}, preserve=false aResultDetail=0
00:00:49.623155 main     ERROR [COM]: aRC=VBOX_E_OBJECT_IN_USE (0x80bb000c) aIID={ad47ad09-787b-44ab-b343-a082a3f2dfb1} aComponent={MediumWrap} aText={Medium '/home/tarun/VirtualBox VMs/Arch/Snapshots/{c0bfb9e9-7622-45ec-bc9d-a0e0a440028d}.vdi' cannot be closed because it is still attached to 1 virtual machines}, preserve=false aResultDetail=0
00:00:49.623203 main     ERROR [COM]: aRC=VBOX_E_OBJECT_IN_USE (0x80bb000c) aIID={ad47ad09-787b-44ab-b343-a082a3f2dfb1} aComponent={MediumWrap} aText={Medium '/home/tarun/VirtualBox VMs/Arch/Arch_1.vdi' cannot be closed because it is still attached to 1 virtual machines}, preserve=false aResultDetail=0
00:00:49.623897 main     NetworkServiceRunning: killing VBoxNetDHCP, pid 000a1540...
00:00:49.654972 main     HostDnsMonitor: shutting down ...
00:00:49.660584 main     HostDnsMonitor: shut down
00:00:50.104799 Watcher  ERROR [COM]: aRC=E_ACCESSDENIED (0x80070005) aIID={d0a0163f-e254-4e5b-a1f2-011cf991c38d} aComponent={VirtualBoxWrap} aText={The object is not ready}, preserve=false aResultDetail=0
00:00:54.660767 main     {00007fcef40165c0} HostPowerServiceLinux::~HostPowerServiceLinux: RTThreadWait() for 5000 ms failed with VERR_TIMEOUT
00:00:54.661673 main     VirtualBox: object deleted
